%YAML 1.1
%TAG !u! tag:unity3d.com,2011:
--- !u!114 &-8183366479190725937
MonoBehaviour:
  m_ObjectHideFlags: 3
  m_CorrespondingSourceObject: {fileID: 0}
  m_PrefabInstance: {fileID: 0}
  m_PrefabAsset: {fileID: 0}
  m_GameObject: {fileID: 0}
  m_Enabled: 1
  m_EditorHideFlags: 0
  m_Script: {fileID: 11500000, guid: f086a068d4c5889438831b3ae9afc11c, type: 3}
  m_Name: Tonemapping
  m_EditorClassIdentifier: 
  active: 0
  m_AdvancedMode: 0
  mode:
    m_OverrideState: 1
    m_Value: 3
  toeStrength:
    m_OverrideState: 1
    m_Value: 0.174
    min: 0
    max: 1
  toeLength:
    m_OverrideState: 1
    m_Value: 0.094
    min: 0
    max: 1
  shoulderStrength:
    m_OverrideState: 1
    m_Value: 0.397
    min: 0
    max: 1
  shoulderLength:
    m_OverrideState: 1
    m_Value: 3.99
    min: 0
  shoulderAngle:
    m_OverrideState: 1
    m_Value: 0
    min: 0
    max: 1
  gamma:
    m_OverrideState: 1
    m_Value: 1.83
    min: 0.001
--- !u!114 &-7507622056579300468
MonoBehaviour:
  m_ObjectHideFlags: 3
  m_CorrespondingSourceObject: {fileID: 0}
  m_PrefabInstance: {fileID: 0}
  m_PrefabAsset: {fileID: 0}
  m_GameObject: {fileID: 0}
  m_Enabled: 1
  m_EditorHideFlags: 0
  m_Script: {fileID: 11500000, guid: 5a6b00fcf518bb94a90b408492e07b44, type: 3}
  m_Name: FilmGrain
  m_EditorClassIdentifier: 
  active: 1
  m_AdvancedMode: 0
  type:
    m_OverrideState: 1
    m_Value: 2
  intensity:
    m_OverrideState: 1
    m_Value: 0.74
    min: 0
    max: 1
  response:
    m_OverrideState: 1
    m_Value: 1
    min: 0
    max: 1
  texture:
    m_OverrideState: 1
    m_Value: {fileID: 0}
--- !u!114 &-6184925508084111247
MonoBehaviour:
  m_ObjectHideFlags: 3
  m_CorrespondingSourceObject: {fileID: 0}
  m_PrefabInstance: {fileID: 0}
  m_PrefabAsset: {fileID: 0}
  m_GameObject: {fileID: 0}
  m_Enabled: 1
  m_EditorHideFlags: 0
  m_Script: {fileID: 11500000, guid: f034cba68ab55e046ae1445a42f18c0e, type: 3}
  m_Name: IndirectLightingController
  m_EditorClassIdentifier: 
  active: 1
  m_AdvancedMode: 0
  indirectSpecularIntensity:
    m_OverrideState: 1
    m_Value: 1
    min: 0
  indirectDiffuseIntensity:
    m_OverrideState: 1
    m_Value: 1.95
    min: 0
--- !u!114 &-4847769213552621479
MonoBehaviour:
  m_ObjectHideFlags: 3
  m_CorrespondingSourceObject: {fileID: 0}
  m_PrefabInstance: {fileID: 0}
  m_PrefabAsset: {fileID: 0}
  m_GameObject: {fileID: 0}
  m_Enabled: 1
  m_EditorHideFlags: 0
  m_Script: {fileID: 11500000, guid: 9008a067f4d626c4d8bc4bc48f04bb89, type: 3}
  m_Name: AmbientOcclusion
  m_EditorClassIdentifier: 
  active: 1
  m_AdvancedMode: 0
  intensity:
    m_OverrideState: 1
    m_Value: 0.4
    min: 0
    max: 4
  stepCount:
    m_OverrideState: 1
    m_Value: 29
    min: 2
    max: 32
  radius:
    m_OverrideState: 1
    m_Value: 5
    min: 0.25
    max: 5
  fullResolution:
    m_OverrideState: 1
    m_Value: 1
  maximumRadiusInPixels:
    m_OverrideState: 1
    m_Value: 16
    min: 16
    max: 256
  directLightingStrength:
    m_OverrideState: 1
    m_Value: 1
    min: 0
    max: 1
  enableRaytracing:
    m_OverrideState: 1
    m_Value: 0
  rayLength:
    m_OverrideState: 1
    m_Value: 0.5
    min: 0
    max: 50
  enableFilter:
    m_OverrideState: 1
    m_Value: 0
  numSamples:
    m_OverrideState: 1
    m_Value: 4
    min: 1
    max: 64
  filterRadius:
    m_OverrideState: 1
    m_Value: 16
    min: 1
    max: 32
--- !u!114 &-2922782453778421922
MonoBehaviour:
  m_ObjectHideFlags: 3
  m_CorrespondingSourceObject: {fileID: 0}
  m_PrefabInstance: {fileID: 0}
  m_PrefabAsset: {fileID: 0}
  m_GameObject: {fileID: 0}
  m_Enabled: 1
  m_EditorHideFlags: 0
  m_Script: {fileID: 11500000, guid: 24f077503be6ae942a1e1245dbd53ea9, type: 3}
  m_Name: Bloom
  m_EditorClassIdentifier: 
  active: 0
  m_AdvancedMode: 0
  intensity:
    m_OverrideState: 1
    m_Value: 0.428
    min: 0
    max: 1
  scatter:
    m_OverrideState: 1
    m_Value: 0.549
    min: 0
    max: 1
  tint:
    m_OverrideState: 1
    m_Value: {r: 1, g: 1, b: 1, a: 1}
    hdr: 0
    showAlpha: 0
    showEyeDropper: 1
  dirtTexture:
    m_OverrideState: 1
    m_Value: {fileID: 2800000, guid: 69e847bbff1cf5449a4ee0bbd045dbc9, type: 3}
  dirtIntensity:
    m_OverrideState: 1
    m_Value: 3.6
    min: 0
  highQualityFiltering:
    m_OverrideState: 1
    m_Value: 1
  resolution:
    m_OverrideState: 1
    m_Value: 2
  prefilter:
    m_OverrideState: 1
    m_Value: 0
  anamorphic:
    m_OverrideState: 1
    m_Value: 1
--- !u!114 &11400000
MonoBehaviour:
  m_ObjectHideFlags: 0
  m_CorrespondingSourceObject: {fileID: 0}
  m_PrefabInstance: {fileID: 0}
  m_PrefabAsset: {fileID: 0}
  m_GameObject: {fileID: 0}
  m_Enabled: 1
  m_EditorHideFlags: 0
  m_Script: {fileID: 11500000, guid: d7fd9488000d3734a9e00ee676215985, type: 3}
  m_Name: Harboria_Postprocess Profile
  m_EditorClassIdentifier: 
  components:
  - {fileID: -8183366479190725937}
  - {fileID: 7883046663835408933}
  - {fileID: -6184925508084111247}
  - {fileID: 1627163051423891327}
  - {fileID: 6816114304326828913}
  - {fileID: 3278447612169265967}
  - {fileID: 5491123659787336011}
  - {fileID: -4847769213552621479}
  - {fileID: -7507622056579300468}
  - {fileID: -2922782453778421922}
  - {fileID: 3565143942787805699}
  - {fileID: 6811072375274993047}
  - {fileID: 5487948127571580068}
  - {fileID: 253369876455549648}
--- !u!114 &253369876455549648
MonoBehaviour:
  m_ObjectHideFlags: 3
  m_CorrespondingSourceObject: {fileID: 0}
  m_PrefabInstance: {fileID: 0}
  m_PrefabAsset: {fileID: 0}
  m_GameObject: {fileID: 0}
  m_Enabled: 1
  m_EditorHideFlags: 0
  m_Script: {fileID: 11500000, guid: a7649d9368d3a5c4ab8ad01a63e04962, type: 3}
  m_Name: ChannelMixer
  m_EditorClassIdentifier: 
  active: 1
  m_AdvancedMode: 0
  redOutRedIn:
    m_OverrideState: 1
    m_Value: 128
    min: -200
    max: 200
  redOutGreenIn:
    m_OverrideState: 1
    m_Value: 5
    min: -200
    max: 200
  redOutBlueIn:
    m_OverrideState: 1
    m_Value: 19
    min: -200
    max: 200
  greenOutRedIn:
    m_OverrideState: 1
    m_Value: 2
    min: -200
    max: 200
  greenOutGreenIn:
    m_OverrideState: 1
    m_Value: 89
    min: -200
    max: 200
  greenOutBlueIn:
    m_OverrideState: 1
    m_Value: 21
    min: -200
    max: 200
  blueOutRedIn:
    m_OverrideState: 0
    m_Value: 8
    min: -200
    max: 200
  blueOutGreenIn:
    m_OverrideState: 0
    m_Value: -5
    min: -200
    max: 200
  blueOutBlueIn:
    m_OverrideState: 0
    m_Value: 100
    min: -200
    max: 200
  m_SelectedChannel: 2
--- !u!114 &788265189789908266
MonoBehaviour:
  m_ObjectHideFlags: 3
  m_CorrespondingSourceObject: {fileID: 0}
  m_PrefabInstance: {fileID: 0}
  m_PrefabAsset: {fileID: 0}
  m_GameObject: {fileID: 0}
  m_Enabled: 1
  m_EditorHideFlags: 0
  m_Script: {fileID: 11500000, guid: 9008a067f4d626c4d8bc4bc48f04bb89, type: 3}
  m_Name: AmbientOcclusion
  m_EditorClassIdentifier: 
  active: 1
  m_AdvancedMode: 0
  intensity:
    m_OverrideState: 0
    m_Value: 0
    min: 0
    max: 4
  stepCount:
    m_OverrideState: 0
    m_Value: 6
    min: 2
    max: 32
  radius:
    m_OverrideState: 0
    m_Value: 2
    min: 0.25
    max: 5
  fullResolution:
    m_OverrideState: 0
    m_Value: 0
  maximumRadiusInPixels:
    m_OverrideState: 0
    m_Value: 40
    min: 16
    max: 256
  directLightingStrength:
    m_OverrideState: 0
    m_Value: 0
    min: 0
    max: 1
  enableRaytracing:
    m_OverrideState: 0
    m_Value: 0
  rayLength:
    m_OverrideState: 0
    m_Value: 0.5
    min: 0
    max: 50
  enableFilter:
    m_OverrideState: 0
    m_Value: 0
  numSamples:
    m_OverrideState: 0
    m_Value: 4
    min: 1
    max: 64
  filterRadius:
    m_OverrideState: 0
    m_Value: 16
    min: 1
    max: 32
--- !u!114 &1627163051423891327
MonoBehaviour:
  m_ObjectHideFlags: 3
  m_CorrespondingSourceObject: {fileID: 0}
  m_PrefabInstance: {fileID: 0}
  m_PrefabAsset: {fileID: 0}
  m_GameObject: {fileID: 0}
  m_Enabled: 1
  m_EditorHideFlags: 0
  m_Script: {fileID: 11500000, guid: da5ab44aadfb1804db5fd470983ac1b8, type: 3}
  m_Name: LiftGammaGain
  m_EditorClassIdentifier: 
  active: 0
  m_AdvancedMode: 0
  lift:
    m_OverrideState: 1
    m_Value: {x: 0.7781882, y: 1, z: 0.8694492, w: -0.09737098}
  gamma:
    m_OverrideState: 1
    m_Value: {x: 1, y: 0.90118724, z: 0.7511914, w: 0.15544055}
  gain:
    m_OverrideState: 1
    m_Value: {x: 0.6800564, y: 0.76032805, z: 1, w: 0.06730972}
--- !u!114 &3278447612169265967
MonoBehaviour:
  m_ObjectHideFlags: 3
  m_CorrespondingSourceObject: {fileID: 0}
  m_PrefabInstance: {fileID: 0}
  m_PrefabAsset: {fileID: 0}
  m_GameObject: {fileID: 0}
  m_Enabled: 1
  m_EditorHideFlags: 0
  m_Script: {fileID: 11500000, guid: 32b6af8f7ad32324cb6941c3290e5895, type: 3}
  m_Name: MicroShadowing
  m_EditorClassIdentifier: 
  active: 0
  m_AdvancedMode: 0
  enable:
    m_OverrideState: 1
    m_Value: 0
  opacity:
    m_OverrideState: 1
    m_Value: 0.154
    min: 0
    max: 1
--- !u!114 &3565143942787805699
MonoBehaviour:
  m_ObjectHideFlags: 3
  m_CorrespondingSourceObject: {fileID: 0}
  m_PrefabInstance: {fileID: 0}
  m_PrefabAsset: {fileID: 0}
  m_GameObject: {fileID: 0}
  m_Enabled: 1
  m_EditorHideFlags: 0
  m_Script: {fileID: 11500000, guid: 4b8bcdf71d7fafa419fca1ed162f5fc9, type: 3}
  m_Name: ColorAdjustments
  m_EditorClassIdentifier: 
  active: 1
  m_AdvancedMode: 0
  postExposure:
    m_OverrideState: 1
    m_Value: 0.64
  contrast:
    m_OverrideState: 1
    m_Value: -9.2
    min: -100
    max: 100
  colorFilter:
    m_OverrideState: 1
    m_Value: {r: 0.81501424, g: 0.9339623, b: 0.9147114, a: 1}
    hdr: 1
    showAlpha: 0
    showEyeDropper: 1
  hueShift:
    m_OverrideState: 1
    m_Value: 11
    min: -180
    max: 180
  saturation:
    m_OverrideState: 1
    m_Value: 14.9
    min: -100
    max: 100
--- !u!114 &5487948127571580068
MonoBehaviour:
  m_ObjectHideFlags: 3
  m_CorrespondingSourceObject: {fileID: 0}
  m_PrefabInstance: {fileID: 0}
  m_PrefabAsset: {fileID: 0}
  m_GameObject: {fileID: 0}
  m_Enabled: 1
  m_EditorHideFlags: 0
  m_Script: {fileID: 11500000, guid: 0775cbb206825d541bf6c0297ee524ca, type: 3}
  m_Name: SplitToning
  m_EditorClassIdentifier: 
  active: 1
  m_AdvancedMode: 0
  shadows:
    m_OverrideState: 1
    m_Value: {r: 0.8113208, g: 0.36740607, b: 0.34060165, a: 1}
    hdr: 0
    showAlpha: 0
    showEyeDropper: 1
  highlights:
    m_OverrideState: 1
    m_Value: {r: 0.64277077, g: 0.7075472, b: 0.20358667, a: 1}
    hdr: 0
    showAlpha: 0
    showEyeDropper: 1
  balance:
    m_OverrideState: 1
    m_Value: -7.3
    min: -100
    max: 100
--- !u!114 &5491123659787336011
MonoBehaviour:
  m_ObjectHideFlags: 3
  m_CorrespondingSourceObject: {fileID: 0}
  m_PrefabInstance: {fileID: 0}
  m_PrefabAsset: {fileID: 0}
  m_GameObject: {fileID: 0}
  m_Enabled: 1
  m_EditorHideFlags: 0
  m_Script: {fileID: 11500000, guid: 2c1be1b6c95cd2e41b27903b9270817f, type: 3}
  m_Name: Vignette
  m_EditorClassIdentifier: 
  active: 1
  m_AdvancedMode: 0
  mode:
    m_OverrideState: 1
    m_Value: 0
  color:
    m_OverrideState: 1
    m_Value: {r: 0, g: 0, b: 0, a: 1}
    hdr: 0
    showAlpha: 0
    showEyeDropper: 1
  center:
    m_OverrideState: 1
    m_Value: {x: 0.5, y: 0.5}
  intensity:
    m_OverrideState: 1
    m_Value: 0.366
    min: 0
    max: 1
  smoothness:
    m_OverrideState: 1
    m_Value: 0.704
    min: 0.01
    max: 1
  roundness:
    m_OverrideState: 1
    m_Value: 0.954
    min: 0
    max: 1
  rounded:
    m_OverrideState: 1
    m_Value: 0
  mask:
    m_OverrideState: 1
    m_Value: {fileID: 0}
  opacity:
    m_OverrideState: 1
    m_Value: 1
    min: 0
    max: 1
--- !u!114 &5799752169450486431
MonoBehaviour:
  m_ObjectHideFlags: 3
  m_CorrespondingSourceObject: {fileID: 0}
  m_PrefabInstance: {fileID: 0}
  m_PrefabAsset: {fileID: 0}
  m_GameObject: {fileID: 0}
  m_Enabled: 1
  m_EditorHideFlags: 0
  m_Script: {fileID: 11500000, guid: b51a78e223a2e504bb88a059b55229ea, type: 3}
  m_Name: WhiteBalance
  m_EditorClassIdentifier: 
  active: 1
  m_AdvancedMode: 0
  temperature:
    m_OverrideState: 0
    m_Value: 0
    min: -100
    max: 100
  tint:
    m_OverrideState: 0
    m_Value: 0
    min: -100
    max: 100
--- !u!114 &6811072375274993047
MonoBehaviour:
  m_ObjectHideFlags: 3
  m_CorrespondingSourceObject: {fileID: 0}
  m_PrefabInstance: {fileID: 0}
  m_PrefabAsset: {fileID: 0}
  m_GameObject: {fileID: 0}
  m_Enabled: 1
  m_EditorHideFlags: 0
  m_Script: {fileID: 11500000, guid: aaa3b8214f75b354e9ba2caadd022259, type: 3}
  m_Name: DepthOfField
  m_EditorClassIdentifier: 
  active: 1
  m_AdvancedMode: 1
  focusMode:
    m_OverrideState: 1
    m_Value: 2
  focusDistance:
    m_OverrideState: 1
    m_Value: 110.15
    min: 0.1
  nearFocusStart:
    m_OverrideState: 1
    m_Value: 0
    min: 0
  nearFocusEnd:
    m_OverrideState: 1
    m_Value: 0
    min: 0
  farFocusStart:
    m_OverrideState: 1
    m_Value: 500
    min: 0
  farFocusEnd:
    m_OverrideState: 1
    m_Value: 300
    min: 0
  nearSampleCount:
    m_OverrideState: 1
    m_Value: 5
    min: 3
    max: 8
  nearMaxBlur:
    m_OverrideState: 1
    m_Value: 4.33
    min: 0
    max: 8
  farSampleCount:
    m_OverrideState: 1
    m_Value: 13
    min: 3
    max: 16
  farMaxBlur:
    m_OverrideState: 1
    m_Value: 5.68
    min: 0
    max: 16
  highQualityFiltering:
    m_OverrideState: 1
    m_Value: 1
  resolution:
    m_OverrideState: 1
    m_Value: 1
--- !u!114 &6816114304326828913
MonoBehaviour:
  m_ObjectHideFlags: 3
  m_CorrespondingSourceObject: {fileID: 0}
  m_PrefabInstance: {fileID: 0}
  m_PrefabAsset: {fileID: 0}
  m_GameObject: {fileID: 0}
  m_Enabled: 1
  m_EditorHideFlags: 0
  m_Script: {fileID: 11500000, guid: 6b24b200358312b4fa1004e2431c2f1f, type: 3}
  m_Name: ShadowsMidtonesHighlights
  m_EditorClassIdentifier: 
  active: 0
  m_AdvancedMode: 0
  shadows:
    m_OverrideState: 1
    m_Value: {x: 0.44262028, y: 0.5530772, z: 1, w: 0.99925977}
  midtones:
    m_OverrideState: 1
    m_Value: {x: 0.85281503, y: 0.8885182, z: 1, w: -0.17024416}
  highlights:
    m_OverrideState: 1
    m_Value: {x: 1, y: 0.90551007, z: 0.7118609, w: 0.2294597}
  shadowsStart:
    m_OverrideState: 1
    m_Value: 0
    min: 0
  shadowsEnd:
    m_OverrideState: 1
    m_Value: 0
    min: 0
  highlightsStart:
    m_OverrideState: 1
    m_Value: 0.36
    min: 0
  highlightsEnd:
    m_OverrideState: 1
    m_Value: 1.12
    min: 0
--- !u!114 &7883046663835408933
MonoBehaviour:
  m_ObjectHideFlags: 3
  m_CorrespondingSourceObject: {fileID: 0}
  m_PrefabInstance: {fileID: 0}
  m_PrefabAsset: {fileID: 0}
  m_GameObject: {fileID: 0}
  m_Enabled: 1
  m_EditorHideFlags: 0
  m_Script: {fileID: 11500000, guid: b51a78e223a2e504bb88a059b55229ea, type: 3}
  m_Name: WhiteBalance
  m_EditorClassIdentifier: 
  active: 1
  m_AdvancedMode: 0
  temperature:
    m_OverrideState: 1
    m_Value: -9
    min: -100
    max: 100
  tint:
    m_OverrideState: 1
    m_Value: 3
    min: -100
    max: 100
