%YAML 1.1
%TAG !u! tag:unity3d.com,2011:
--- !u!1 &4212413477875712211
GameObject:
  m_ObjectHideFlags: 0
  m_CorrespondingSourceObject: {fileID: 0}
  m_PrefabInstance: {fileID: 0}
  m_PrefabAsset: {fileID: 0}
  serializedVersion: 6
  m_Component:
  - component: {fileID: 8399559678385643662}
  m_Layer: 0
  m_Name: EA_Shop_Comp_Rose_01b_PRE
  m_TagString: Untagged
  m_Icon: {fileID: 0}
  m_NavMeshLayer: 0
  m_StaticEditorFlags: 0
  m_IsActive: 1
--- !u!4 &8399559678385643662
Transform:
  m_ObjectHideFlags: 0
  m_CorrespondingSourceObject: {fileID: 0}
  m_PrefabInstance: {fileID: 0}
  m_PrefabAsset: {fileID: 0}
  m_GameObject: {fileID: 4212413477875712211}
  m_LocalRotation: {x: 0, y: 0, z: 0, w: 1}
  m_LocalPosition: {x: 0, y: 0, z: 0}
  m_LocalScale: {x: 1, y: 1, z: 1}
  m_Children:
  - {fileID: 6390629330344480806}
  - {fileID: 2493420148918855283}
  - {fileID: 8457069484059922899}
  - {fileID: 4126174489702457137}
  - {fileID: 7911575172467143592}
  - {fileID: 737275897248406855}
  - {fileID: 3271778824685041948}
  - {fileID: 1571457830697828028}
  - {fileID: 2064589167909577967}
  m_Father: {fileID: 0}
  m_RootOrder: 0
  m_LocalEulerAnglesHint: {x: 0, y: 0, z: 0}
--- !u!1001 &311692154725848773
PrefabInstance:
  m_ObjectHideFlags: 0
  serializedVersion: 2
  m_Modification:
    m_TransformParent: {fileID: 8399559678385643662}
    m_Modifications:
    - target: {fileID: 6900513219070596990, guid: 550cd52fe1a24f344960983245f47953,
        type: 3}
      propertyPath: m_Name
      value: EA_Clean_Middle_Floor_Convex_Rose_01_PRE (1)
      objectReference: {fileID: 0}
    - target: {fileID: 7609066791725294957, guid: 550cd52fe1a24f344960983245f47953,
        type: 3}
      propertyPath: m_LocalPosition.x
      value: 8.003601
      objectReference: {fileID: 0}
    - target: {fileID: 7609066791725294957, guid: 550cd52fe1a24f344960983245f47953,
        type: 3}
      propertyPath: m_LocalPosition.y
      value: 4.0367203
      objectReference: {fileID: 0}
    - target: {fileID: 7609066791725294957, guid: 550cd52fe1a24f344960983245f47953,
        type: 3}
      propertyPath: m_LocalPosition.z
      value: 2.1397552
      objectReference: {fileID: 0}
    - target: {fileID: 7609066791725294957, guid: 550cd52fe1a24f344960983245f47953,
        type: 3}
      propertyPath: m_LocalRotation.x
      value: -0
      objectReference: {fileID: 0}
    - target: {fileID: 7609066791725294957, guid: 550cd52fe1a24f344960983245f47953,
        type: 3}
      propertyPath: m_LocalRotation.y
      value: -0
      objectReference: {fileID: 0}
    - target: {fileID: 7609066791725294957, guid: 550cd52fe1a24f344960983245f47953,
        type: 3}
      propertyPath: m_LocalRotation.z
      value: -0
      objectReference: {fileID: 0}
    - target: {fileID: 7609066791725294957, guid: 550cd52fe1a24f344960983245f47953,
        type: 3}
      propertyPath: m_LocalRotation.w
      value: 1
      objectReference: {fileID: 0}
    - target: {fileID: 7609066791725294957, guid: 550cd52fe1a24f344960983245f47953,
        type: 3}
      propertyPath: m_RootOrder
      value: 4
      objectReference: {fileID: 0}
    - target: {fileID: 7609066791725294957, guid: 550cd52fe1a24f344960983245f47953,
        type: 3}
      propertyPath: m_LocalEulerAnglesHint.x
      value: 0
      objectReference: {fileID: 0}
    - target: {fileID: 7609066791725294957, guid: 550cd52fe1a24f344960983245f47953,
        type: 3}
      propertyPath: m_LocalEulerAnglesHint.y
      value: 0
      objectReference: {fileID: 0}
    - target: {fileID: 7609066791725294957, guid: 550cd52fe1a24f344960983245f47953,
        type: 3}
      propertyPath: m_LocalEulerAnglesHint.z
      value: 0
      objectReference: {fileID: 0}
    m_RemovedComponents: []
  m_SourcePrefab: {fileID: 100100000, guid: 550cd52fe1a24f344960983245f47953, type: 3}
--- !u!4 &7911575172467143592 stripped
Transform:
  m_CorrespondingSourceObject: {fileID: 7609066791725294957, guid: 550cd52fe1a24f344960983245f47953,
    type: 3}
  m_PrefabInstance: {fileID: 311692154725848773}
  m_PrefabAsset: {fileID: 0}
--- !u!1001 &1544904790387746093
PrefabInstance:
  m_ObjectHideFlags: 0
  serializedVersion: 2
  m_Modification:
    m_TransformParent: {fileID: 8399559678385643662}
    m_Modifications:
    - target: {fileID: 1030324729509424674, guid: 51688e4149bf793469258b27380107ab,
        type: 3}
      propertyPath: m_Name
      value: EA_Roof_Rose_04_PRE
      objectReference: {fileID: 0}
    - target: {fileID: 4041746714907073585, guid: 51688e4149bf793469258b27380107ab,
        type: 3}
      propertyPath: m_LocalPosition.x
      value: 0.0036010742
      objectReference: {fileID: 0}
    - target: {fileID: 4041746714907073585, guid: 51688e4149bf793469258b27380107ab,
        type: 3}
      propertyPath: m_LocalPosition.y
      value: 8.03672
      objectReference: {fileID: 0}
    - target: {fileID: 4041746714907073585, guid: 51688e4149bf793469258b27380107ab,
        type: 3}
      propertyPath: m_LocalPosition.z
      value: 2.1397552
      objectReference: {fileID: 0}
    - target: {fileID: 4041746714907073585, guid: 51688e4149bf793469258b27380107ab,
        type: 3}
      propertyPath: m_LocalRotation.x
      value: -0
      objectReference: {fileID: 0}
    - target: {fileID: 4041746714907073585, guid: 51688e4149bf793469258b27380107ab,
        type: 3}
      propertyPath: m_LocalRotation.y
      value: -0
      objectReference: {fileID: 0}
    - target: {fileID: 4041746714907073585, guid: 51688e4149bf793469258b27380107ab,
        type: 3}
      propertyPath: m_LocalRotation.z
      value: -0
      objectReference: {fileID: 0}
    - target: {fileID: 4041746714907073585, guid: 51688e4149bf793469258b27380107ab,
        type: 3}
      propertyPath: m_LocalRotation.w
      value: 1
      objectReference: {fileID: 0}
    - target: {fileID: 4041746714907073585, guid: 51688e4149bf793469258b27380107ab,
        type: 3}
      propertyPath: m_RootOrder
      value: 6
      objectReference: {fileID: 0}
    - target: {fileID: 4041746714907073585, guid: 51688e4149bf793469258b27380107ab,
        type: 3}
      propertyPath: m_LocalEulerAnglesHint.x
      value: 0
      objectReference: {fileID: 0}
    - target: {fileID: 4041746714907073585, guid: 51688e4149bf793469258b27380107ab,
        type: 3}
      propertyPath: m_LocalEulerAnglesHint.y
      value: 0
      objectReference: {fileID: 0}
    - target: {fileID: 4041746714907073585, guid: 51688e4149bf793469258b27380107ab,
        type: 3}
      propertyPath: m_LocalEulerAnglesHint.z
      value: 0
      objectReference: {fileID: 0}
    m_RemovedComponents: []
  m_SourcePrefab: {fileID: 100100000, guid: 51688e4149bf793469258b27380107ab, type: 3}
--- !u!4 &3271778824685041948 stripped
Transform:
  m_CorrespondingSourceObject: {fileID: 4041746714907073585, guid: 51688e4149bf793469258b27380107ab,
    type: 3}
  m_PrefabInstance: {fileID: 1544904790387746093}
  m_PrefabAsset: {fileID: 0}
--- !u!1001 &1935297495749974962
PrefabInstance:
  m_ObjectHideFlags: 0
  serializedVersion: 2
  m_Modification:
    m_TransformParent: {fileID: 8399559678385643662}
    m_Modifications:
    - target: {fileID: 611950566881026883, guid: c0a590a9747ed874d86b60c38282f455,
        type: 3}
      propertyPath: m_Materials.Array.data[0]
      value: 
      objectReference: {fileID: 2100000, guid: 7c8ba808769784d4ca45101987dcb24b, type: 2}
    - target: {fileID: 2514365509487735754, guid: c0a590a9747ed874d86b60c38282f455,
        type: 3}
      propertyPath: m_Materials.Array.data[0]
      value: 
      objectReference: {fileID: 2100000, guid: 7c8ba808769784d4ca45101987dcb24b, type: 2}
    - target: {fileID: 4336046547347073068, guid: c0a590a9747ed874d86b60c38282f455,
        type: 3}
      propertyPath: m_Materials.Array.data[0]
      value: 
      objectReference: {fileID: 2100000, guid: 7c8ba808769784d4ca45101987dcb24b, type: 2}
    - target: {fileID: 4357465089192660210, guid: c0a590a9747ed874d86b60c38282f455,
        type: 3}
      propertyPath: m_Materials.Array.data[0]
      value: 
      objectReference: {fileID: 2100000, guid: 7c8ba808769784d4ca45101987dcb24b, type: 2}
    - target: {fileID: 4786092020873644948, guid: c0a590a9747ed874d86b60c38282f455,
        type: 3}
      propertyPath: m_LocalPosition.x
      value: 7.9996643
      objectReference: {fileID: 0}
    - target: {fileID: 4786092020873644948, guid: c0a590a9747ed874d86b60c38282f455,
        type: 3}
      propertyPath: m_LocalPosition.y
      value: 0.03903961
      objectReference: {fileID: 0}
    - target: {fileID: 4786092020873644948, guid: c0a590a9747ed874d86b60c38282f455,
        type: 3}
      propertyPath: m_LocalPosition.z
      value: 2.1397552
      objectReference: {fileID: 0}
    - target: {fileID: 4786092020873644948, guid: c0a590a9747ed874d86b60c38282f455,
        type: 3}
      propertyPath: m_LocalRotation.x
      value: -0
      objectReference: {fileID: 0}
    - target: {fileID: 4786092020873644948, guid: c0a590a9747ed874d86b60c38282f455,
        type: 3}
      propertyPath: m_LocalRotation.y
      value: -0
      objectReference: {fileID: 0}
    - target: {fileID: 4786092020873644948, guid: c0a590a9747ed874d86b60c38282f455,
        type: 3}
      propertyPath: m_LocalRotation.z
      value: -0
      objectReference: {fileID: 0}
    - target: {fileID: 4786092020873644948, guid: c0a590a9747ed874d86b60c38282f455,
        type: 3}
      propertyPath: m_LocalRotation.w
      value: 1
      objectReference: {fileID: 0}
    - target: {fileID: 4786092020873644948, guid: c0a590a9747ed874d86b60c38282f455,
        type: 3}
      propertyPath: m_RootOrder
      value: 0
      objectReference: {fileID: 0}
    - target: {fileID: 4786092020873644948, guid: c0a590a9747ed874d86b60c38282f455,
        type: 3}
      propertyPath: m_LocalEulerAnglesHint.x
      value: 0
      objectReference: {fileID: 0}
    - target: {fileID: 4786092020873644948, guid: c0a590a9747ed874d86b60c38282f455,
        type: 3}
      propertyPath: m_LocalEulerAnglesHint.y
      value: 0
      objectReference: {fileID: 0}
    - target: {fileID: 4786092020873644948, guid: c0a590a9747ed874d86b60c38282f455,
        type: 3}
      propertyPath: m_LocalEulerAnglesHint.z
      value: 0
      objectReference: {fileID: 0}
    - target: {fileID: 4786092020873644948, guid: c0a590a9747ed874d86b60c38282f455,
        type: 3}
      propertyPath: m_LocalScale.x
      value: 1.0000005
      objectReference: {fileID: 0}
    - target: {fileID: 4786092020873644948, guid: c0a590a9747ed874d86b60c38282f455,
        type: 3}
      propertyPath: m_LocalScale.z
      value: 1.0000005
      objectReference: {fileID: 0}
    - target: {fileID: 4830111283717831814, guid: c0a590a9747ed874d86b60c38282f455,
        type: 3}
      propertyPath: m_Materials.Array.data[0]
      value: 
      objectReference: {fileID: 2100000, guid: 7c8ba808769784d4ca45101987dcb24b, type: 2}
    - target: {fileID: 4833984195357387684, guid: c0a590a9747ed874d86b60c38282f455,
        type: 3}
      propertyPath: m_Materials.Array.data[0]
      value: 
      objectReference: {fileID: 2100000, guid: 7c8ba808769784d4ca45101987dcb24b, type: 2}
    - target: {fileID: 4983095032827482942, guid: c0a590a9747ed874d86b60c38282f455,
        type: 3}
      propertyPath: m_Materials.Array.data[0]
      value: 
      objectReference: {fileID: 2100000, guid: 7c8ba808769784d4ca45101987dcb24b, type: 2}
    - target: {fileID: 5297145164997280620, guid: c0a590a9747ed874d86b60c38282f455,
        type: 3}
      propertyPath: m_Materials.Array.data[0]
      value: 
      objectReference: {fileID: 2100000, guid: 7c8ba808769784d4ca45101987dcb24b, type: 2}
    - target: {fileID: 5848982342084867431, guid: c0a590a9747ed874d86b60c38282f455,
        type: 3}
      propertyPath: m_Materials.Array.data[0]
      value: 
      objectReference: {fileID: 2100000, guid: 7c8ba808769784d4ca45101987dcb24b, type: 2}
    - target: {fileID: 5892527100883380611, guid: c0a590a9747ed874d86b60c38282f455,
        type: 3}
      propertyPath: m_Materials.Array.data[0]
      value: 
      objectReference: {fileID: 2100000, guid: 7c8ba808769784d4ca45101987dcb24b, type: 2}
    - target: {fileID: 7459639609864527272, guid: c0a590a9747ed874d86b60c38282f455,
        type: 3}
      propertyPath: m_Materials.Array.data[0]
      value: 
      objectReference: {fileID: 2100000, guid: 7c8ba808769784d4ca45101987dcb24b, type: 2}
    - target: {fileID: 8372407817706387847, guid: c0a590a9747ed874d86b60c38282f455,
        type: 3}
      propertyPath: m_Name
      value: EA_Ground_Shop_Dirt_Rose_02c_PRE
      objectReference: {fileID: 0}
    - target: {fileID: 8396795732428988001, guid: c0a590a9747ed874d86b60c38282f455,
        type: 3}
      propertyPath: m_Materials.Array.data[0]
      value: 
      objectReference: {fileID: 2100000, guid: 7c8ba808769784d4ca45101987dcb24b, type: 2}
    m_RemovedComponents: []
  m_SourcePrefab: {fileID: 100100000, guid: c0a590a9747ed874d86b60c38282f455, type: 3}
--- !u!4 &6390629330344480806 stripped
Transform:
  m_CorrespondingSourceObject: {fileID: 4786092020873644948, guid: c0a590a9747ed874d86b60c38282f455,
    type: 3}
  m_PrefabInstance: {fileID: 1935297495749974962}
  m_PrefabAsset: {fileID: 0}
--- !u!1001 &2263318709346421151
PrefabInstance:
  m_ObjectHideFlags: 0
  serializedVersion: 2
  m_Modification:
    m_TransformParent: {fileID: 8399559678385643662}
    m_Modifications:
    - target: {fileID: 1184631769060500669, guid: e6609d0ffccb8a34c8834fed40e1354e,
        type: 3}
      propertyPath: m_Name
      value: EA_Middle_Floor_Clean_Hollow_Rose_09_PRE (1)
      objectReference: {fileID: 0}
    - target: {fileID: 2750557570969671342, guid: e6609d0ffccb8a34c8834fed40e1354e,
        type: 3}
      propertyPath: m_LocalPosition.x
      value: 4.003601
      objectReference: {fileID: 0}
    - target: {fileID: 2750557570969671342, guid: e6609d0ffccb8a34c8834fed40e1354e,
        type: 3}
      propertyPath: m_LocalPosition.y
      value: 4.0367203
      objectReference: {fileID: 0}
    - target: {fileID: 2750557570969671342, guid: e6609d0ffccb8a34c8834fed40e1354e,
        type: 3}
      propertyPath: m_LocalPosition.z
      value: 2.1397552
      objectReference: {fileID: 0}
    - target: {fileID: 2750557570969671342, guid: e6609d0ffccb8a34c8834fed40e1354e,
        type: 3}
      propertyPath: m_LocalRotation.x
      value: -0
      objectReference: {fileID: 0}
    - target: {fileID: 2750557570969671342, guid: e6609d0ffccb8a34c8834fed40e1354e,
        type: 3}
      propertyPath: m_LocalRotation.y
      value: -0
      objectReference: {fileID: 0}
    - target: {fileID: 2750557570969671342, guid: e6609d0ffccb8a34c8834fed40e1354e,
        type: 3}
      propertyPath: m_LocalRotation.z
      value: -0
      objectReference: {fileID: 0}
    - target: {fileID: 2750557570969671342, guid: e6609d0ffccb8a34c8834fed40e1354e,
        type: 3}
      propertyPath: m_LocalRotation.w
      value: 1
      objectReference: {fileID: 0}
    - target: {fileID: 2750557570969671342, guid: e6609d0ffccb8a34c8834fed40e1354e,
        type: 3}
      propertyPath: m_RootOrder
      value: 3
      objectReference: {fileID: 0}
    - target: {fileID: 2750557570969671342, guid: e6609d0ffccb8a34c8834fed40e1354e,
        type: 3}
      propertyPath: m_LocalEulerAnglesHint.x
      value: 0
      objectReference: {fileID: 0}
    - target: {fileID: 2750557570969671342, guid: e6609d0ffccb8a34c8834fed40e1354e,
        type: 3}
      propertyPath: m_LocalEulerAnglesHint.y
      value: 0
      objectReference: {fileID: 0}
    - target: {fileID: 2750557570969671342, guid: e6609d0ffccb8a34c8834fed40e1354e,
        type: 3}
      propertyPath: m_LocalEulerAnglesHint.z
      value: 0
      objectReference: {fileID: 0}
    m_RemovedComponents: []
  m_SourcePrefab: {fileID: 100100000, guid: e6609d0ffccb8a34c8834fed40e1354e, type: 3}
--- !u!4 &4126174489702457137 stripped
Transform:
  m_CorrespondingSourceObject: {fileID: 2750557570969671342, guid: e6609d0ffccb8a34c8834fed40e1354e,
    type: 3}
  m_PrefabInstance: {fileID: 2263318709346421151}
  m_PrefabAsset: {fileID: 0}
--- !u!1001 &5405090879933104926
PrefabInstance:
  m_ObjectHideFlags: 0
  serializedVersion: 2
  m_Modification:
    m_TransformParent: {fileID: 8399559678385643662}
    m_Modifications:
    - target: {fileID: 6900513219070596990, guid: 550cd52fe1a24f344960983245f47953,
        type: 3}
      propertyPath: m_Name
      value: EA_Clean_Middle_Floor_Convex_Rose_01_PRE
      objectReference: {fileID: 0}
    - target: {fileID: 7609066791725294957, guid: 550cd52fe1a24f344960983245f47953,
        type: 3}
      propertyPath: m_LocalPosition.x
      value: -3.996399
      objectReference: {fileID: 0}
    - target: {fileID: 7609066791725294957, guid: 550cd52fe1a24f344960983245f47953,
        type: 3}
      propertyPath: m_LocalPosition.y
      value: 4.0367203
      objectReference: {fileID: 0}
    - target: {fileID: 7609066791725294957, guid: 550cd52fe1a24f344960983245f47953,
        type: 3}
      propertyPath: m_LocalPosition.z
      value: 2.1397552
      objectReference: {fileID: 0}
    - target: {fileID: 7609066791725294957, guid: 550cd52fe1a24f344960983245f47953,
        type: 3}
      propertyPath: m_LocalRotation.x
      value: -0
      objectReference: {fileID: 0}
    - target: {fileID: 7609066791725294957, guid: 550cd52fe1a24f344960983245f47953,
        type: 3}
      propertyPath: m_LocalRotation.y
      value: -0
      objectReference: {fileID: 0}
    - target: {fileID: 7609066791725294957, guid: 550cd52fe1a24f344960983245f47953,
        type: 3}
      propertyPath: m_LocalRotation.z
      value: -0
      objectReference: {fileID: 0}
    - target: {fileID: 7609066791725294957, guid: 550cd52fe1a24f344960983245f47953,
        type: 3}
      propertyPath: m_LocalRotation.w
      value: 1
      objectReference: {fileID: 0}
    - target: {fileID: 7609066791725294957, guid: 550cd52fe1a24f344960983245f47953,
        type: 3}
      propertyPath: m_RootOrder
      value: 1
      objectReference: {fileID: 0}
    - target: {fileID: 7609066791725294957, guid: 550cd52fe1a24f344960983245f47953,
        type: 3}
      propertyPath: m_LocalEulerAnglesHint.x
      value: 0
      objectReference: {fileID: 0}
    - target: {fileID: 7609066791725294957, guid: 550cd52fe1a24f344960983245f47953,
        type: 3}
      propertyPath: m_LocalEulerAnglesHint.y
      value: 0
      objectReference: {fileID: 0}
    - target: {fileID: 7609066791725294957, guid: 550cd52fe1a24f344960983245f47953,
        type: 3}
      propertyPath: m_LocalEulerAnglesHint.z
      value: 0
      objectReference: {fileID: 0}
    m_RemovedComponents: []
  m_SourcePrefab: {fileID: 100100000, guid: 550cd52fe1a24f344960983245f47953, type: 3}
--- !u!4 &2493420148918855283 stripped
Transform:
  m_CorrespondingSourceObject: {fileID: 7609066791725294957, guid: 550cd52fe1a24f344960983245f47953,
    type: 3}
  m_PrefabInstance: {fileID: 5405090879933104926}
  m_PrefabAsset: {fileID: 0}
--- !u!1001 &6014128951337191293
PrefabInstance:
  m_ObjectHideFlags: 0
  serializedVersion: 2
  m_Modification:
    m_TransformParent: {fileID: 8399559678385643662}
    m_Modifications:
    - target: {fileID: 1184631769060500669, guid: e6609d0ffccb8a34c8834fed40e1354e,
        type: 3}
      propertyPath: m_Name
      value: EA_Middle_Floor_Clean_Hollow_Rose_09_PRE
      objectReference: {fileID: 0}
    - target: {fileID: 2750557570969671342, guid: e6609d0ffccb8a34c8834fed40e1354e,
        type: 3}
      propertyPath: m_LocalPosition.x
      value: 0.0036010742
      objectReference: {fileID: 0}
    - target: {fileID: 2750557570969671342, guid: e6609d0ffccb8a34c8834fed40e1354e,
        type: 3}
      propertyPath: m_LocalPosition.y
      value: 4.0367203
      objectReference: {fileID: 0}
    - target: {fileID: 2750557570969671342, guid: e6609d0ffccb8a34c8834fed40e1354e,
        type: 3}
      propertyPath: m_LocalPosition.z
      value: 2.1397552
      objectReference: {fileID: 0}
    - target: {fileID: 2750557570969671342, guid: e6609d0ffccb8a34c8834fed40e1354e,
        type: 3}
      propertyPath: m_LocalRotation.x
      value: -0
      objectReference: {fileID: 0}
    - target: {fileID: 2750557570969671342, guid: e6609d0ffccb8a34c8834fed40e1354e,
        type: 3}
      propertyPath: m_LocalRotation.y
      value: -0
      objectReference: {fileID: 0}
    - target: {fileID: 2750557570969671342, guid: e6609d0ffccb8a34c8834fed40e1354e,
        type: 3}
      propertyPath: m_LocalRotation.z
      value: -0
      objectReference: {fileID: 0}
    - target: {fileID: 2750557570969671342, guid: e6609d0ffccb8a34c8834fed40e1354e,
        type: 3}
      propertyPath: m_LocalRotation.w
      value: 1
      objectReference: {fileID: 0}
    - target: {fileID: 2750557570969671342, guid: e6609d0ffccb8a34c8834fed40e1354e,
        type: 3}
      propertyPath: m_RootOrder
      value: 2
      objectReference: {fileID: 0}
    - target: {fileID: 2750557570969671342, guid: e6609d0ffccb8a34c8834fed40e1354e,
        type: 3}
      propertyPath: m_LocalEulerAnglesHint.x
      value: 0
      objectReference: {fileID: 0}
    - target: {fileID: 2750557570969671342, guid: e6609d0ffccb8a34c8834fed40e1354e,
        type: 3}
      propertyPath: m_LocalEulerAnglesHint.y
      value: 0
      objectReference: {fileID: 0}
    - target: {fileID: 2750557570969671342, guid: e6609d0ffccb8a34c8834fed40e1354e,
        type: 3}
      propertyPath: m_LocalEulerAnglesHint.z
      value: 0
      objectReference: {fileID: 0}
    m_RemovedComponents: []
  m_SourcePrefab: {fileID: 100100000, guid: e6609d0ffccb8a34c8834fed40e1354e, type: 3}
--- !u!4 &8457069484059922899 stripped
Transform:
  m_CorrespondingSourceObject: {fileID: 2750557570969671342, guid: e6609d0ffccb8a34c8834fed40e1354e,
    type: 3}
  m_PrefabInstance: {fileID: 6014128951337191293}
  m_PrefabAsset: {fileID: 0}
--- !u!1001 &6081379708903305029
PrefabInstance:
  m_ObjectHideFlags: 0
  serializedVersion: 2
  m_Modification:
    m_TransformParent: {fileID: 8399559678385643662}
    m_Modifications:
    - target: {fileID: 5243177839694285738, guid: b26dafb493487a944929dcdc112cedd2,
        type: 3}
      propertyPath: m_LocalPosition.x
      value: -0.05
      objectReference: {fileID: 0}
    - target: {fileID: 5243177839694285738, guid: b26dafb493487a944929dcdc112cedd2,
        type: 3}
      propertyPath: m_LocalPosition.y
      value: 4.17
      objectReference: {fileID: 0}
    - target: {fileID: 5243177839694285738, guid: b26dafb493487a944929dcdc112cedd2,
        type: 3}
      propertyPath: m_LocalPosition.z
      value: 5.93
      objectReference: {fileID: 0}
    - target: {fileID: 5243177839694285738, guid: b26dafb493487a944929dcdc112cedd2,
        type: 3}
      propertyPath: m_LocalRotation.x
      value: -0
      objectReference: {fileID: 0}
    - target: {fileID: 5243177839694285738, guid: b26dafb493487a944929dcdc112cedd2,
        type: 3}
      propertyPath: m_LocalRotation.y
      value: -0
      objectReference: {fileID: 0}
    - target: {fileID: 5243177839694285738, guid: b26dafb493487a944929dcdc112cedd2,
        type: 3}
      propertyPath: m_LocalRotation.z
      value: -0
      objectReference: {fileID: 0}
    - target: {fileID: 5243177839694285738, guid: b26dafb493487a944929dcdc112cedd2,
        type: 3}
      propertyPath: m_LocalRotation.w
      value: 1
      objectReference: {fileID: 0}
    - target: {fileID: 5243177839694285738, guid: b26dafb493487a944929dcdc112cedd2,
        type: 3}
      propertyPath: m_RootOrder
      value: 8
      objectReference: {fileID: 0}
    - target: {fileID: 5243177839694285738, guid: b26dafb493487a944929dcdc112cedd2,
        type: 3}
      propertyPath: m_LocalEulerAnglesHint.x
      value: 0
      objectReference: {fileID: 0}
    - target: {fileID: 5243177839694285738, guid: b26dafb493487a944929dcdc112cedd2,
        type: 3}
      propertyPath: m_LocalEulerAnglesHint.y
      value: 0
      objectReference: {fileID: 0}
    - target: {fileID: 5243177839694285738, guid: b26dafb493487a944929dcdc112cedd2,
        type: 3}
      propertyPath: m_LocalEulerAnglesHint.z
      value: 0
      objectReference: {fileID: 0}
    - target: {fileID: 9122282593574418873, guid: b26dafb493487a944929dcdc112cedd2,
        type: 3}
      propertyPath: m_Name
      value: EA_Balcony_Red_06_PRE
      objectReference: {fileID: 0}
    m_RemovedComponents: []
  m_SourcePrefab: {fileID: 100100000, guid: b26dafb493487a944929dcdc112cedd2, type: 3}
--- !u!4 &2064589167909577967 stripped
Transform:
  m_CorrespondingSourceObject: {fileID: 5243177839694285738, guid: b26dafb493487a944929dcdc112cedd2,
    type: 3}
  m_PrefabInstance: {fileID: 6081379708903305029}
  m_PrefabAsset: {fileID: 0}
--- !u!1001 &6442338486915676218
PrefabInstance:
  m_ObjectHideFlags: 0
  serializedVersion: 2
  m_Modification:
    m_TransformParent: {fileID: 8399559678385643662}
    m_Modifications:
    - target: {fileID: 6006847789879616893, guid: a802415cef0b87b46acae57cff8c691a,
        type: 3}
      propertyPath: m_LocalPosition.x
      value: 4.003601
      objectReference: {fileID: 0}
    - target: {fileID: 6006847789879616893, guid: a802415cef0b87b46acae57cff8c691a,
        type: 3}
      propertyPath: m_LocalPosition.y
      value: 8.03672
      objectReference: {fileID: 0}
    - target: {fileID: 6006847789879616893, guid: a802415cef0b87b46acae57cff8c691a,
        type: 3}
      propertyPath: m_LocalPosition.z
      value: 2.1397552
      objectReference: {fileID: 0}
    - target: {fileID: 6006847789879616893, guid: a802415cef0b87b46acae57cff8c691a,
        type: 3}
      propertyPath: m_LocalRotation.x
      value: -0
      objectReference: {fileID: 0}
    - target: {fileID: 6006847789879616893, guid: a802415cef0b87b46acae57cff8c691a,
        type: 3}
      propertyPath: m_LocalRotation.y
      value: -0
      objectReference: {fileID: 0}
    - target: {fileID: 6006847789879616893, guid: a802415cef0b87b46acae57cff8c691a,
        type: 3}
      propertyPath: m_LocalRotation.z
      value: -0
      objectReference: {fileID: 0}
    - target: {fileID: 6006847789879616893, guid: a802415cef0b87b46acae57cff8c691a,
        type: 3}
      propertyPath: m_LocalRotation.w
      value: 1
      objectReference: {fileID: 0}
    - target: {fileID: 6006847789879616893, guid: a802415cef0b87b46acae57cff8c691a,
        type: 3}
      propertyPath: m_RootOrder
      value: 5
      objectReference: {fileID: 0}
    - target: {fileID: 6006847789879616893, guid: a802415cef0b87b46acae57cff8c691a,
        type: 3}
      propertyPath: m_LocalEulerAnglesHint.x
      value: 0
      objectReference: {fileID: 0}
    - target: {fileID: 6006847789879616893, guid: a802415cef0b87b46acae57cff8c691a,
        type: 3}
      propertyPath: m_LocalEulerAnglesHint.y
      value: 0
      objectReference: {fileID: 0}
    - target: {fileID: 6006847789879616893, guid: a802415cef0b87b46acae57cff8c691a,
        type: 3}
      propertyPath: m_LocalEulerAnglesHint.z
      value: 0
      objectReference: {fileID: 0}
    - target: {fileID: 7280004913496299374, guid: a802415cef0b87b46acae57cff8c691a,
        type: 3}
      propertyPath: m_Name
      value: EA_Roof_Rose_03_PRE
      objectReference: {fileID: 0}
    m_RemovedComponents: []
  m_SourcePrefab: {fileID: 100100000, guid: a802415cef0b87b46acae57cff8c691a, type: 3}
--- !u!4 &737275897248406855 stripped
Transform:
  m_CorrespondingSourceObject: {fileID: 6006847789879616893, guid: a802415cef0b87b46acae57cff8c691a,
    type: 3}
  m_PrefabInstance: {fileID: 6442338486915676218}
  m_PrefabAsset: {fileID: 0}
--- !u!1001 &6708490730245035319
PrefabInstance:
  m_ObjectHideFlags: 0
  serializedVersion: 2
  m_Modification:
    m_TransformParent: {fileID: 8399559678385643662}
    m_Modifications:
    - target: {fileID: 2111173575827327619, guid: e4bc61126fb796846813d8d09873c73b,
        type: 3}
      propertyPath: m_Materials.Array.data[0]
      value: 
      objectReference: {fileID: 2100000, guid: 7c8ba808769784d4ca45101987dcb24b, type: 2}
    - target: {fileID: 2968049801925362053, guid: e4bc61126fb796846813d8d09873c73b,
        type: 3}
      propertyPath: m_Materials.Array.data[0]
      value: 
      objectReference: {fileID: 2100000, guid: 7c8ba808769784d4ca45101987dcb24b, type: 2}
    - target: {fileID: 2984467818996774809, guid: e4bc61126fb796846813d8d09873c73b,
        type: 3}
      propertyPath: m_Materials.Array.data[0]
      value: 
      objectReference: {fileID: 2100000, guid: 7c8ba808769784d4ca45101987dcb24b, type: 2}
    - target: {fileID: 3147849638813578443, guid: e4bc61126fb796846813d8d09873c73b,
        type: 3}
      propertyPath: m_Materials.Array.data[0]
      value: 
      objectReference: {fileID: 2100000, guid: 7c8ba808769784d4ca45101987dcb24b, type: 2}
    - target: {fileID: 4709281655265223088, guid: e4bc61126fb796846813d8d09873c73b,
        type: 3}
      propertyPath: m_Materials.Array.data[0]
      value: 
      objectReference: {fileID: 2100000, guid: 7c8ba808769784d4ca45101987dcb24b, type: 2}
    - target: {fileID: 5195968682414728420, guid: e4bc61126fb796846813d8d09873c73b,
        type: 3}
      propertyPath: m_Materials.Array.data[0]
      value: 
      objectReference: {fileID: 2100000, guid: 7c8ba808769784d4ca45101987dcb24b, type: 2}
    - target: {fileID: 5248848972029520779, guid: e4bc61126fb796846813d8d09873c73b,
        type: 3}
      propertyPath: m_LocalPosition.x
      value: 0.0036046
      objectReference: {fileID: 0}
    - target: {fileID: 5248848972029520779, guid: e4bc61126fb796846813d8d09873c73b,
        type: 3}
      propertyPath: m_LocalPosition.y
      value: 0.042175
      objectReference: {fileID: 0}
    - target: {fileID: 5248848972029520779, guid: e4bc61126fb796846813d8d09873c73b,
        type: 3}
      propertyPath: m_LocalPosition.z
      value: 6.1402
      objectReference: {fileID: 0}
    - target: {fileID: 5248848972029520779, guid: e4bc61126fb796846813d8d09873c73b,
        type: 3}
      propertyPath: m_LocalRotation.x
      value: -0
      objectReference: {fileID: 0}
    - target: {fileID: 5248848972029520779, guid: e4bc61126fb796846813d8d09873c73b,
        type: 3}
      propertyPath: m_LocalRotation.y
      value: -0
      objectReference: {fileID: 0}
    - target: {fileID: 5248848972029520779, guid: e4bc61126fb796846813d8d09873c73b,
        type: 3}
      propertyPath: m_LocalRotation.z
      value: -0
      objectReference: {fileID: 0}
    - target: {fileID: 5248848972029520779, guid: e4bc61126fb796846813d8d09873c73b,
        type: 3}
      propertyPath: m_LocalRotation.w
      value: 1
      objectReference: {fileID: 0}
    - target: {fileID: 5248848972029520779, guid: e4bc61126fb796846813d8d09873c73b,
        type: 3}
      propertyPath: m_RootOrder
      value: 7
      objectReference: {fileID: 0}
    - target: {fileID: 5248848972029520779, guid: e4bc61126fb796846813d8d09873c73b,
        type: 3}
      propertyPath: m_LocalEulerAnglesHint.x
      value: 0
      objectReference: {fileID: 0}
    - target: {fileID: 5248848972029520779, guid: e4bc61126fb796846813d8d09873c73b,
        type: 3}
      propertyPath: m_LocalEulerAnglesHint.y
      value: 0
      objectReference: {fileID: 0}
    - target: {fileID: 5248848972029520779, guid: e4bc61126fb796846813d8d09873c73b,
        type: 3}
      propertyPath: m_LocalEulerAnglesHint.z
      value: 0
      objectReference: {fileID: 0}
    - target: {fileID: 5248848972029520779, guid: e4bc61126fb796846813d8d09873c73b,
        type: 3}
      propertyPath: m_LocalScale.x
      value: 1.0000005
      objectReference: {fileID: 0}
    - target: {fileID: 5248848972029520779, guid: e4bc61126fb796846813d8d09873c73b,
        type: 3}
      propertyPath: m_LocalScale.z
      value: 1.0000005
      objectReference: {fileID: 0}
    - target: {fileID: 5609157032105542505, guid: e4bc61126fb796846813d8d09873c73b,
        type: 3}
      propertyPath: m_Materials.Array.data[0]
      value: 
      objectReference: {fileID: 2100000, guid: 7c8ba808769784d4ca45101987dcb24b, type: 2}
    - target: {fileID: 5732808545746552179, guid: e4bc61126fb796846813d8d09873c73b,
        type: 3}
      propertyPath: m_Materials.Array.data[0]
      value: 
      objectReference: {fileID: 2100000, guid: 7c8ba808769784d4ca45101987dcb24b, type: 2}
    - target: {fileID: 6663418467900510645, guid: e4bc61126fb796846813d8d09873c73b,
        type: 3}
      propertyPath: m_Materials.Array.data[0]
      value: 
      objectReference: {fileID: 2100000, guid: 7c8ba808769784d4ca45101987dcb24b, type: 2}
    - target: {fileID: 9118928931111082392, guid: e4bc61126fb796846813d8d09873c73b,
        type: 3}
      propertyPath: m_Name
      value: EA_Ground_Shop_Dirt_Rose_03c_PRE
      objectReference: {fileID: 0}
    m_RemovedComponents: []
  m_SourcePrefab: {fileID: 100100000, guid: e4bc61126fb796846813d8d09873c73b, type: 3}
--- !u!4 &1571457830697828028 stripped
Transform:
  m_CorrespondingSourceObject: {fileID: 5248848972029520779, guid: e4bc61126fb796846813d8d09873c73b,
    type: 3}
  m_PrefabInstance: {fileID: 6708490730245035319}
  m_PrefabAsset: {fileID: 0}
