%YAML 1.1
%TAG !u! tag:unity3d.com,2011:
--- !u!1 &6943659442023016040
GameObject:
  m_ObjectHideFlags: 0
  m_CorrespondingSourceObject: {fileID: 0}
  m_PrefabInstance: {fileID: 0}
  m_PrefabAsset: {fileID: 0}
  serializedVersion: 6
  m_Component:
  - component: {fileID: 9136064114984777043}
  m_Layer: 0
  m_Name: EA_Shop_Comp_Red_01a_PRE
  m_TagString: Untagged
  m_Icon: {fileID: 0}
  m_NavMeshLayer: 0
  m_StaticEditorFlags: 0
  m_IsActive: 1
--- !u!4 &9136064114984777043
Transform:
  m_ObjectHideFlags: 0
  m_CorrespondingSourceObject: {fileID: 0}
  m_PrefabInstance: {fileID: 0}
  m_PrefabAsset: {fileID: 0}
  m_GameObject: {fileID: 6943659442023016040}
  m_LocalRotation: {x: 0, y: 0, z: 0, w: 1}
  m_LocalPosition: {x: 0, y: 0, z: 0}
  m_LocalScale: {x: 1, y: 1, z: 1}
  m_Children:
  - {fileID: 5573205846251295988}
  - {fileID: 4848498130580998288}
  - {fileID: 6652953207589204352}
  - {fileID: 2802186437605617478}
  - {fileID: 3795450683566904346}
  - {fileID: 5944891917343598361}
  - {fileID: 4056727173577970291}
  - {fileID: 4642969155206920318}
  - {fileID: 1484373963507119763}
  m_Father: {fileID: 0}
  m_RootOrder: 0
  m_LocalEulerAnglesHint: {x: 0, y: 0, z: 0}
--- !u!1001 &1945642144434214060
PrefabInstance:
  m_ObjectHideFlags: 0
  serializedVersion: 2
  m_Modification:
    m_TransformParent: {fileID: 9136064114984777043}
    m_Modifications:
    - target: {fileID: 1519812311955223756, guid: 074a65bf405039c47b8bcd71f6dd325a,
        type: 3}
      propertyPath: m_Name
      value: EA_Clean_Middle_Floor_Convex_Red_02_PRE
      objectReference: {fileID: 0}
    - target: {fileID: 2543457256931706591, guid: 074a65bf405039c47b8bcd71f6dd325a,
        type: 3}
      propertyPath: m_LocalPosition.x
      value: 0
      objectReference: {fileID: 0}
    - target: {fileID: 2543457256931706591, guid: 074a65bf405039c47b8bcd71f6dd325a,
        type: 3}
      propertyPath: m_LocalPosition.y
      value: 8.010689
      objectReference: {fileID: 0}
    - target: {fileID: 2543457256931706591, guid: 074a65bf405039c47b8bcd71f6dd325a,
        type: 3}
      propertyPath: m_LocalPosition.z
      value: 0
      objectReference: {fileID: 0}
    - target: {fileID: 2543457256931706591, guid: 074a65bf405039c47b8bcd71f6dd325a,
        type: 3}
      propertyPath: m_LocalRotation.x
      value: -0
      objectReference: {fileID: 0}
    - target: {fileID: 2543457256931706591, guid: 074a65bf405039c47b8bcd71f6dd325a,
        type: 3}
      propertyPath: m_LocalRotation.y
      value: -0
      objectReference: {fileID: 0}
    - target: {fileID: 2543457256931706591, guid: 074a65bf405039c47b8bcd71f6dd325a,
        type: 3}
      propertyPath: m_LocalRotation.z
      value: -0
      objectReference: {fileID: 0}
    - target: {fileID: 2543457256931706591, guid: 074a65bf405039c47b8bcd71f6dd325a,
        type: 3}
      propertyPath: m_LocalRotation.w
      value: 1
      objectReference: {fileID: 0}
    - target: {fileID: 2543457256931706591, guid: 074a65bf405039c47b8bcd71f6dd325a,
        type: 3}
      propertyPath: m_RootOrder
      value: 6
      objectReference: {fileID: 0}
    - target: {fileID: 2543457256931706591, guid: 074a65bf405039c47b8bcd71f6dd325a,
        type: 3}
      propertyPath: m_LocalEulerAnglesHint.x
      value: 0
      objectReference: {fileID: 0}
    - target: {fileID: 2543457256931706591, guid: 074a65bf405039c47b8bcd71f6dd325a,
        type: 3}
      propertyPath: m_LocalEulerAnglesHint.y
      value: 0
      objectReference: {fileID: 0}
    - target: {fileID: 2543457256931706591, guid: 074a65bf405039c47b8bcd71f6dd325a,
        type: 3}
      propertyPath: m_LocalEulerAnglesHint.z
      value: 0
      objectReference: {fileID: 0}
    m_RemovedComponents: []
  m_SourcePrefab: {fileID: 100100000, guid: 074a65bf405039c47b8bcd71f6dd325a, type: 3}
--- !u!4 &4056727173577970291 stripped
Transform:
  m_CorrespondingSourceObject: {fileID: 2543457256931706591, guid: 074a65bf405039c47b8bcd71f6dd325a,
    type: 3}
  m_PrefabInstance: {fileID: 1945642144434214060}
  m_PrefabAsset: {fileID: 0}
--- !u!1001 &3017224132372632264
PrefabInstance:
  m_ObjectHideFlags: 0
  serializedVersion: 2
  m_Modification:
    m_TransformParent: {fileID: 9136064114984777043}
    m_Modifications:
    - target: {fileID: 2122166384884074194, guid: ac2fd1bc9fc3eb54cb12fba7a7d7b478,
        type: 3}
      propertyPath: m_LocalPosition.x
      value: 0
      objectReference: {fileID: 0}
    - target: {fileID: 2122166384884074194, guid: ac2fd1bc9fc3eb54cb12fba7a7d7b478,
        type: 3}
      propertyPath: m_LocalPosition.y
      value: 4.010689
      objectReference: {fileID: 0}
    - target: {fileID: 2122166384884074194, guid: ac2fd1bc9fc3eb54cb12fba7a7d7b478,
        type: 3}
      propertyPath: m_LocalPosition.z
      value: 0
      objectReference: {fileID: 0}
    - target: {fileID: 2122166384884074194, guid: ac2fd1bc9fc3eb54cb12fba7a7d7b478,
        type: 3}
      propertyPath: m_LocalRotation.x
      value: -0
      objectReference: {fileID: 0}
    - target: {fileID: 2122166384884074194, guid: ac2fd1bc9fc3eb54cb12fba7a7d7b478,
        type: 3}
      propertyPath: m_LocalRotation.y
      value: -0
      objectReference: {fileID: 0}
    - target: {fileID: 2122166384884074194, guid: ac2fd1bc9fc3eb54cb12fba7a7d7b478,
        type: 3}
      propertyPath: m_LocalRotation.z
      value: -0
      objectReference: {fileID: 0}
    - target: {fileID: 2122166384884074194, guid: ac2fd1bc9fc3eb54cb12fba7a7d7b478,
        type: 3}
      propertyPath: m_LocalRotation.w
      value: 1
      objectReference: {fileID: 0}
    - target: {fileID: 2122166384884074194, guid: ac2fd1bc9fc3eb54cb12fba7a7d7b478,
        type: 3}
      propertyPath: m_RootOrder
      value: 4
      objectReference: {fileID: 0}
    - target: {fileID: 2122166384884074194, guid: ac2fd1bc9fc3eb54cb12fba7a7d7b478,
        type: 3}
      propertyPath: m_LocalEulerAnglesHint.x
      value: 0
      objectReference: {fileID: 0}
    - target: {fileID: 2122166384884074194, guid: ac2fd1bc9fc3eb54cb12fba7a7d7b478,
        type: 3}
      propertyPath: m_LocalEulerAnglesHint.y
      value: 0
      objectReference: {fileID: 0}
    - target: {fileID: 2122166384884074194, guid: ac2fd1bc9fc3eb54cb12fba7a7d7b478,
        type: 3}
      propertyPath: m_LocalEulerAnglesHint.z
      value: 0
      objectReference: {fileID: 0}
    - target: {fileID: 3109782605791016129, guid: ac2fd1bc9fc3eb54cb12fba7a7d7b478,
        type: 3}
      propertyPath: m_Name
      value: EA_Clean_Middle_Floor_Convex_Red_01_PRE
      objectReference: {fileID: 0}
    m_RemovedComponents: []
  m_SourcePrefab: {fileID: 100100000, guid: ac2fd1bc9fc3eb54cb12fba7a7d7b478, type: 3}
--- !u!4 &3795450683566904346 stripped
Transform:
  m_CorrespondingSourceObject: {fileID: 2122166384884074194, guid: ac2fd1bc9fc3eb54cb12fba7a7d7b478,
    type: 3}
  m_PrefabInstance: {fileID: 3017224132372632264}
  m_PrefabAsset: {fileID: 0}
--- !u!1001 &3335867382321845923
PrefabInstance:
  m_ObjectHideFlags: 0
  serializedVersion: 2
  m_Modification:
    m_TransformParent: {fileID: 9136064114984777043}
    m_Modifications:
    - target: {fileID: 6145224764475420740, guid: b11fa3ce885114a49906eeaa88c1dcfe,
        type: 3}
      propertyPath: m_Name
      value: EA_Middle_Floor_Clean_Hollow_Red_02_PRE
      objectReference: {fileID: 0}
    - target: {fileID: 7139155961359057495, guid: b11fa3ce885114a49906eeaa88c1dcfe,
        type: 3}
      propertyPath: m_LocalPosition.x
      value: -4
      objectReference: {fileID: 0}
    - target: {fileID: 7139155961359057495, guid: b11fa3ce885114a49906eeaa88c1dcfe,
        type: 3}
      propertyPath: m_LocalPosition.y
      value: 8.010689
      objectReference: {fileID: 0}
    - target: {fileID: 7139155961359057495, guid: b11fa3ce885114a49906eeaa88c1dcfe,
        type: 3}
      propertyPath: m_LocalPosition.z
      value: 0
      objectReference: {fileID: 0}
    - target: {fileID: 7139155961359057495, guid: b11fa3ce885114a49906eeaa88c1dcfe,
        type: 3}
      propertyPath: m_LocalRotation.x
      value: -0
      objectReference: {fileID: 0}
    - target: {fileID: 7139155961359057495, guid: b11fa3ce885114a49906eeaa88c1dcfe,
        type: 3}
      propertyPath: m_LocalRotation.y
      value: -0
      objectReference: {fileID: 0}
    - target: {fileID: 7139155961359057495, guid: b11fa3ce885114a49906eeaa88c1dcfe,
        type: 3}
      propertyPath: m_LocalRotation.z
      value: -0
      objectReference: {fileID: 0}
    - target: {fileID: 7139155961359057495, guid: b11fa3ce885114a49906eeaa88c1dcfe,
        type: 3}
      propertyPath: m_LocalRotation.w
      value: 1
      objectReference: {fileID: 0}
    - target: {fileID: 7139155961359057495, guid: b11fa3ce885114a49906eeaa88c1dcfe,
        type: 3}
      propertyPath: m_RootOrder
      value: 0
      objectReference: {fileID: 0}
    - target: {fileID: 7139155961359057495, guid: b11fa3ce885114a49906eeaa88c1dcfe,
        type: 3}
      propertyPath: m_LocalEulerAnglesHint.x
      value: 0
      objectReference: {fileID: 0}
    - target: {fileID: 7139155961359057495, guid: b11fa3ce885114a49906eeaa88c1dcfe,
        type: 3}
      propertyPath: m_LocalEulerAnglesHint.y
      value: 0
      objectReference: {fileID: 0}
    - target: {fileID: 7139155961359057495, guid: b11fa3ce885114a49906eeaa88c1dcfe,
        type: 3}
      propertyPath: m_LocalEulerAnglesHint.z
      value: 0
      objectReference: {fileID: 0}
    m_RemovedComponents: []
  m_SourcePrefab: {fileID: 100100000, guid: b11fa3ce885114a49906eeaa88c1dcfe, type: 3}
--- !u!4 &5573205846251295988 stripped
Transform:
  m_CorrespondingSourceObject: {fileID: 7139155961359057495, guid: b11fa3ce885114a49906eeaa88c1dcfe,
    type: 3}
  m_PrefabInstance: {fileID: 3335867382321845923}
  m_PrefabAsset: {fileID: 0}
--- !u!1001 &4394673817726661567
PrefabInstance:
  m_ObjectHideFlags: 0
  serializedVersion: 2
  m_Modification:
    m_TransformParent: {fileID: 9136064114984777043}
    m_Modifications:
    - target: {fileID: 5327492316854044988, guid: 6b4ee0aa49654d1478f7405f0239ab90,
        type: 3}
      propertyPath: m_Name
      value: EA_Middle_Floor_Clean_Hollow_Red_01_PRE
      objectReference: {fileID: 0}
    - target: {fileID: 9202076497511430959, guid: 6b4ee0aa49654d1478f7405f0239ab90,
        type: 3}
      propertyPath: m_LocalPosition.x
      value: -4
      objectReference: {fileID: 0}
    - target: {fileID: 9202076497511430959, guid: 6b4ee0aa49654d1478f7405f0239ab90,
        type: 3}
      propertyPath: m_LocalPosition.y
      value: 4.010689
      objectReference: {fileID: 0}
    - target: {fileID: 9202076497511430959, guid: 6b4ee0aa49654d1478f7405f0239ab90,
        type: 3}
      propertyPath: m_LocalPosition.z
      value: 0
      objectReference: {fileID: 0}
    - target: {fileID: 9202076497511430959, guid: 6b4ee0aa49654d1478f7405f0239ab90,
        type: 3}
      propertyPath: m_LocalRotation.x
      value: -0
      objectReference: {fileID: 0}
    - target: {fileID: 9202076497511430959, guid: 6b4ee0aa49654d1478f7405f0239ab90,
        type: 3}
      propertyPath: m_LocalRotation.y
      value: -0
      objectReference: {fileID: 0}
    - target: {fileID: 9202076497511430959, guid: 6b4ee0aa49654d1478f7405f0239ab90,
        type: 3}
      propertyPath: m_LocalRotation.z
      value: -0
      objectReference: {fileID: 0}
    - target: {fileID: 9202076497511430959, guid: 6b4ee0aa49654d1478f7405f0239ab90,
        type: 3}
      propertyPath: m_LocalRotation.w
      value: 1
      objectReference: {fileID: 0}
    - target: {fileID: 9202076497511430959, guid: 6b4ee0aa49654d1478f7405f0239ab90,
        type: 3}
      propertyPath: m_RootOrder
      value: 1
      objectReference: {fileID: 0}
    - target: {fileID: 9202076497511430959, guid: 6b4ee0aa49654d1478f7405f0239ab90,
        type: 3}
      propertyPath: m_LocalEulerAnglesHint.x
      value: 0
      objectReference: {fileID: 0}
    - target: {fileID: 9202076497511430959, guid: 6b4ee0aa49654d1478f7405f0239ab90,
        type: 3}
      propertyPath: m_LocalEulerAnglesHint.y
      value: 0
      objectReference: {fileID: 0}
    - target: {fileID: 9202076497511430959, guid: 6b4ee0aa49654d1478f7405f0239ab90,
        type: 3}
      propertyPath: m_LocalEulerAnglesHint.z
      value: 0
      objectReference: {fileID: 0}
    m_RemovedComponents: []
  m_SourcePrefab: {fileID: 100100000, guid: 6b4ee0aa49654d1478f7405f0239ab90, type: 3}
--- !u!4 &4848498130580998288 stripped
Transform:
  m_CorrespondingSourceObject: {fileID: 9202076497511430959, guid: 6b4ee0aa49654d1478f7405f0239ab90,
    type: 3}
  m_PrefabInstance: {fileID: 4394673817726661567}
  m_PrefabAsset: {fileID: 0}
--- !u!1001 &5166003185141303912
PrefabInstance:
  m_ObjectHideFlags: 0
  serializedVersion: 2
  m_Modification:
    m_TransformParent: {fileID: 9136064114984777043}
    m_Modifications:
    - target: {fileID: 2010115300355488744, guid: e3f744cdcea613c4ead7804617a73f0a,
        type: 3}
      propertyPath: m_LocalPosition.x
      value: -4
      objectReference: {fileID: 0}
    - target: {fileID: 2010115300355488744, guid: e3f744cdcea613c4ead7804617a73f0a,
        type: 3}
      propertyPath: m_LocalPosition.y
      value: 12.010689
      objectReference: {fileID: 0}
    - target: {fileID: 2010115300355488744, guid: e3f744cdcea613c4ead7804617a73f0a,
        type: 3}
      propertyPath: m_LocalPosition.z
      value: 0
      objectReference: {fileID: 0}
    - target: {fileID: 2010115300355488744, guid: e3f744cdcea613c4ead7804617a73f0a,
        type: 3}
      propertyPath: m_LocalRotation.x
      value: -0
      objectReference: {fileID: 0}
    - target: {fileID: 2010115300355488744, guid: e3f744cdcea613c4ead7804617a73f0a,
        type: 3}
      propertyPath: m_LocalRotation.y
      value: -0
      objectReference: {fileID: 0}
    - target: {fileID: 2010115300355488744, guid: e3f744cdcea613c4ead7804617a73f0a,
        type: 3}
      propertyPath: m_LocalRotation.z
      value: -0
      objectReference: {fileID: 0}
    - target: {fileID: 2010115300355488744, guid: e3f744cdcea613c4ead7804617a73f0a,
        type: 3}
      propertyPath: m_LocalRotation.w
      value: 1
      objectReference: {fileID: 0}
    - target: {fileID: 2010115300355488744, guid: e3f744cdcea613c4ead7804617a73f0a,
        type: 3}
      propertyPath: m_RootOrder
      value: 2
      objectReference: {fileID: 0}
    - target: {fileID: 2010115300355488744, guid: e3f744cdcea613c4ead7804617a73f0a,
        type: 3}
      propertyPath: m_LocalEulerAnglesHint.x
      value: 0
      objectReference: {fileID: 0}
    - target: {fileID: 2010115300355488744, guid: e3f744cdcea613c4ead7804617a73f0a,
        type: 3}
      propertyPath: m_LocalEulerAnglesHint.y
      value: 0
      objectReference: {fileID: 0}
    - target: {fileID: 2010115300355488744, guid: e3f744cdcea613c4ead7804617a73f0a,
        type: 3}
      propertyPath: m_LocalEulerAnglesHint.z
      value: 0
      objectReference: {fileID: 0}
    - target: {fileID: 3296077405530278395, guid: e3f744cdcea613c4ead7804617a73f0a,
        type: 3}
      propertyPath: m_Name
      value: EA_Roof_Red_05_PRE
      objectReference: {fileID: 0}
    m_RemovedComponents: []
  m_SourcePrefab: {fileID: 100100000, guid: e3f744cdcea613c4ead7804617a73f0a, type: 3}
--- !u!4 &6652953207589204352 stripped
Transform:
  m_CorrespondingSourceObject: {fileID: 2010115300355488744, guid: e3f744cdcea613c4ead7804617a73f0a,
    type: 3}
  m_PrefabInstance: {fileID: 5166003185141303912}
  m_PrefabAsset: {fileID: 0}
--- !u!1001 &6143327368291751498
PrefabInstance:
  m_ObjectHideFlags: 0
  serializedVersion: 2
  m_Modification:
    m_TransformParent: {fileID: 9136064114984777043}
    m_Modifications:
    - target: {fileID: 5042201850846612255, guid: bf18766c2beddae43b4dfb74a00ec61c,
        type: 3}
      propertyPath: m_Name
      value: EA_Balcony_Green_01_PRE (1)
      objectReference: {fileID: 0}
    - target: {fileID: 8332264070787987724, guid: bf18766c2beddae43b4dfb74a00ec61c,
        type: 3}
      propertyPath: m_LocalPosition.x
      value: -5.24
      objectReference: {fileID: 0}
    - target: {fileID: 8332264070787987724, guid: bf18766c2beddae43b4dfb74a00ec61c,
        type: 3}
      propertyPath: m_LocalPosition.y
      value: 7.824791
      objectReference: {fileID: 0}
    - target: {fileID: 8332264070787987724, guid: bf18766c2beddae43b4dfb74a00ec61c,
        type: 3}
      propertyPath: m_LocalPosition.z
      value: 3.48
      objectReference: {fileID: 0}
    - target: {fileID: 8332264070787987724, guid: bf18766c2beddae43b4dfb74a00ec61c,
        type: 3}
      propertyPath: m_LocalRotation.x
      value: -0
      objectReference: {fileID: 0}
    - target: {fileID: 8332264070787987724, guid: bf18766c2beddae43b4dfb74a00ec61c,
        type: 3}
      propertyPath: m_LocalRotation.y
      value: -0
      objectReference: {fileID: 0}
    - target: {fileID: 8332264070787987724, guid: bf18766c2beddae43b4dfb74a00ec61c,
        type: 3}
      propertyPath: m_LocalRotation.z
      value: -0
      objectReference: {fileID: 0}
    - target: {fileID: 8332264070787987724, guid: bf18766c2beddae43b4dfb74a00ec61c,
        type: 3}
      propertyPath: m_LocalRotation.w
      value: 1
      objectReference: {fileID: 0}
    - target: {fileID: 8332264070787987724, guid: bf18766c2beddae43b4dfb74a00ec61c,
        type: 3}
      propertyPath: m_RootOrder
      value: 3
      objectReference: {fileID: 0}
    - target: {fileID: 8332264070787987724, guid: bf18766c2beddae43b4dfb74a00ec61c,
        type: 3}
      propertyPath: m_LocalEulerAnglesHint.x
      value: 0
      objectReference: {fileID: 0}
    - target: {fileID: 8332264070787987724, guid: bf18766c2beddae43b4dfb74a00ec61c,
        type: 3}
      propertyPath: m_LocalEulerAnglesHint.y
      value: 0
      objectReference: {fileID: 0}
    - target: {fileID: 8332264070787987724, guid: bf18766c2beddae43b4dfb74a00ec61c,
        type: 3}
      propertyPath: m_LocalEulerAnglesHint.z
      value: 0
      objectReference: {fileID: 0}
    m_RemovedComponents: []
  m_SourcePrefab: {fileID: 100100000, guid: bf18766c2beddae43b4dfb74a00ec61c, type: 3}
--- !u!4 &2802186437605617478 stripped
Transform:
  m_CorrespondingSourceObject: {fileID: 8332264070787987724, guid: bf18766c2beddae43b4dfb74a00ec61c,
    type: 3}
  m_PrefabInstance: {fileID: 6143327368291751498}
  m_PrefabAsset: {fileID: 0}
--- !u!1001 &7438724236367056799
PrefabInstance:
  m_ObjectHideFlags: 0
  serializedVersion: 2
  m_Modification:
    m_TransformParent: {fileID: 9136064114984777043}
    m_Modifications:
    - target: {fileID: 5042201850846612255, guid: bf18766c2beddae43b4dfb74a00ec61c,
        type: 3}
      propertyPath: m_Name
      value: EA_Balcony_Green_01_PRE
      objectReference: {fileID: 0}
    - target: {fileID: 8332264070787987724, guid: bf18766c2beddae43b4dfb74a00ec61c,
        type: 3}
      propertyPath: m_LocalPosition.x
      value: -1.41
      objectReference: {fileID: 0}
    - target: {fileID: 8332264070787987724, guid: bf18766c2beddae43b4dfb74a00ec61c,
        type: 3}
      propertyPath: m_LocalPosition.y
      value: 7.824791
      objectReference: {fileID: 0}
    - target: {fileID: 8332264070787987724, guid: bf18766c2beddae43b4dfb74a00ec61c,
        type: 3}
      propertyPath: m_LocalPosition.z
      value: 4.26
      objectReference: {fileID: 0}
    - target: {fileID: 8332264070787987724, guid: bf18766c2beddae43b4dfb74a00ec61c,
        type: 3}
      propertyPath: m_LocalRotation.x
      value: -0
      objectReference: {fileID: 0}
    - target: {fileID: 8332264070787987724, guid: bf18766c2beddae43b4dfb74a00ec61c,
        type: 3}
      propertyPath: m_LocalRotation.y
      value: -0
      objectReference: {fileID: 0}
    - target: {fileID: 8332264070787987724, guid: bf18766c2beddae43b4dfb74a00ec61c,
        type: 3}
      propertyPath: m_LocalRotation.z
      value: -0
      objectReference: {fileID: 0}
    - target: {fileID: 8332264070787987724, guid: bf18766c2beddae43b4dfb74a00ec61c,
        type: 3}
      propertyPath: m_LocalRotation.w
      value: 1
      objectReference: {fileID: 0}
    - target: {fileID: 8332264070787987724, guid: bf18766c2beddae43b4dfb74a00ec61c,
        type: 3}
      propertyPath: m_RootOrder
      value: 8
      objectReference: {fileID: 0}
    - target: {fileID: 8332264070787987724, guid: bf18766c2beddae43b4dfb74a00ec61c,
        type: 3}
      propertyPath: m_LocalEulerAnglesHint.x
      value: 0
      objectReference: {fileID: 0}
    - target: {fileID: 8332264070787987724, guid: bf18766c2beddae43b4dfb74a00ec61c,
        type: 3}
      propertyPath: m_LocalEulerAnglesHint.y
      value: 0
      objectReference: {fileID: 0}
    - target: {fileID: 8332264070787987724, guid: bf18766c2beddae43b4dfb74a00ec61c,
        type: 3}
      propertyPath: m_LocalEulerAnglesHint.z
      value: 0
      objectReference: {fileID: 0}
    m_RemovedComponents: []
  m_SourcePrefab: {fileID: 100100000, guid: bf18766c2beddae43b4dfb74a00ec61c, type: 3}
--- !u!4 &1484373963507119763 stripped
Transform:
  m_CorrespondingSourceObject: {fileID: 8332264070787987724, guid: bf18766c2beddae43b4dfb74a00ec61c,
    type: 3}
  m_PrefabInstance: {fileID: 7438724236367056799}
  m_PrefabAsset: {fileID: 0}
--- !u!1001 &8243952914394903336
PrefabInstance:
  m_ObjectHideFlags: 0
  serializedVersion: 2
  m_Modification:
    m_TransformParent: {fileID: 9136064114984777043}
    m_Modifications:
    - target: {fileID: 1635722644647061026, guid: e878ad52d43a1c44db1219c1681ce7f4,
        type: 3}
      propertyPath: m_Name
      value: EA_Ground_Shop_Dirt_Red_02a_PRE
      objectReference: {fileID: 0}
    - target: {fileID: 2371172472001582129, guid: e878ad52d43a1c44db1219c1681ce7f4,
        type: 3}
      propertyPath: m_LocalPosition.x
      value: 0
      objectReference: {fileID: 0}
    - target: {fileID: 2371172472001582129, guid: e878ad52d43a1c44db1219c1681ce7f4,
        type: 3}
      propertyPath: m_LocalPosition.y
      value: 0.009460449
      objectReference: {fileID: 0}
    - target: {fileID: 2371172472001582129, guid: e878ad52d43a1c44db1219c1681ce7f4,
        type: 3}
      propertyPath: m_LocalPosition.z
      value: 0
      objectReference: {fileID: 0}
    - target: {fileID: 2371172472001582129, guid: e878ad52d43a1c44db1219c1681ce7f4,
        type: 3}
      propertyPath: m_LocalRotation.x
      value: -0
      objectReference: {fileID: 0}
    - target: {fileID: 2371172472001582129, guid: e878ad52d43a1c44db1219c1681ce7f4,
        type: 3}
      propertyPath: m_LocalRotation.y
      value: -0
      objectReference: {fileID: 0}
    - target: {fileID: 2371172472001582129, guid: e878ad52d43a1c44db1219c1681ce7f4,
        type: 3}
      propertyPath: m_LocalRotation.z
      value: -0
      objectReference: {fileID: 0}
    - target: {fileID: 2371172472001582129, guid: e878ad52d43a1c44db1219c1681ce7f4,
        type: 3}
      propertyPath: m_LocalRotation.w
      value: 1
      objectReference: {fileID: 0}
    - target: {fileID: 2371172472001582129, guid: e878ad52d43a1c44db1219c1681ce7f4,
        type: 3}
      propertyPath: m_RootOrder
      value: 5
      objectReference: {fileID: 0}
    - target: {fileID: 2371172472001582129, guid: e878ad52d43a1c44db1219c1681ce7f4,
        type: 3}
      propertyPath: m_LocalEulerAnglesHint.x
      value: 0
      objectReference: {fileID: 0}
    - target: {fileID: 2371172472001582129, guid: e878ad52d43a1c44db1219c1681ce7f4,
        type: 3}
      propertyPath: m_LocalEulerAnglesHint.y
      value: 0
      objectReference: {fileID: 0}
    - target: {fileID: 2371172472001582129, guid: e878ad52d43a1c44db1219c1681ce7f4,
        type: 3}
      propertyPath: m_LocalEulerAnglesHint.z
      value: 0
      objectReference: {fileID: 0}
    m_RemovedComponents: []
  m_SourcePrefab: {fileID: 100100000, guid: e878ad52d43a1c44db1219c1681ce7f4, type: 3}
--- !u!4 &5944891917343598361 stripped
Transform:
  m_CorrespondingSourceObject: {fileID: 2371172472001582129, guid: e878ad52d43a1c44db1219c1681ce7f4,
    type: 3}
  m_PrefabInstance: {fileID: 8243952914394903336}
  m_PrefabAsset: {fileID: 0}
--- !u!1001 &9143716458282461675
PrefabInstance:
  m_ObjectHideFlags: 0
  serializedVersion: 2
  m_Modification:
    m_TransformParent: {fileID: 9136064114984777043}
    m_Modifications:
    - target: {fileID: 635425002953597830, guid: 32b5138cf82b04842ae46f0228473d76,
        type: 3}
      propertyPath: m_Name
      value: EA_Roof_Red_07_PRE
      objectReference: {fileID: 0}
    - target: {fileID: 4506452260928459157, guid: 32b5138cf82b04842ae46f0228473d76,
        type: 3}
      propertyPath: m_LocalPosition.x
      value: 0
      objectReference: {fileID: 0}
    - target: {fileID: 4506452260928459157, guid: 32b5138cf82b04842ae46f0228473d76,
        type: 3}
      propertyPath: m_LocalPosition.y
      value: 12.010689
      objectReference: {fileID: 0}
    - target: {fileID: 4506452260928459157, guid: 32b5138cf82b04842ae46f0228473d76,
        type: 3}
      propertyPath: m_LocalPosition.z
      value: 0
      objectReference: {fileID: 0}
    - target: {fileID: 4506452260928459157, guid: 32b5138cf82b04842ae46f0228473d76,
        type: 3}
      propertyPath: m_LocalRotation.x
      value: -0
      objectReference: {fileID: 0}
    - target: {fileID: 4506452260928459157, guid: 32b5138cf82b04842ae46f0228473d76,
        type: 3}
      propertyPath: m_LocalRotation.y
      value: -0
      objectReference: {fileID: 0}
    - target: {fileID: 4506452260928459157, guid: 32b5138cf82b04842ae46f0228473d76,
        type: 3}
      propertyPath: m_LocalRotation.z
      value: -0
      objectReference: {fileID: 0}
    - target: {fileID: 4506452260928459157, guid: 32b5138cf82b04842ae46f0228473d76,
        type: 3}
      propertyPath: m_LocalRotation.w
      value: 1
      objectReference: {fileID: 0}
    - target: {fileID: 4506452260928459157, guid: 32b5138cf82b04842ae46f0228473d76,
        type: 3}
      propertyPath: m_RootOrder
      value: 7
      objectReference: {fileID: 0}
    - target: {fileID: 4506452260928459157, guid: 32b5138cf82b04842ae46f0228473d76,
        type: 3}
      propertyPath: m_LocalEulerAnglesHint.x
      value: 0
      objectReference: {fileID: 0}
    - target: {fileID: 4506452260928459157, guid: 32b5138cf82b04842ae46f0228473d76,
        type: 3}
      propertyPath: m_LocalEulerAnglesHint.y
      value: 0
      objectReference: {fileID: 0}
    - target: {fileID: 4506452260928459157, guid: 32b5138cf82b04842ae46f0228473d76,
        type: 3}
      propertyPath: m_LocalEulerAnglesHint.z
      value: 0
      objectReference: {fileID: 0}
    m_RemovedComponents: []
  m_SourcePrefab: {fileID: 100100000, guid: 32b5138cf82b04842ae46f0228473d76, type: 3}
--- !u!4 &4642969155206920318 stripped
Transform:
  m_CorrespondingSourceObject: {fileID: 4506452260928459157, guid: 32b5138cf82b04842ae46f0228473d76,
    type: 3}
  m_PrefabInstance: {fileID: 9143716458282461675}
  m_PrefabAsset: {fileID: 0}
