%YAML 1.1
%TAG !u! tag:unity3d.com,2011:
--- !u!1 &6357006833327621600
GameObject:
  m_ObjectHideFlags: 0
  m_CorrespondingSourceObject: {fileID: 0}
  m_PrefabInstance: {fileID: 0}
  m_PrefabAsset: {fileID: 0}
  serializedVersion: 6
  m_Component:
  - component: {fileID: 8215243765088318031}
  m_Layer: 0
  m_Name: Modern_Comp_Convex_Single_Green_02b_PRE
  m_TagString: Untagged
  m_Icon: {fileID: 0}
  m_NavMeshLayer: 0
  m_StaticEditorFlags: 0
  m_IsActive: 1
--- !u!4 &8215243765088318031
Transform:
  m_ObjectHideFlags: 0
  m_CorrespondingSourceObject: {fileID: 0}
  m_PrefabInstance: {fileID: 0}
  m_PrefabAsset: {fileID: 0}
  m_GameObject: {fileID: 6357006833327621600}
  m_LocalRotation: {x: 0, y: 0, z: 0, w: 1}
  m_LocalPosition: {x: 0, y: 0, z: 0}
  m_LocalScale: {x: 1, y: 1, z: 1}
  m_Children:
  - {fileID: 7193358235345335543}
  - {fileID: 4426758815218575271}
  - {fileID: 3018092701460922710}
  - {fileID: 5108517941265922213}
  - {fileID: 6827796956703749333}
  m_Father: {fileID: 0}
  m_RootOrder: 0
  m_LocalEulerAnglesHint: {x: 0, y: 0, z: 0}
--- !u!1001 &524799110123483290
PrefabInstance:
  m_ObjectHideFlags: 0
  serializedVersion: 2
  m_Modification:
    m_TransformParent: {fileID: 8215243765088318031}
    m_Modifications:
    - target: {fileID: 378851799748669713, guid: 7600c9592a13a7b498dbb30421fa8ab8,
        type: 3}
      propertyPath: m_IsActive
      value: 1
      objectReference: {fileID: 0}
    - target: {fileID: 1869664217698654782, guid: 7600c9592a13a7b498dbb30421fa8ab8,
        type: 3}
      propertyPath: m_IsActive
      value: 0
      objectReference: {fileID: 0}
    - target: {fileID: 2479424442724195646, guid: 7600c9592a13a7b498dbb30421fa8ab8,
        type: 3}
      propertyPath: m_IsActive
      value: 1
      objectReference: {fileID: 0}
    - target: {fileID: 2796186191900461377, guid: 7600c9592a13a7b498dbb30421fa8ab8,
        type: 3}
      propertyPath: m_IsActive
      value: 0
      objectReference: {fileID: 0}
    - target: {fileID: 5963011001114474110, guid: 7600c9592a13a7b498dbb30421fa8ab8,
        type: 3}
      propertyPath: m_Name
      value: EA_Roof_Green_02_PRE
      objectReference: {fileID: 0}
    - target: {fileID: 6063675661478953733, guid: 7600c9592a13a7b498dbb30421fa8ab8,
        type: 3}
      propertyPath: m_IsActive
      value: 0
      objectReference: {fileID: 0}
    - target: {fileID: 7027580087979717467, guid: 7600c9592a13a7b498dbb30421fa8ab8,
        type: 3}
      propertyPath: m_IsActive
      value: 0
      objectReference: {fileID: 0}
    - target: {fileID: 7249536671563793517, guid: 7600c9592a13a7b498dbb30421fa8ab8,
        type: 3}
      propertyPath: m_LocalPosition.x
      value: -0.06589627
      objectReference: {fileID: 0}
    - target: {fileID: 7249536671563793517, guid: 7600c9592a13a7b498dbb30421fa8ab8,
        type: 3}
      propertyPath: m_LocalPosition.y
      value: 9.991411
      objectReference: {fileID: 0}
    - target: {fileID: 7249536671563793517, guid: 7600c9592a13a7b498dbb30421fa8ab8,
        type: 3}
      propertyPath: m_LocalPosition.z
      value: -0.009022951
      objectReference: {fileID: 0}
    - target: {fileID: 7249536671563793517, guid: 7600c9592a13a7b498dbb30421fa8ab8,
        type: 3}
      propertyPath: m_LocalRotation.x
      value: -0
      objectReference: {fileID: 0}
    - target: {fileID: 7249536671563793517, guid: 7600c9592a13a7b498dbb30421fa8ab8,
        type: 3}
      propertyPath: m_LocalRotation.y
      value: -0
      objectReference: {fileID: 0}
    - target: {fileID: 7249536671563793517, guid: 7600c9592a13a7b498dbb30421fa8ab8,
        type: 3}
      propertyPath: m_LocalRotation.z
      value: -0
      objectReference: {fileID: 0}
    - target: {fileID: 7249536671563793517, guid: 7600c9592a13a7b498dbb30421fa8ab8,
        type: 3}
      propertyPath: m_LocalRotation.w
      value: -1
      objectReference: {fileID: 0}
    - target: {fileID: 7249536671563793517, guid: 7600c9592a13a7b498dbb30421fa8ab8,
        type: 3}
      propertyPath: m_RootOrder
      value: 0
      objectReference: {fileID: 0}
    - target: {fileID: 7249536671563793517, guid: 7600c9592a13a7b498dbb30421fa8ab8,
        type: 3}
      propertyPath: m_LocalEulerAnglesHint.x
      value: 0
      objectReference: {fileID: 0}
    - target: {fileID: 7249536671563793517, guid: 7600c9592a13a7b498dbb30421fa8ab8,
        type: 3}
      propertyPath: m_LocalEulerAnglesHint.y
      value: -360
      objectReference: {fileID: 0}
    - target: {fileID: 7249536671563793517, guid: 7600c9592a13a7b498dbb30421fa8ab8,
        type: 3}
      propertyPath: m_LocalEulerAnglesHint.z
      value: 0
      objectReference: {fileID: 0}
    - target: {fileID: 8065288422813061986, guid: 7600c9592a13a7b498dbb30421fa8ab8,
        type: 3}
      propertyPath: m_IsActive
      value: 1
      objectReference: {fileID: 0}
    m_RemovedComponents: []
  m_SourcePrefab: {fileID: 100100000, guid: 7600c9592a13a7b498dbb30421fa8ab8, type: 3}
--- !u!4 &7193358235345335543 stripped
Transform:
  m_CorrespondingSourceObject: {fileID: 7249536671563793517, guid: 7600c9592a13a7b498dbb30421fa8ab8,
    type: 3}
  m_PrefabInstance: {fileID: 524799110123483290}
  m_PrefabAsset: {fileID: 0}
--- !u!1001 &621516567637455037
PrefabInstance:
  m_ObjectHideFlags: 0
  serializedVersion: 2
  m_Modification:
    m_TransformParent: {fileID: 8215243765088318031}
    m_Modifications:
    - target: {fileID: 1274233769054369200, guid: 45efd689fb015f647bdb104a1a1acbe0,
        type: 3}
      propertyPath: m_IsActive
      value: 0
      objectReference: {fileID: 0}
    - target: {fileID: 2038797627392069425, guid: 45efd689fb015f647bdb104a1a1acbe0,
        type: 3}
      propertyPath: m_IsActive
      value: 1
      objectReference: {fileID: 0}
    - target: {fileID: 2427492951151197734, guid: 45efd689fb015f647bdb104a1a1acbe0,
        type: 3}
      propertyPath: m_IsActive
      value: 1
      objectReference: {fileID: 0}
    - target: {fileID: 2674866321235573352, guid: 45efd689fb015f647bdb104a1a1acbe0,
        type: 3}
      propertyPath: m_IsActive
      value: 0
      objectReference: {fileID: 0}
    - target: {fileID: 4639715049847050551, guid: 45efd689fb015f647bdb104a1a1acbe0,
        type: 3}
      propertyPath: m_IsActive
      value: 0
      objectReference: {fileID: 0}
    - target: {fileID: 6224299239982040168, guid: 45efd689fb015f647bdb104a1a1acbe0,
        type: 3}
      propertyPath: m_LocalPosition.x
      value: -1.3578963
      objectReference: {fileID: 0}
    - target: {fileID: 6224299239982040168, guid: 45efd689fb015f647bdb104a1a1acbe0,
        type: 3}
      propertyPath: m_LocalPosition.y
      value: 6.525411
      objectReference: {fileID: 0}
    - target: {fileID: 6224299239982040168, guid: 45efd689fb015f647bdb104a1a1acbe0,
        type: 3}
      propertyPath: m_LocalPosition.z
      value: 4.2609777
      objectReference: {fileID: 0}
    - target: {fileID: 6224299239982040168, guid: 45efd689fb015f647bdb104a1a1acbe0,
        type: 3}
      propertyPath: m_LocalRotation.x
      value: -0
      objectReference: {fileID: 0}
    - target: {fileID: 6224299239982040168, guid: 45efd689fb015f647bdb104a1a1acbe0,
        type: 3}
      propertyPath: m_LocalRotation.y
      value: -0
      objectReference: {fileID: 0}
    - target: {fileID: 6224299239982040168, guid: 45efd689fb015f647bdb104a1a1acbe0,
        type: 3}
      propertyPath: m_LocalRotation.z
      value: -0
      objectReference: {fileID: 0}
    - target: {fileID: 6224299239982040168, guid: 45efd689fb015f647bdb104a1a1acbe0,
        type: 3}
      propertyPath: m_LocalRotation.w
      value: -1
      objectReference: {fileID: 0}
    - target: {fileID: 6224299239982040168, guid: 45efd689fb015f647bdb104a1a1acbe0,
        type: 3}
      propertyPath: m_RootOrder
      value: 4
      objectReference: {fileID: 0}
    - target: {fileID: 6224299239982040168, guid: 45efd689fb015f647bdb104a1a1acbe0,
        type: 3}
      propertyPath: m_LocalEulerAnglesHint.x
      value: 0
      objectReference: {fileID: 0}
    - target: {fileID: 6224299239982040168, guid: 45efd689fb015f647bdb104a1a1acbe0,
        type: 3}
      propertyPath: m_LocalEulerAnglesHint.y
      value: -360
      objectReference: {fileID: 0}
    - target: {fileID: 6224299239982040168, guid: 45efd689fb015f647bdb104a1a1acbe0,
        type: 3}
      propertyPath: m_LocalEulerAnglesHint.z
      value: 0
      objectReference: {fileID: 0}
    - target: {fileID: 6933994174426117755, guid: 45efd689fb015f647bdb104a1a1acbe0,
        type: 3}
      propertyPath: m_Name
      value: EA_Balcony_Orange_01_PRE
      objectReference: {fileID: 0}
    - target: {fileID: 7364739944627634663, guid: 45efd689fb015f647bdb104a1a1acbe0,
        type: 3}
      propertyPath: m_IsActive
      value: 1
      objectReference: {fileID: 0}
    m_RemovedComponents: []
  m_SourcePrefab: {fileID: 100100000, guid: 45efd689fb015f647bdb104a1a1acbe0, type: 3}
--- !u!4 &6827796956703749333 stripped
Transform:
  m_CorrespondingSourceObject: {fileID: 6224299239982040168, guid: 45efd689fb015f647bdb104a1a1acbe0,
    type: 3}
  m_PrefabInstance: {fileID: 621516567637455037}
  m_PrefabAsset: {fileID: 0}
--- !u!1001 &1806870390084974920
PrefabInstance:
  m_ObjectHideFlags: 0
  serializedVersion: 2
  m_Modification:
    m_TransformParent: {fileID: 8215243765088318031}
    m_Modifications:
    - target: {fileID: 1308035533717892348, guid: bd5b41999d6c666478c3e099104e08d7,
        type: 3}
      propertyPath: m_Name
      value: EA_Clean_Middle_Floor_Convex_Green_06_PRE
      objectReference: {fileID: 0}
    - target: {fileID: 2629058453041127151, guid: bd5b41999d6c666478c3e099104e08d7,
        type: 3}
      propertyPath: m_LocalPosition.x
      value: -0.06589627
      objectReference: {fileID: 0}
    - target: {fileID: 2629058453041127151, guid: bd5b41999d6c666478c3e099104e08d7,
        type: 3}
      propertyPath: m_LocalPosition.y
      value: 5.991411
      objectReference: {fileID: 0}
    - target: {fileID: 2629058453041127151, guid: bd5b41999d6c666478c3e099104e08d7,
        type: 3}
      propertyPath: m_LocalPosition.z
      value: -0.009022951
      objectReference: {fileID: 0}
    - target: {fileID: 2629058453041127151, guid: bd5b41999d6c666478c3e099104e08d7,
        type: 3}
      propertyPath: m_LocalRotation.x
      value: -0
      objectReference: {fileID: 0}
    - target: {fileID: 2629058453041127151, guid: bd5b41999d6c666478c3e099104e08d7,
        type: 3}
      propertyPath: m_LocalRotation.y
      value: -0
      objectReference: {fileID: 0}
    - target: {fileID: 2629058453041127151, guid: bd5b41999d6c666478c3e099104e08d7,
        type: 3}
      propertyPath: m_LocalRotation.z
      value: -0
      objectReference: {fileID: 0}
    - target: {fileID: 2629058453041127151, guid: bd5b41999d6c666478c3e099104e08d7,
        type: 3}
      propertyPath: m_LocalRotation.w
      value: -1
      objectReference: {fileID: 0}
    - target: {fileID: 2629058453041127151, guid: bd5b41999d6c666478c3e099104e08d7,
        type: 3}
      propertyPath: m_RootOrder
      value: 1
      objectReference: {fileID: 0}
    - target: {fileID: 2629058453041127151, guid: bd5b41999d6c666478c3e099104e08d7,
        type: 3}
      propertyPath: m_LocalEulerAnglesHint.x
      value: 0
      objectReference: {fileID: 0}
    - target: {fileID: 2629058453041127151, guid: bd5b41999d6c666478c3e099104e08d7,
        type: 3}
      propertyPath: m_LocalEulerAnglesHint.y
      value: -360
      objectReference: {fileID: 0}
    - target: {fileID: 2629058453041127151, guid: bd5b41999d6c666478c3e099104e08d7,
        type: 3}
      propertyPath: m_LocalEulerAnglesHint.z
      value: 0
      objectReference: {fileID: 0}
    m_RemovedComponents: []
  m_SourcePrefab: {fileID: 100100000, guid: bd5b41999d6c666478c3e099104e08d7, type: 3}
--- !u!4 &4426758815218575271 stripped
Transform:
  m_CorrespondingSourceObject: {fileID: 2629058453041127151, guid: bd5b41999d6c666478c3e099104e08d7,
    type: 3}
  m_PrefabInstance: {fileID: 1806870390084974920}
  m_PrefabAsset: {fileID: 0}
--- !u!1001 &5743656005556097514
PrefabInstance:
  m_ObjectHideFlags: 0
  serializedVersion: 2
  m_Modification:
    m_TransformParent: {fileID: 8215243765088318031}
    m_Modifications:
    - target: {fileID: 5768163610285318831, guid: 3eef5fe94f3cae1499dba39d544eae7b,
        type: 3}
      propertyPath: m_Name
      value: EA_Box_Basis_Green_01i_PRE
      objectReference: {fileID: 0}
    - target: {fileID: 7374639884313743548, guid: 3eef5fe94f3cae1499dba39d544eae7b,
        type: 3}
      propertyPath: m_LocalPosition.x
      value: -0.06417966
      objectReference: {fileID: 0}
    - target: {fileID: 7374639884313743548, guid: 3eef5fe94f3cae1499dba39d544eae7b,
        type: 3}
      propertyPath: m_LocalPosition.y
      value: 2.000001
      objectReference: {fileID: 0}
    - target: {fileID: 7374639884313743548, guid: 3eef5fe94f3cae1499dba39d544eae7b,
        type: 3}
      propertyPath: m_LocalPosition.z
      value: -0.010564089
      objectReference: {fileID: 0}
    - target: {fileID: 7374639884313743548, guid: 3eef5fe94f3cae1499dba39d544eae7b,
        type: 3}
      propertyPath: m_LocalRotation.x
      value: -0
      objectReference: {fileID: 0}
    - target: {fileID: 7374639884313743548, guid: 3eef5fe94f3cae1499dba39d544eae7b,
        type: 3}
      propertyPath: m_LocalRotation.y
      value: -0
      objectReference: {fileID: 0}
    - target: {fileID: 7374639884313743548, guid: 3eef5fe94f3cae1499dba39d544eae7b,
        type: 3}
      propertyPath: m_LocalRotation.z
      value: -0
      objectReference: {fileID: 0}
    - target: {fileID: 7374639884313743548, guid: 3eef5fe94f3cae1499dba39d544eae7b,
        type: 3}
      propertyPath: m_LocalRotation.w
      value: 1
      objectReference: {fileID: 0}
    - target: {fileID: 7374639884313743548, guid: 3eef5fe94f3cae1499dba39d544eae7b,
        type: 3}
      propertyPath: m_RootOrder
      value: 2
      objectReference: {fileID: 0}
    - target: {fileID: 7374639884313743548, guid: 3eef5fe94f3cae1499dba39d544eae7b,
        type: 3}
      propertyPath: m_LocalEulerAnglesHint.x
      value: 0
      objectReference: {fileID: 0}
    - target: {fileID: 7374639884313743548, guid: 3eef5fe94f3cae1499dba39d544eae7b,
        type: 3}
      propertyPath: m_LocalEulerAnglesHint.y
      value: 0
      objectReference: {fileID: 0}
    - target: {fileID: 7374639884313743548, guid: 3eef5fe94f3cae1499dba39d544eae7b,
        type: 3}
      propertyPath: m_LocalEulerAnglesHint.z
      value: 0
      objectReference: {fileID: 0}
    m_RemovedComponents: []
  m_SourcePrefab: {fileID: 100100000, guid: 3eef5fe94f3cae1499dba39d544eae7b, type: 3}
--- !u!4 &3018092701460922710 stripped
Transform:
  m_CorrespondingSourceObject: {fileID: 7374639884313743548, guid: 3eef5fe94f3cae1499dba39d544eae7b,
    type: 3}
  m_PrefabInstance: {fileID: 5743656005556097514}
  m_PrefabAsset: {fileID: 0}
--- !u!1001 &6000984934658243881
PrefabInstance:
  m_ObjectHideFlags: 0
  serializedVersion: 2
  m_Modification:
    m_TransformParent: {fileID: 8215243765088318031}
    m_Modifications:
    - target: {fileID: 1559039320698586508, guid: b23b1a2d261eae64aab786189a797f90,
        type: 3}
      propertyPath: m_LocalPosition.x
      value: -0.06589627
      objectReference: {fileID: 0}
    - target: {fileID: 1559039320698586508, guid: b23b1a2d261eae64aab786189a797f90,
        type: 3}
      propertyPath: m_LocalPosition.y
      value: 1.9954782
      objectReference: {fileID: 0}
    - target: {fileID: 1559039320698586508, guid: b23b1a2d261eae64aab786189a797f90,
        type: 3}
      propertyPath: m_LocalPosition.z
      value: -0.009022951
      objectReference: {fileID: 0}
    - target: {fileID: 1559039320698586508, guid: b23b1a2d261eae64aab786189a797f90,
        type: 3}
      propertyPath: m_LocalRotation.x
      value: -0
      objectReference: {fileID: 0}
    - target: {fileID: 1559039320698586508, guid: b23b1a2d261eae64aab786189a797f90,
        type: 3}
      propertyPath: m_LocalRotation.y
      value: -0
      objectReference: {fileID: 0}
    - target: {fileID: 1559039320698586508, guid: b23b1a2d261eae64aab786189a797f90,
        type: 3}
      propertyPath: m_LocalRotation.z
      value: -0
      objectReference: {fileID: 0}
    - target: {fileID: 1559039320698586508, guid: b23b1a2d261eae64aab786189a797f90,
        type: 3}
      propertyPath: m_LocalRotation.w
      value: -1
      objectReference: {fileID: 0}
    - target: {fileID: 1559039320698586508, guid: b23b1a2d261eae64aab786189a797f90,
        type: 3}
      propertyPath: m_RootOrder
      value: 3
      objectReference: {fileID: 0}
    - target: {fileID: 1559039320698586508, guid: b23b1a2d261eae64aab786189a797f90,
        type: 3}
      propertyPath: m_LocalEulerAnglesHint.x
      value: 0
      objectReference: {fileID: 0}
    - target: {fileID: 1559039320698586508, guid: b23b1a2d261eae64aab786189a797f90,
        type: 3}
      propertyPath: m_LocalEulerAnglesHint.y
      value: -360
      objectReference: {fileID: 0}
    - target: {fileID: 1559039320698586508, guid: b23b1a2d261eae64aab786189a797f90,
        type: 3}
      propertyPath: m_LocalEulerAnglesHint.z
      value: 0
      objectReference: {fileID: 0}
    - target: {fileID: 2592256822145316767, guid: b23b1a2d261eae64aab786189a797f90,
        type: 3}
      propertyPath: m_Name
      value: EA_Clean_Middle_Floor_Convex_Green_01_PRE
      objectReference: {fileID: 0}
    m_RemovedComponents: []
  m_SourcePrefab: {fileID: 100100000, guid: b23b1a2d261eae64aab786189a797f90, type: 3}
--- !u!4 &5108517941265922213 stripped
Transform:
  m_CorrespondingSourceObject: {fileID: 1559039320698586508, guid: b23b1a2d261eae64aab786189a797f90,
    type: 3}
  m_PrefabInstance: {fileID: 6000984934658243881}
  m_PrefabAsset: {fileID: 0}
