%YAML 1.1
%TAG !u! tag:unity3d.com,2011:
--- !u!1 &7862763542600709700
GameObject:
  m_ObjectHideFlags: 0
  m_CorrespondingSourceObject: {fileID: 0}
  m_PrefabInstance: {fileID: 0}
  m_PrefabAsset: {fileID: 0}
  serializedVersion: 6
  m_Component:
  - component: {fileID: 7843603464939858857}
  m_Layer: 0
  m_Name: EA_Pipe_Comp_01a_PRE
  m_TagString: Untagged
  m_Icon: {fileID: 0}
  m_NavMeshLayer: 0
  m_StaticEditorFlags: 0
  m_IsActive: 1
--- !u!4 &7843603464939858857
Transform:
  m_ObjectHideFlags: 0
  m_CorrespondingSourceObject: {fileID: 0}
  m_PrefabInstance: {fileID: 0}
  m_PrefabAsset: {fileID: 0}
  m_GameObject: {fileID: 7862763542600709700}
  m_LocalRotation: {x: 0, y: 0, z: 0, w: 1}
  m_LocalPosition: {x: 0, y: 0, z: 0}
  m_LocalScale: {x: 1, y: 1, z: 1}
  m_Children:
  - {fileID: 4407829074769519523}
  - {fileID: 523270464461267164}
  - {fileID: 3375969165375881341}
  - {fileID: 7184735506776457701}
  - {fileID: 7156780165721436661}
  m_Father: {fileID: 0}
  m_RootOrder: 0
  m_LocalEulerAnglesHint: {x: 0, y: 0, z: 0}
--- !u!1001 &1505761105047573276
PrefabInstance:
  m_ObjectHideFlags: 0
  serializedVersion: 2
  m_Modification:
    m_TransformParent: {fileID: 7843603464939858857}
    m_Modifications:
    - target: {fileID: 4687014140671107306, guid: e1cbf02ef964c7340ac3df7a5483561b,
        type: 3}
      propertyPath: m_Name
      value: EA_Env_Pipe_vLong_1a_PRE (4)
      objectReference: {fileID: 0}
    - target: {fileID: 8597590902715306745, guid: e1cbf02ef964c7340ac3df7a5483561b,
        type: 3}
      propertyPath: m_LocalPosition.x
      value: -0.0014648438
      objectReference: {fileID: 0}
    - target: {fileID: 8597590902715306745, guid: e1cbf02ef964c7340ac3df7a5483561b,
        type: 3}
      propertyPath: m_LocalPosition.y
      value: 45.353455
      objectReference: {fileID: 0}
    - target: {fileID: 8597590902715306745, guid: e1cbf02ef964c7340ac3df7a5483561b,
        type: 3}
      propertyPath: m_LocalPosition.z
      value: 0.018633842
      objectReference: {fileID: 0}
    - target: {fileID: 8597590902715306745, guid: e1cbf02ef964c7340ac3df7a5483561b,
        type: 3}
      propertyPath: m_LocalRotation.x
      value: -0
      objectReference: {fileID: 0}
    - target: {fileID: 8597590902715306745, guid: e1cbf02ef964c7340ac3df7a5483561b,
        type: 3}
      propertyPath: m_LocalRotation.y
      value: -0
      objectReference: {fileID: 0}
    - target: {fileID: 8597590902715306745, guid: e1cbf02ef964c7340ac3df7a5483561b,
        type: 3}
      propertyPath: m_LocalRotation.z
      value: -0
      objectReference: {fileID: 0}
    - target: {fileID: 8597590902715306745, guid: e1cbf02ef964c7340ac3df7a5483561b,
        type: 3}
      propertyPath: m_LocalRotation.w
      value: 1
      objectReference: {fileID: 0}
    - target: {fileID: 8597590902715306745, guid: e1cbf02ef964c7340ac3df7a5483561b,
        type: 3}
      propertyPath: m_RootOrder
      value: 3
      objectReference: {fileID: 0}
    - target: {fileID: 8597590902715306745, guid: e1cbf02ef964c7340ac3df7a5483561b,
        type: 3}
      propertyPath: m_LocalEulerAnglesHint.x
      value: 0
      objectReference: {fileID: 0}
    - target: {fileID: 8597590902715306745, guid: e1cbf02ef964c7340ac3df7a5483561b,
        type: 3}
      propertyPath: m_LocalEulerAnglesHint.y
      value: 0
      objectReference: {fileID: 0}
    - target: {fileID: 8597590902715306745, guid: e1cbf02ef964c7340ac3df7a5483561b,
        type: 3}
      propertyPath: m_LocalEulerAnglesHint.z
      value: 0
      objectReference: {fileID: 0}
    m_RemovedComponents: []
  m_SourcePrefab: {fileID: 100100000, guid: e1cbf02ef964c7340ac3df7a5483561b, type: 3}
--- !u!4 &7184735506776457701 stripped
Transform:
  m_CorrespondingSourceObject: {fileID: 8597590902715306745, guid: e1cbf02ef964c7340ac3df7a5483561b,
    type: 3}
  m_PrefabInstance: {fileID: 1505761105047573276}
  m_PrefabAsset: {fileID: 0}
--- !u!1001 &5366890456233767258
PrefabInstance:
  m_ObjectHideFlags: 0
  serializedVersion: 2
  m_Modification:
    m_TransformParent: {fileID: 7843603464939858857}
    m_Modifications:
    - target: {fileID: 4687014140671107306, guid: e1cbf02ef964c7340ac3df7a5483561b,
        type: 3}
      propertyPath: m_Name
      value: EA_Env_Pipe_vLong_1a_PRE (1)
      objectReference: {fileID: 0}
    - target: {fileID: 8597590902715306745, guid: e1cbf02ef964c7340ac3df7a5483561b,
        type: 3}
      propertyPath: m_LocalPosition.x
      value: 0
      objectReference: {fileID: 0}
    - target: {fileID: 8597590902715306745, guid: e1cbf02ef964c7340ac3df7a5483561b,
        type: 3}
      propertyPath: m_LocalPosition.y
      value: 0
      objectReference: {fileID: 0}
    - target: {fileID: 8597590902715306745, guid: e1cbf02ef964c7340ac3df7a5483561b,
        type: 3}
      propertyPath: m_LocalPosition.z
      value: 0
      objectReference: {fileID: 0}
    - target: {fileID: 8597590902715306745, guid: e1cbf02ef964c7340ac3df7a5483561b,
        type: 3}
      propertyPath: m_LocalRotation.x
      value: 0
      objectReference: {fileID: 0}
    - target: {fileID: 8597590902715306745, guid: e1cbf02ef964c7340ac3df7a5483561b,
        type: 3}
      propertyPath: m_LocalRotation.y
      value: 0
      objectReference: {fileID: 0}
    - target: {fileID: 8597590902715306745, guid: e1cbf02ef964c7340ac3df7a5483561b,
        type: 3}
      propertyPath: m_LocalRotation.z
      value: 0
      objectReference: {fileID: 0}
    - target: {fileID: 8597590902715306745, guid: e1cbf02ef964c7340ac3df7a5483561b,
        type: 3}
      propertyPath: m_LocalRotation.w
      value: 1
      objectReference: {fileID: 0}
    - target: {fileID: 8597590902715306745, guid: e1cbf02ef964c7340ac3df7a5483561b,
        type: 3}
      propertyPath: m_RootOrder
      value: 0
      objectReference: {fileID: 0}
    - target: {fileID: 8597590902715306745, guid: e1cbf02ef964c7340ac3df7a5483561b,
        type: 3}
      propertyPath: m_LocalEulerAnglesHint.x
      value: 0
      objectReference: {fileID: 0}
    - target: {fileID: 8597590902715306745, guid: e1cbf02ef964c7340ac3df7a5483561b,
        type: 3}
      propertyPath: m_LocalEulerAnglesHint.y
      value: 0
      objectReference: {fileID: 0}
    - target: {fileID: 8597590902715306745, guid: e1cbf02ef964c7340ac3df7a5483561b,
        type: 3}
      propertyPath: m_LocalEulerAnglesHint.z
      value: 0
      objectReference: {fileID: 0}
    m_RemovedComponents: []
  m_SourcePrefab: {fileID: 100100000, guid: e1cbf02ef964c7340ac3df7a5483561b, type: 3}
--- !u!4 &4407829074769519523 stripped
Transform:
  m_CorrespondingSourceObject: {fileID: 8597590902715306745, guid: e1cbf02ef964c7340ac3df7a5483561b,
    type: 3}
  m_PrefabInstance: {fileID: 5366890456233767258}
  m_PrefabAsset: {fileID: 0}
--- !u!1001 &6271216169916495543
PrefabInstance:
  m_ObjectHideFlags: 0
  serializedVersion: 2
  m_Modification:
    m_TransformParent: {fileID: 7843603464939858857}
    m_Modifications:
    - target: {fileID: 147899285176530257, guid: d9aae9acb1a6dbb47bba681a52066552,
        type: 3}
      propertyPath: m_Name
      value: EA_Env_Pipe_R_01a_PRE (2)
      objectReference: {fileID: 0}
    - target: {fileID: 3771246015541004098, guid: d9aae9acb1a6dbb47bba681a52066552,
        type: 3}
      propertyPath: m_LocalPosition.x
      value: 0.0058898926
      objectReference: {fileID: 0}
    - target: {fileID: 3771246015541004098, guid: d9aae9acb1a6dbb47bba681a52066552,
        type: 3}
      propertyPath: m_LocalPosition.y
      value: 60.76812
      objectReference: {fileID: 0}
    - target: {fileID: 3771246015541004098, guid: d9aae9acb1a6dbb47bba681a52066552,
        type: 3}
      propertyPath: m_LocalPosition.z
      value: -0.07453632
      objectReference: {fileID: 0}
    - target: {fileID: 3771246015541004098, guid: d9aae9acb1a6dbb47bba681a52066552,
        type: 3}
      propertyPath: m_LocalRotation.x
      value: 0.70642316
      objectReference: {fileID: 0}
    - target: {fileID: 3771246015541004098, guid: d9aae9acb1a6dbb47bba681a52066552,
        type: 3}
      propertyPath: m_LocalRotation.y
      value: -0.031082202
      objectReference: {fileID: 0}
    - target: {fileID: 3771246015541004098, guid: d9aae9acb1a6dbb47bba681a52066552,
        type: 3}
      propertyPath: m_LocalRotation.z
      value: 0.03108221
      objectReference: {fileID: 0}
    - target: {fileID: 3771246015541004098, guid: d9aae9acb1a6dbb47bba681a52066552,
        type: 3}
      propertyPath: m_LocalRotation.w
      value: 0.70642346
      objectReference: {fileID: 0}
    - target: {fileID: 3771246015541004098, guid: d9aae9acb1a6dbb47bba681a52066552,
        type: 3}
      propertyPath: m_RootOrder
      value: 4
      objectReference: {fileID: 0}
    - target: {fileID: 3771246015541004098, guid: d9aae9acb1a6dbb47bba681a52066552,
        type: 3}
      propertyPath: m_LocalEulerAnglesHint.x
      value: 90.00001
      objectReference: {fileID: 0}
    - target: {fileID: 3771246015541004098, guid: d9aae9acb1a6dbb47bba681a52066552,
        type: 3}
      propertyPath: m_LocalEulerAnglesHint.y
      value: 0
      objectReference: {fileID: 0}
    - target: {fileID: 3771246015541004098, guid: d9aae9acb1a6dbb47bba681a52066552,
        type: 3}
      propertyPath: m_LocalEulerAnglesHint.z
      value: 5.039
      objectReference: {fileID: 0}
    m_RemovedComponents: []
  m_SourcePrefab: {fileID: 100100000, guid: d9aae9acb1a6dbb47bba681a52066552, type: 3}
--- !u!4 &7156780165721436661 stripped
Transform:
  m_CorrespondingSourceObject: {fileID: 3771246015541004098, guid: d9aae9acb1a6dbb47bba681a52066552,
    type: 3}
  m_PrefabInstance: {fileID: 6271216169916495543}
  m_PrefabAsset: {fileID: 0}
--- !u!1001 &6451720164086846084
PrefabInstance:
  m_ObjectHideFlags: 0
  serializedVersion: 2
  m_Modification:
    m_TransformParent: {fileID: 7843603464939858857}
    m_Modifications:
    - target: {fileID: 4687014140671107306, guid: e1cbf02ef964c7340ac3df7a5483561b,
        type: 3}
      propertyPath: m_Name
      value: EA_Env_Pipe_vLong_1a_PRE (3)
      objectReference: {fileID: 0}
    - target: {fileID: 8597590902715306745, guid: e1cbf02ef964c7340ac3df7a5483561b,
        type: 3}
      propertyPath: m_LocalPosition.x
      value: -0.0014648438
      objectReference: {fileID: 0}
    - target: {fileID: 8597590902715306745, guid: e1cbf02ef964c7340ac3df7a5483561b,
        type: 3}
      propertyPath: m_LocalPosition.y
      value: 30.3
      objectReference: {fileID: 0}
    - target: {fileID: 8597590902715306745, guid: e1cbf02ef964c7340ac3df7a5483561b,
        type: 3}
      propertyPath: m_LocalPosition.z
      value: 0.018633842
      objectReference: {fileID: 0}
    - target: {fileID: 8597590902715306745, guid: e1cbf02ef964c7340ac3df7a5483561b,
        type: 3}
      propertyPath: m_LocalRotation.x
      value: -0
      objectReference: {fileID: 0}
    - target: {fileID: 8597590902715306745, guid: e1cbf02ef964c7340ac3df7a5483561b,
        type: 3}
      propertyPath: m_LocalRotation.y
      value: -0
      objectReference: {fileID: 0}
    - target: {fileID: 8597590902715306745, guid: e1cbf02ef964c7340ac3df7a5483561b,
        type: 3}
      propertyPath: m_LocalRotation.z
      value: -0
      objectReference: {fileID: 0}
    - target: {fileID: 8597590902715306745, guid: e1cbf02ef964c7340ac3df7a5483561b,
        type: 3}
      propertyPath: m_LocalRotation.w
      value: 1
      objectReference: {fileID: 0}
    - target: {fileID: 8597590902715306745, guid: e1cbf02ef964c7340ac3df7a5483561b,
        type: 3}
      propertyPath: m_RootOrder
      value: 2
      objectReference: {fileID: 0}
    - target: {fileID: 8597590902715306745, guid: e1cbf02ef964c7340ac3df7a5483561b,
        type: 3}
      propertyPath: m_LocalEulerAnglesHint.x
      value: 0
      objectReference: {fileID: 0}
    - target: {fileID: 8597590902715306745, guid: e1cbf02ef964c7340ac3df7a5483561b,
        type: 3}
      propertyPath: m_LocalEulerAnglesHint.y
      value: 0
      objectReference: {fileID: 0}
    - target: {fileID: 8597590902715306745, guid: e1cbf02ef964c7340ac3df7a5483561b,
        type: 3}
      propertyPath: m_LocalEulerAnglesHint.z
      value: 0
      objectReference: {fileID: 0}
    m_RemovedComponents: []
  m_SourcePrefab: {fileID: 100100000, guid: e1cbf02ef964c7340ac3df7a5483561b, type: 3}
--- !u!4 &3375969165375881341 stripped
Transform:
  m_CorrespondingSourceObject: {fileID: 8597590902715306745, guid: e1cbf02ef964c7340ac3df7a5483561b,
    type: 3}
  m_PrefabInstance: {fileID: 6451720164086846084}
  m_PrefabAsset: {fileID: 0}
--- !u!1001 &8076010662889992741
PrefabInstance:
  m_ObjectHideFlags: 0
  serializedVersion: 2
  m_Modification:
    m_TransformParent: {fileID: 7843603464939858857}
    m_Modifications:
    - target: {fileID: 4687014140671107306, guid: e1cbf02ef964c7340ac3df7a5483561b,
        type: 3}
      propertyPath: m_Name
      value: EA_Env_Pipe_vLong_1a_PRE (2)
      objectReference: {fileID: 0}
    - target: {fileID: 8597590902715306745, guid: e1cbf02ef964c7340ac3df7a5483561b,
        type: 3}
      propertyPath: m_LocalPosition.x
      value: -0.0014648438
      objectReference: {fileID: 0}
    - target: {fileID: 8597590902715306745, guid: e1cbf02ef964c7340ac3df7a5483561b,
        type: 3}
      propertyPath: m_LocalPosition.y
      value: 15.154835
      objectReference: {fileID: 0}
    - target: {fileID: 8597590902715306745, guid: e1cbf02ef964c7340ac3df7a5483561b,
        type: 3}
      propertyPath: m_LocalPosition.z
      value: 0.018633842
      objectReference: {fileID: 0}
    - target: {fileID: 8597590902715306745, guid: e1cbf02ef964c7340ac3df7a5483561b,
        type: 3}
      propertyPath: m_LocalRotation.x
      value: -0
      objectReference: {fileID: 0}
    - target: {fileID: 8597590902715306745, guid: e1cbf02ef964c7340ac3df7a5483561b,
        type: 3}
      propertyPath: m_LocalRotation.y
      value: -0
      objectReference: {fileID: 0}
    - target: {fileID: 8597590902715306745, guid: e1cbf02ef964c7340ac3df7a5483561b,
        type: 3}
      propertyPath: m_LocalRotation.z
      value: -0
      objectReference: {fileID: 0}
    - target: {fileID: 8597590902715306745, guid: e1cbf02ef964c7340ac3df7a5483561b,
        type: 3}
      propertyPath: m_LocalRotation.w
      value: 1
      objectReference: {fileID: 0}
    - target: {fileID: 8597590902715306745, guid: e1cbf02ef964c7340ac3df7a5483561b,
        type: 3}
      propertyPath: m_RootOrder
      value: 1
      objectReference: {fileID: 0}
    - target: {fileID: 8597590902715306745, guid: e1cbf02ef964c7340ac3df7a5483561b,
        type: 3}
      propertyPath: m_LocalEulerAnglesHint.x
      value: 0
      objectReference: {fileID: 0}
    - target: {fileID: 8597590902715306745, guid: e1cbf02ef964c7340ac3df7a5483561b,
        type: 3}
      propertyPath: m_LocalEulerAnglesHint.y
      value: 0
      objectReference: {fileID: 0}
    - target: {fileID: 8597590902715306745, guid: e1cbf02ef964c7340ac3df7a5483561b,
        type: 3}
      propertyPath: m_LocalEulerAnglesHint.z
      value: 0
      objectReference: {fileID: 0}
    m_RemovedComponents: []
  m_SourcePrefab: {fileID: 100100000, guid: e1cbf02ef964c7340ac3df7a5483561b, type: 3}
--- !u!4 &523270464461267164 stripped
Transform:
  m_CorrespondingSourceObject: {fileID: 8597590902715306745, guid: e1cbf02ef964c7340ac3df7a5483561b,
    type: 3}
  m_PrefabInstance: {fileID: 8076010662889992741}
  m_PrefabAsset: {fileID: 0}
