%YAML 1.1
%TAG !u! tag:unity3d.com,2011:
--- !u!1 &2054493107029076882
GameObject:
  m_ObjectHideFlags: 0
  m_CorrespondingSourceObject: {fileID: 0}
  m_PrefabInstance: {fileID: 0}
  m_PrefabAsset: {fileID: 0}
  serializedVersion: 6
  m_Component:
  - component: {fileID: 6723606377074798197}
  m_Layer: 0
  m_Name: Violet_House_Tower_Comp_Convex_03a_PRE
  m_TagString: Untagged
  m_Icon: {fileID: 0}
  m_NavMeshLayer: 0
  m_StaticEditorFlags: 0
  m_IsActive: 1
--- !u!4 &6723606377074798197
Transform:
  m_ObjectHideFlags: 0
  m_CorrespondingSourceObject: {fileID: 0}
  m_PrefabInstance: {fileID: 0}
  m_PrefabAsset: {fileID: 0}
  m_GameObject: {fileID: 2054493107029076882}
  m_LocalRotation: {x: 0, y: 0, z: 0, w: 1}
  m_LocalPosition: {x: 0, y: 0, z: 0}
  m_LocalScale: {x: 1, y: 1, z: 1}
  m_Children:
  - {fileID: 7511407537188055116}
  - {fileID: 7511407536827743350}
  - {fileID: 4612984847104936122}
  - {fileID: 431481859131349532}
  - {fileID: 2941054966122518571}
  - {fileID: 8471477654463346656}
  - {fileID: 2928752178575440895}
  m_Father: {fileID: 0}
  m_RootOrder: 0
  m_LocalEulerAnglesHint: {x: 0, y: 0, z: 0}
--- !u!1001 &2884408475774346365
PrefabInstance:
  m_ObjectHideFlags: 0
  serializedVersion: 2
  m_Modification:
    m_TransformParent: {fileID: 6723606377074798197}
    m_Modifications:
    - target: {fileID: 309749489370445828, guid: 48b0bbe51c66ada46896d7dd71b2ac99,
        type: 3}
      propertyPath: m_Materials.Array.data[0]
      value: 
      objectReference: {fileID: 2100000, guid: 621b5d7fd5bc58a45afb8d2f2046b8b0, type: 2}
    - target: {fileID: 610559028887996013, guid: 48b0bbe51c66ada46896d7dd71b2ac99,
        type: 3}
      propertyPath: m_Materials.Array.data[0]
      value: 
      objectReference: {fileID: 2100000, guid: 621b5d7fd5bc58a45afb8d2f2046b8b0, type: 2}
    - target: {fileID: 640195542763165623, guid: 48b0bbe51c66ada46896d7dd71b2ac99,
        type: 3}
      propertyPath: m_Materials.Array.data[0]
      value: 
      objectReference: {fileID: 2100000, guid: 621b5d7fd5bc58a45afb8d2f2046b8b0, type: 2}
    - target: {fileID: 795530819406546751, guid: 48b0bbe51c66ada46896d7dd71b2ac99,
        type: 3}
      propertyPath: m_Materials.Array.data[0]
      value: 
      objectReference: {fileID: 2100000, guid: 621b5d7fd5bc58a45afb8d2f2046b8b0, type: 2}
    - target: {fileID: 1090652499387603661, guid: 48b0bbe51c66ada46896d7dd71b2ac99,
        type: 3}
      propertyPath: m_Materials.Array.data[0]
      value: 
      objectReference: {fileID: 2100000, guid: 621b5d7fd5bc58a45afb8d2f2046b8b0, type: 2}
    - target: {fileID: 1402245367916460433, guid: 48b0bbe51c66ada46896d7dd71b2ac99,
        type: 3}
      propertyPath: m_Materials.Array.data[0]
      value: 
      objectReference: {fileID: 2100000, guid: 621b5d7fd5bc58a45afb8d2f2046b8b0, type: 2}
    - target: {fileID: 1561772282806063920, guid: 48b0bbe51c66ada46896d7dd71b2ac99,
        type: 3}
      propertyPath: m_Materials.Array.data[0]
      value: 
      objectReference: {fileID: 2100000, guid: 621b5d7fd5bc58a45afb8d2f2046b8b0, type: 2}
    - target: {fileID: 1790483394417160733, guid: 48b0bbe51c66ada46896d7dd71b2ac99,
        type: 3}
      propertyPath: m_Materials.Array.data[0]
      value: 
      objectReference: {fileID: 2100000, guid: 621b5d7fd5bc58a45afb8d2f2046b8b0, type: 2}
    - target: {fileID: 2609751273784972626, guid: 48b0bbe51c66ada46896d7dd71b2ac99,
        type: 3}
      propertyPath: m_Materials.Array.data[0]
      value: 
      objectReference: {fileID: 2100000, guid: 621b5d7fd5bc58a45afb8d2f2046b8b0, type: 2}
    - target: {fileID: 2792565872048012889, guid: 48b0bbe51c66ada46896d7dd71b2ac99,
        type: 3}
      propertyPath: m_Materials.Array.data[0]
      value: 
      objectReference: {fileID: 2100000, guid: 621b5d7fd5bc58a45afb8d2f2046b8b0, type: 2}
    - target: {fileID: 3162733294702787361, guid: 48b0bbe51c66ada46896d7dd71b2ac99,
        type: 3}
      propertyPath: m_Materials.Array.data[0]
      value: 
      objectReference: {fileID: 2100000, guid: 621b5d7fd5bc58a45afb8d2f2046b8b0, type: 2}
    - target: {fileID: 3918986475471382553, guid: 48b0bbe51c66ada46896d7dd71b2ac99,
        type: 3}
      propertyPath: m_Materials.Array.data[0]
      value: 
      objectReference: {fileID: 2100000, guid: 621b5d7fd5bc58a45afb8d2f2046b8b0, type: 2}
    - target: {fileID: 4214913644418140408, guid: 48b0bbe51c66ada46896d7dd71b2ac99,
        type: 3}
      propertyPath: m_Materials.Array.data[0]
      value: 
      objectReference: {fileID: 2100000, guid: 621b5d7fd5bc58a45afb8d2f2046b8b0, type: 2}
    - target: {fileID: 4331122686046747758, guid: 48b0bbe51c66ada46896d7dd71b2ac99,
        type: 3}
      propertyPath: m_Materials.Array.data[0]
      value: 
      objectReference: {fileID: 2100000, guid: 621b5d7fd5bc58a45afb8d2f2046b8b0, type: 2}
    - target: {fileID: 4450860150593664331, guid: 48b0bbe51c66ada46896d7dd71b2ac99,
        type: 3}
      propertyPath: m_Materials.Array.data[0]
      value: 
      objectReference: {fileID: 2100000, guid: 621b5d7fd5bc58a45afb8d2f2046b8b0, type: 2}
    - target: {fileID: 4515622165386482345, guid: 48b0bbe51c66ada46896d7dd71b2ac99,
        type: 3}
      propertyPath: m_Materials.Array.data[0]
      value: 
      objectReference: {fileID: 2100000, guid: 621b5d7fd5bc58a45afb8d2f2046b8b0, type: 2}
    - target: {fileID: 5082422256635174919, guid: 48b0bbe51c66ada46896d7dd71b2ac99,
        type: 3}
      propertyPath: m_Materials.Array.data[0]
      value: 
      objectReference: {fileID: 2100000, guid: 621b5d7fd5bc58a45afb8d2f2046b8b0, type: 2}
    - target: {fileID: 5177625690659456973, guid: 48b0bbe51c66ada46896d7dd71b2ac99,
        type: 3}
      propertyPath: m_Materials.Array.data[0]
      value: 
      objectReference: {fileID: 2100000, guid: 621b5d7fd5bc58a45afb8d2f2046b8b0, type: 2}
    - target: {fileID: 5300565834797337388, guid: 48b0bbe51c66ada46896d7dd71b2ac99,
        type: 3}
      propertyPath: m_Materials.Array.data[0]
      value: 
      objectReference: {fileID: 2100000, guid: 621b5d7fd5bc58a45afb8d2f2046b8b0, type: 2}
    - target: {fileID: 5343323769937092253, guid: 48b0bbe51c66ada46896d7dd71b2ac99,
        type: 3}
      propertyPath: m_Materials.Array.data[0]
      value: 
      objectReference: {fileID: 2100000, guid: 621b5d7fd5bc58a45afb8d2f2046b8b0, type: 2}
    - target: {fileID: 5669754969908043810, guid: 48b0bbe51c66ada46896d7dd71b2ac99,
        type: 3}
      propertyPath: m_Materials.Array.data[0]
      value: 
      objectReference: {fileID: 2100000, guid: 621b5d7fd5bc58a45afb8d2f2046b8b0, type: 2}
    - target: {fileID: 5855339886065013236, guid: 48b0bbe51c66ada46896d7dd71b2ac99,
        type: 3}
      propertyPath: m_Materials.Array.data[0]
      value: 
      objectReference: {fileID: 2100000, guid: 621b5d7fd5bc58a45afb8d2f2046b8b0, type: 2}
    - target: {fileID: 5929233493275191838, guid: 48b0bbe51c66ada46896d7dd71b2ac99,
        type: 3}
      propertyPath: m_Materials.Array.data[0]
      value: 
      objectReference: {fileID: 2100000, guid: 621b5d7fd5bc58a45afb8d2f2046b8b0, type: 2}
    - target: {fileID: 5935399365888184272, guid: 48b0bbe51c66ada46896d7dd71b2ac99,
        type: 3}
      propertyPath: m_Materials.Array.data[0]
      value: 
      objectReference: {fileID: 2100000, guid: 621b5d7fd5bc58a45afb8d2f2046b8b0, type: 2}
    - target: {fileID: 6409087736991002130, guid: 48b0bbe51c66ada46896d7dd71b2ac99,
        type: 3}
      propertyPath: m_Materials.Array.data[0]
      value: 
      objectReference: {fileID: 2100000, guid: 621b5d7fd5bc58a45afb8d2f2046b8b0, type: 2}
    - target: {fileID: 6545673046215755815, guid: 48b0bbe51c66ada46896d7dd71b2ac99,
        type: 3}
      propertyPath: m_Materials.Array.data[0]
      value: 
      objectReference: {fileID: 2100000, guid: 621b5d7fd5bc58a45afb8d2f2046b8b0, type: 2}
    - target: {fileID: 6599790906360066472, guid: 48b0bbe51c66ada46896d7dd71b2ac99,
        type: 3}
      propertyPath: m_Materials.Array.data[0]
      value: 
      objectReference: {fileID: 2100000, guid: 621b5d7fd5bc58a45afb8d2f2046b8b0, type: 2}
    - target: {fileID: 6673434801703294034, guid: 48b0bbe51c66ada46896d7dd71b2ac99,
        type: 3}
      propertyPath: m_Materials.Array.data[0]
      value: 
      objectReference: {fileID: 2100000, guid: 621b5d7fd5bc58a45afb8d2f2046b8b0, type: 2}
    - target: {fileID: 6744076889445733277, guid: 48b0bbe51c66ada46896d7dd71b2ac99,
        type: 3}
      propertyPath: m_LocalPosition.x
      value: 0
      objectReference: {fileID: 0}
    - target: {fileID: 6744076889445733277, guid: 48b0bbe51c66ada46896d7dd71b2ac99,
        type: 3}
      propertyPath: m_LocalPosition.y
      value: 16
      objectReference: {fileID: 0}
    - target: {fileID: 6744076889445733277, guid: 48b0bbe51c66ada46896d7dd71b2ac99,
        type: 3}
      propertyPath: m_LocalPosition.z
      value: 0
      objectReference: {fileID: 0}
    - target: {fileID: 6744076889445733277, guid: 48b0bbe51c66ada46896d7dd71b2ac99,
        type: 3}
      propertyPath: m_LocalRotation.x
      value: 0
      objectReference: {fileID: 0}
    - target: {fileID: 6744076889445733277, guid: 48b0bbe51c66ada46896d7dd71b2ac99,
        type: 3}
      propertyPath: m_LocalRotation.y
      value: 0
      objectReference: {fileID: 0}
    - target: {fileID: 6744076889445733277, guid: 48b0bbe51c66ada46896d7dd71b2ac99,
        type: 3}
      propertyPath: m_LocalRotation.z
      value: 0
      objectReference: {fileID: 0}
    - target: {fileID: 6744076889445733277, guid: 48b0bbe51c66ada46896d7dd71b2ac99,
        type: 3}
      propertyPath: m_LocalRotation.w
      value: 1
      objectReference: {fileID: 0}
    - target: {fileID: 6744076889445733277, guid: 48b0bbe51c66ada46896d7dd71b2ac99,
        type: 3}
      propertyPath: m_RootOrder
      value: 5
      objectReference: {fileID: 0}
    - target: {fileID: 6744076889445733277, guid: 48b0bbe51c66ada46896d7dd71b2ac99,
        type: 3}
      propertyPath: m_LocalEulerAnglesHint.x
      value: 0
      objectReference: {fileID: 0}
    - target: {fileID: 6744076889445733277, guid: 48b0bbe51c66ada46896d7dd71b2ac99,
        type: 3}
      propertyPath: m_LocalEulerAnglesHint.y
      value: 0
      objectReference: {fileID: 0}
    - target: {fileID: 6744076889445733277, guid: 48b0bbe51c66ada46896d7dd71b2ac99,
        type: 3}
      propertyPath: m_LocalEulerAnglesHint.z
      value: 0
      objectReference: {fileID: 0}
    - target: {fileID: 6760745886826262854, guid: 48b0bbe51c66ada46896d7dd71b2ac99,
        type: 3}
      propertyPath: m_Materials.Array.data[0]
      value: 
      objectReference: {fileID: 2100000, guid: 621b5d7fd5bc58a45afb8d2f2046b8b0, type: 2}
    - target: {fileID: 7035556749990648395, guid: 48b0bbe51c66ada46896d7dd71b2ac99,
        type: 3}
      propertyPath: m_Materials.Array.data[0]
      value: 
      objectReference: {fileID: 2100000, guid: 621b5d7fd5bc58a45afb8d2f2046b8b0, type: 2}
    - target: {fileID: 7480792549081256136, guid: 48b0bbe51c66ada46896d7dd71b2ac99,
        type: 3}
      propertyPath: m_Materials.Array.data[0]
      value: 
      objectReference: {fileID: 2100000, guid: 621b5d7fd5bc58a45afb8d2f2046b8b0, type: 2}
    - target: {fileID: 7562861936868286751, guid: 48b0bbe51c66ada46896d7dd71b2ac99,
        type: 3}
      propertyPath: m_Materials.Array.data[0]
      value: 
      objectReference: {fileID: 2100000, guid: 621b5d7fd5bc58a45afb8d2f2046b8b0, type: 2}
    - target: {fileID: 7597225502338950099, guid: 48b0bbe51c66ada46896d7dd71b2ac99,
        type: 3}
      propertyPath: m_Materials.Array.data[0]
      value: 
      objectReference: {fileID: 2100000, guid: 621b5d7fd5bc58a45afb8d2f2046b8b0, type: 2}
    - target: {fileID: 7767759292912066958, guid: 48b0bbe51c66ada46896d7dd71b2ac99,
        type: 3}
      propertyPath: m_Name
      value: EA_Middle_Floor_Clean_Hollow_Violet_08_PRE (1)
      objectReference: {fileID: 0}
    - target: {fileID: 7813550626263964199, guid: 48b0bbe51c66ada46896d7dd71b2ac99,
        type: 3}
      propertyPath: m_Materials.Array.data[0]
      value: 
      objectReference: {fileID: 2100000, guid: 621b5d7fd5bc58a45afb8d2f2046b8b0, type: 2}
    - target: {fileID: 7864452786501497642, guid: 48b0bbe51c66ada46896d7dd71b2ac99,
        type: 3}
      propertyPath: m_Materials.Array.data[0]
      value: 
      objectReference: {fileID: 2100000, guid: 621b5d7fd5bc58a45afb8d2f2046b8b0, type: 2}
    - target: {fileID: 8258054921063297086, guid: 48b0bbe51c66ada46896d7dd71b2ac99,
        type: 3}
      propertyPath: m_Materials.Array.data[0]
      value: 
      objectReference: {fileID: 2100000, guid: 621b5d7fd5bc58a45afb8d2f2046b8b0, type: 2}
    - target: {fileID: 8386297693490349942, guid: 48b0bbe51c66ada46896d7dd71b2ac99,
        type: 3}
      propertyPath: m_Materials.Array.data[0]
      value: 
      objectReference: {fileID: 2100000, guid: 621b5d7fd5bc58a45afb8d2f2046b8b0, type: 2}
    - target: {fileID: 8516127538827023162, guid: 48b0bbe51c66ada46896d7dd71b2ac99,
        type: 3}
      propertyPath: m_Materials.Array.data[0]
      value: 
      objectReference: {fileID: 2100000, guid: 621b5d7fd5bc58a45afb8d2f2046b8b0, type: 2}
    - target: {fileID: 9001213867453463614, guid: 48b0bbe51c66ada46896d7dd71b2ac99,
        type: 3}
      propertyPath: m_Materials.Array.data[0]
      value: 
      objectReference: {fileID: 2100000, guid: 621b5d7fd5bc58a45afb8d2f2046b8b0, type: 2}
    m_RemovedComponents: []
  m_SourcePrefab: {fileID: 100100000, guid: 48b0bbe51c66ada46896d7dd71b2ac99, type: 3}
--- !u!4 &8471477654463346656 stripped
Transform:
  m_CorrespondingSourceObject: {fileID: 6744076889445733277, guid: 48b0bbe51c66ada46896d7dd71b2ac99,
    type: 3}
  m_PrefabInstance: {fileID: 2884408475774346365}
  m_PrefabAsset: {fileID: 0}
--- !u!1001 &3337565227573674473
PrefabInstance:
  m_ObjectHideFlags: 0
  serializedVersion: 2
  m_Modification:
    m_TransformParent: {fileID: 6723606377074798197}
    m_Modifications:
    - target: {fileID: 145635119027801312, guid: 72fbb5b154c324744be0ef0e5e825fdd,
        type: 3}
      propertyPath: m_Materials.Array.data[0]
      value: 
      objectReference: {fileID: 2100000, guid: 621b5d7fd5bc58a45afb8d2f2046b8b0, type: 2}
    - target: {fileID: 383891208592886638, guid: 72fbb5b154c324744be0ef0e5e825fdd,
        type: 3}
      propertyPath: m_Materials.Array.data[0]
      value: 
      objectReference: {fileID: 2100000, guid: 621b5d7fd5bc58a45afb8d2f2046b8b0, type: 2}
    - target: {fileID: 405798198529264686, guid: 72fbb5b154c324744be0ef0e5e825fdd,
        type: 3}
      propertyPath: m_Materials.Array.data[0]
      value: 
      objectReference: {fileID: 2100000, guid: 621b5d7fd5bc58a45afb8d2f2046b8b0, type: 2}
    - target: {fileID: 591159412796263885, guid: 72fbb5b154c324744be0ef0e5e825fdd,
        type: 3}
      propertyPath: m_Materials.Array.data[0]
      value: 
      objectReference: {fileID: 2100000, guid: 621b5d7fd5bc58a45afb8d2f2046b8b0, type: 2}
    - target: {fileID: 974480650260119164, guid: 72fbb5b154c324744be0ef0e5e825fdd,
        type: 3}
      propertyPath: m_Materials.Array.data[0]
      value: 
      objectReference: {fileID: 2100000, guid: 621b5d7fd5bc58a45afb8d2f2046b8b0, type: 2}
    - target: {fileID: 1194160637044302664, guid: 72fbb5b154c324744be0ef0e5e825fdd,
        type: 3}
      propertyPath: m_Materials.Array.data[0]
      value: 
      objectReference: {fileID: 2100000, guid: 621b5d7fd5bc58a45afb8d2f2046b8b0, type: 2}
    - target: {fileID: 1786953314993879959, guid: 72fbb5b154c324744be0ef0e5e825fdd,
        type: 3}
      propertyPath: m_Materials.Array.data[0]
      value: 
      objectReference: {fileID: 2100000, guid: 621b5d7fd5bc58a45afb8d2f2046b8b0, type: 2}
    - target: {fileID: 1792601778692220394, guid: 72fbb5b154c324744be0ef0e5e825fdd,
        type: 3}
      propertyPath: m_Materials.Array.data[0]
      value: 
      objectReference: {fileID: 2100000, guid: 621b5d7fd5bc58a45afb8d2f2046b8b0, type: 2}
    - target: {fileID: 2159157481838995942, guid: 72fbb5b154c324744be0ef0e5e825fdd,
        type: 3}
      propertyPath: m_Name
      value: EA_Clean_Middle_Floor_Convex_Violet_01_PRE (6)
      objectReference: {fileID: 0}
    - target: {fileID: 2573297872793992289, guid: 72fbb5b154c324744be0ef0e5e825fdd,
        type: 3}
      propertyPath: m_Materials.Array.data[0]
      value: 
      objectReference: {fileID: 2100000, guid: 621b5d7fd5bc58a45afb8d2f2046b8b0, type: 2}
    - target: {fileID: 2607461653669291019, guid: 72fbb5b154c324744be0ef0e5e825fdd,
        type: 3}
      propertyPath: m_Materials.Array.data[0]
      value: 
      objectReference: {fileID: 2100000, guid: 621b5d7fd5bc58a45afb8d2f2046b8b0, type: 2}
    - target: {fileID: 2804857993852988876, guid: 72fbb5b154c324744be0ef0e5e825fdd,
        type: 3}
      propertyPath: m_Materials.Array.data[0]
      value: 
      objectReference: {fileID: 2100000, guid: 621b5d7fd5bc58a45afb8d2f2046b8b0, type: 2}
    - target: {fileID: 2854163318047389569, guid: 72fbb5b154c324744be0ef0e5e825fdd,
        type: 3}
      propertyPath: m_Materials.Array.data[0]
      value: 
      objectReference: {fileID: 2100000, guid: 621b5d7fd5bc58a45afb8d2f2046b8b0, type: 2}
    - target: {fileID: 3021444297207186697, guid: 72fbb5b154c324744be0ef0e5e825fdd,
        type: 3}
      propertyPath: m_Materials.Array.data[0]
      value: 
      objectReference: {fileID: 2100000, guid: 621b5d7fd5bc58a45afb8d2f2046b8b0, type: 2}
    - target: {fileID: 3109344182631525312, guid: 72fbb5b154c324744be0ef0e5e825fdd,
        type: 3}
      propertyPath: m_Materials.Array.data[0]
      value: 
      objectReference: {fileID: 2100000, guid: 621b5d7fd5bc58a45afb8d2f2046b8b0, type: 2}
    - target: {fileID: 3147320779238349813, guid: 72fbb5b154c324744be0ef0e5e825fdd,
        type: 3}
      propertyPath: m_LocalPosition.x
      value: 0
      objectReference: {fileID: 0}
    - target: {fileID: 3147320779238349813, guid: 72fbb5b154c324744be0ef0e5e825fdd,
        type: 3}
      propertyPath: m_LocalPosition.y
      value: 12
      objectReference: {fileID: 0}
    - target: {fileID: 3147320779238349813, guid: 72fbb5b154c324744be0ef0e5e825fdd,
        type: 3}
      propertyPath: m_LocalPosition.z
      value: 0
      objectReference: {fileID: 0}
    - target: {fileID: 3147320779238349813, guid: 72fbb5b154c324744be0ef0e5e825fdd,
        type: 3}
      propertyPath: m_LocalRotation.x
      value: 0
      objectReference: {fileID: 0}
    - target: {fileID: 3147320779238349813, guid: 72fbb5b154c324744be0ef0e5e825fdd,
        type: 3}
      propertyPath: m_LocalRotation.y
      value: 0
      objectReference: {fileID: 0}
    - target: {fileID: 3147320779238349813, guid: 72fbb5b154c324744be0ef0e5e825fdd,
        type: 3}
      propertyPath: m_LocalRotation.z
      value: 0
      objectReference: {fileID: 0}
    - target: {fileID: 3147320779238349813, guid: 72fbb5b154c324744be0ef0e5e825fdd,
        type: 3}
      propertyPath: m_LocalRotation.w
      value: 1
      objectReference: {fileID: 0}
    - target: {fileID: 3147320779238349813, guid: 72fbb5b154c324744be0ef0e5e825fdd,
        type: 3}
      propertyPath: m_RootOrder
      value: 3
      objectReference: {fileID: 0}
    - target: {fileID: 3147320779238349813, guid: 72fbb5b154c324744be0ef0e5e825fdd,
        type: 3}
      propertyPath: m_LocalEulerAnglesHint.x
      value: 0
      objectReference: {fileID: 0}
    - target: {fileID: 3147320779238349813, guid: 72fbb5b154c324744be0ef0e5e825fdd,
        type: 3}
      propertyPath: m_LocalEulerAnglesHint.y
      value: 0
      objectReference: {fileID: 0}
    - target: {fileID: 3147320779238349813, guid: 72fbb5b154c324744be0ef0e5e825fdd,
        type: 3}
      propertyPath: m_LocalEulerAnglesHint.z
      value: 0
      objectReference: {fileID: 0}
    - target: {fileID: 3221182483736770404, guid: 72fbb5b154c324744be0ef0e5e825fdd,
        type: 3}
      propertyPath: m_Materials.Array.data[0]
      value: 
      objectReference: {fileID: 2100000, guid: 621b5d7fd5bc58a45afb8d2f2046b8b0, type: 2}
    - target: {fileID: 4414259692301274313, guid: 72fbb5b154c324744be0ef0e5e825fdd,
        type: 3}
      propertyPath: m_Materials.Array.data[0]
      value: 
      objectReference: {fileID: 2100000, guid: 621b5d7fd5bc58a45afb8d2f2046b8b0, type: 2}
    - target: {fileID: 4463730943033184148, guid: 72fbb5b154c324744be0ef0e5e825fdd,
        type: 3}
      propertyPath: m_Materials.Array.data[0]
      value: 
      objectReference: {fileID: 2100000, guid: 621b5d7fd5bc58a45afb8d2f2046b8b0, type: 2}
    - target: {fileID: 4607716663778973994, guid: 72fbb5b154c324744be0ef0e5e825fdd,
        type: 3}
      propertyPath: m_Materials.Array.data[0]
      value: 
      objectReference: {fileID: 2100000, guid: 621b5d7fd5bc58a45afb8d2f2046b8b0, type: 2}
    - target: {fileID: 4630166510127174133, guid: 72fbb5b154c324744be0ef0e5e825fdd,
        type: 3}
      propertyPath: m_Materials.Array.data[0]
      value: 
      objectReference: {fileID: 2100000, guid: 621b5d7fd5bc58a45afb8d2f2046b8b0, type: 2}
    - target: {fileID: 4790799690242084684, guid: 72fbb5b154c324744be0ef0e5e825fdd,
        type: 3}
      propertyPath: m_Materials.Array.data[0]
      value: 
      objectReference: {fileID: 2100000, guid: 621b5d7fd5bc58a45afb8d2f2046b8b0, type: 2}
    - target: {fileID: 5384465309971990403, guid: 72fbb5b154c324744be0ef0e5e825fdd,
        type: 3}
      propertyPath: m_Materials.Array.data[0]
      value: 
      objectReference: {fileID: 2100000, guid: 621b5d7fd5bc58a45afb8d2f2046b8b0, type: 2}
    - target: {fileID: 5435358546486924446, guid: 72fbb5b154c324744be0ef0e5e825fdd,
        type: 3}
      propertyPath: m_Materials.Array.data[0]
      value: 
      objectReference: {fileID: 2100000, guid: 621b5d7fd5bc58a45afb8d2f2046b8b0, type: 2}
    - target: {fileID: 5526601175111834035, guid: 72fbb5b154c324744be0ef0e5e825fdd,
        type: 3}
      propertyPath: m_Materials.Array.data[0]
      value: 
      objectReference: {fileID: 2100000, guid: 621b5d7fd5bc58a45afb8d2f2046b8b0, type: 2}
    - target: {fileID: 5770354661038106368, guid: 72fbb5b154c324744be0ef0e5e825fdd,
        type: 3}
      propertyPath: m_Materials.Array.data[0]
      value: 
      objectReference: {fileID: 2100000, guid: 621b5d7fd5bc58a45afb8d2f2046b8b0, type: 2}
    - target: {fileID: 6178182720723647251, guid: 72fbb5b154c324744be0ef0e5e825fdd,
        type: 3}
      propertyPath: m_Materials.Array.data[0]
      value: 
      objectReference: {fileID: 2100000, guid: 621b5d7fd5bc58a45afb8d2f2046b8b0, type: 2}
    - target: {fileID: 6329254974417959411, guid: 72fbb5b154c324744be0ef0e5e825fdd,
        type: 3}
      propertyPath: m_Materials.Array.data[0]
      value: 
      objectReference: {fileID: 2100000, guid: 621b5d7fd5bc58a45afb8d2f2046b8b0, type: 2}
    - target: {fileID: 7337582359545225717, guid: 72fbb5b154c324744be0ef0e5e825fdd,
        type: 3}
      propertyPath: m_Materials.Array.data[0]
      value: 
      objectReference: {fileID: 2100000, guid: 621b5d7fd5bc58a45afb8d2f2046b8b0, type: 2}
    - target: {fileID: 7379681734094458233, guid: 72fbb5b154c324744be0ef0e5e825fdd,
        type: 3}
      propertyPath: m_Materials.Array.data[0]
      value: 
      objectReference: {fileID: 2100000, guid: 621b5d7fd5bc58a45afb8d2f2046b8b0, type: 2}
    - target: {fileID: 7428438325734919548, guid: 72fbb5b154c324744be0ef0e5e825fdd,
        type: 3}
      propertyPath: m_Materials.Array.data[0]
      value: 
      objectReference: {fileID: 2100000, guid: 621b5d7fd5bc58a45afb8d2f2046b8b0, type: 2}
    - target: {fileID: 7435342625220585223, guid: 72fbb5b154c324744be0ef0e5e825fdd,
        type: 3}
      propertyPath: m_Materials.Array.data[0]
      value: 
      objectReference: {fileID: 2100000, guid: 621b5d7fd5bc58a45afb8d2f2046b8b0, type: 2}
    - target: {fileID: 7636804208196336000, guid: 72fbb5b154c324744be0ef0e5e825fdd,
        type: 3}
      propertyPath: m_Materials.Array.data[0]
      value: 
      objectReference: {fileID: 2100000, guid: 621b5d7fd5bc58a45afb8d2f2046b8b0, type: 2}
    - target: {fileID: 7792497602741112528, guid: 72fbb5b154c324744be0ef0e5e825fdd,
        type: 3}
      propertyPath: m_Materials.Array.data[0]
      value: 
      objectReference: {fileID: 2100000, guid: 621b5d7fd5bc58a45afb8d2f2046b8b0, type: 2}
    - target: {fileID: 8279575458568787610, guid: 72fbb5b154c324744be0ef0e5e825fdd,
        type: 3}
      propertyPath: m_Materials.Array.data[0]
      value: 
      objectReference: {fileID: 2100000, guid: 621b5d7fd5bc58a45afb8d2f2046b8b0, type: 2}
    - target: {fileID: 8397626615613097687, guid: 72fbb5b154c324744be0ef0e5e825fdd,
        type: 3}
      propertyPath: m_Materials.Array.data[0]
      value: 
      objectReference: {fileID: 2100000, guid: 621b5d7fd5bc58a45afb8d2f2046b8b0, type: 2}
    - target: {fileID: 8775617640833197049, guid: 72fbb5b154c324744be0ef0e5e825fdd,
        type: 3}
      propertyPath: m_Materials.Array.data[0]
      value: 
      objectReference: {fileID: 2100000, guid: 621b5d7fd5bc58a45afb8d2f2046b8b0, type: 2}
    - target: {fileID: 8992303576934920417, guid: 72fbb5b154c324744be0ef0e5e825fdd,
        type: 3}
      propertyPath: m_Materials.Array.data[0]
      value: 
      objectReference: {fileID: 2100000, guid: 621b5d7fd5bc58a45afb8d2f2046b8b0, type: 2}
    - target: {fileID: 9085787394026103742, guid: 72fbb5b154c324744be0ef0e5e825fdd,
        type: 3}
      propertyPath: m_Materials.Array.data[0]
      value: 
      objectReference: {fileID: 2100000, guid: 621b5d7fd5bc58a45afb8d2f2046b8b0, type: 2}
    - target: {fileID: 9187010737249194869, guid: 72fbb5b154c324744be0ef0e5e825fdd,
        type: 3}
      propertyPath: m_Materials.Array.data[0]
      value: 
      objectReference: {fileID: 2100000, guid: 621b5d7fd5bc58a45afb8d2f2046b8b0, type: 2}
    - target: {fileID: 9197088227113693672, guid: 72fbb5b154c324744be0ef0e5e825fdd,
        type: 3}
      propertyPath: m_Materials.Array.data[0]
      value: 
      objectReference: {fileID: 2100000, guid: 621b5d7fd5bc58a45afb8d2f2046b8b0, type: 2}
    m_RemovedComponents: []
  m_SourcePrefab: {fileID: 100100000, guid: 72fbb5b154c324744be0ef0e5e825fdd, type: 3}
--- !u!4 &431481859131349532 stripped
Transform:
  m_CorrespondingSourceObject: {fileID: 3147320779238349813, guid: 72fbb5b154c324744be0ef0e5e825fdd,
    type: 3}
  m_PrefabInstance: {fileID: 3337565227573674473}
  m_PrefabAsset: {fileID: 0}
--- !u!1001 &3610506769577922045
PrefabInstance:
  m_ObjectHideFlags: 0
  serializedVersion: 2
  m_Modification:
    m_TransformParent: {fileID: 6723606377074798197}
    m_Modifications:
    - target: {fileID: 100251113492589790, guid: d4b39001533440e418ff223c1c6f5e30,
        type: 3}
      propertyPath: m_Materials.Array.data[0]
      value: 
      objectReference: {fileID: 2100000, guid: 621b5d7fd5bc58a45afb8d2f2046b8b0, type: 2}
    - target: {fileID: 848323314057258515, guid: d4b39001533440e418ff223c1c6f5e30,
        type: 3}
      propertyPath: m_Materials.Array.data[0]
      value: 
      objectReference: {fileID: 2100000, guid: 621b5d7fd5bc58a45afb8d2f2046b8b0, type: 2}
    - target: {fileID: 1422321467424623722, guid: d4b39001533440e418ff223c1c6f5e30,
        type: 3}
      propertyPath: m_Materials.Array.data[0]
      value: 
      objectReference: {fileID: 2100000, guid: 621b5d7fd5bc58a45afb8d2f2046b8b0, type: 2}
    - target: {fileID: 1453935829996422521, guid: d4b39001533440e418ff223c1c6f5e30,
        type: 3}
      propertyPath: m_Materials.Array.data[0]
      value: 
      objectReference: {fileID: 2100000, guid: 621b5d7fd5bc58a45afb8d2f2046b8b0, type: 2}
    - target: {fileID: 1503854752268524204, guid: d4b39001533440e418ff223c1c6f5e30,
        type: 3}
      propertyPath: m_Materials.Array.data[0]
      value: 
      objectReference: {fileID: 2100000, guid: 621b5d7fd5bc58a45afb8d2f2046b8b0, type: 2}
    - target: {fileID: 1524163357175428271, guid: d4b39001533440e418ff223c1c6f5e30,
        type: 3}
      propertyPath: m_Materials.Array.data[0]
      value: 
      objectReference: {fileID: 2100000, guid: 621b5d7fd5bc58a45afb8d2f2046b8b0, type: 2}
    - target: {fileID: 1524573323674845113, guid: d4b39001533440e418ff223c1c6f5e30,
        type: 3}
      propertyPath: m_Materials.Array.data[0]
      value: 
      objectReference: {fileID: 2100000, guid: 621b5d7fd5bc58a45afb8d2f2046b8b0, type: 2}
    - target: {fileID: 1583067582674306913, guid: d4b39001533440e418ff223c1c6f5e30,
        type: 3}
      propertyPath: m_Materials.Array.data[0]
      value: 
      objectReference: {fileID: 2100000, guid: 621b5d7fd5bc58a45afb8d2f2046b8b0, type: 2}
    - target: {fileID: 1658176779940872537, guid: d4b39001533440e418ff223c1c6f5e30,
        type: 3}
      propertyPath: m_Materials.Array.data[0]
      value: 
      objectReference: {fileID: 2100000, guid: 621b5d7fd5bc58a45afb8d2f2046b8b0, type: 2}
    - target: {fileID: 1927008828083549698, guid: d4b39001533440e418ff223c1c6f5e30,
        type: 3}
      propertyPath: m_LocalPosition.x
      value: 0
      objectReference: {fileID: 0}
    - target: {fileID: 1927008828083549698, guid: d4b39001533440e418ff223c1c6f5e30,
        type: 3}
      propertyPath: m_LocalPosition.y
      value: 0
      objectReference: {fileID: 0}
    - target: {fileID: 1927008828083549698, guid: d4b39001533440e418ff223c1c6f5e30,
        type: 3}
      propertyPath: m_LocalPosition.z
      value: 0
      objectReference: {fileID: 0}
    - target: {fileID: 1927008828083549698, guid: d4b39001533440e418ff223c1c6f5e30,
        type: 3}
      propertyPath: m_LocalRotation.x
      value: 0
      objectReference: {fileID: 0}
    - target: {fileID: 1927008828083549698, guid: d4b39001533440e418ff223c1c6f5e30,
        type: 3}
      propertyPath: m_LocalRotation.y
      value: 0
      objectReference: {fileID: 0}
    - target: {fileID: 1927008828083549698, guid: d4b39001533440e418ff223c1c6f5e30,
        type: 3}
      propertyPath: m_LocalRotation.z
      value: 0
      objectReference: {fileID: 0}
    - target: {fileID: 1927008828083549698, guid: d4b39001533440e418ff223c1c6f5e30,
        type: 3}
      propertyPath: m_LocalRotation.w
      value: 1
      objectReference: {fileID: 0}
    - target: {fileID: 1927008828083549698, guid: d4b39001533440e418ff223c1c6f5e30,
        type: 3}
      propertyPath: m_RootOrder
      value: 6
      objectReference: {fileID: 0}
    - target: {fileID: 1927008828083549698, guid: d4b39001533440e418ff223c1c6f5e30,
        type: 3}
      propertyPath: m_LocalEulerAnglesHint.x
      value: 0
      objectReference: {fileID: 0}
    - target: {fileID: 1927008828083549698, guid: d4b39001533440e418ff223c1c6f5e30,
        type: 3}
      propertyPath: m_LocalEulerAnglesHint.y
      value: 0
      objectReference: {fileID: 0}
    - target: {fileID: 1927008828083549698, guid: d4b39001533440e418ff223c1c6f5e30,
        type: 3}
      propertyPath: m_LocalEulerAnglesHint.z
      value: 0
      objectReference: {fileID: 0}
    - target: {fileID: 2018292304683637911, guid: d4b39001533440e418ff223c1c6f5e30,
        type: 3}
      propertyPath: m_Materials.Array.data[0]
      value: 
      objectReference: {fileID: 2100000, guid: 621b5d7fd5bc58a45afb8d2f2046b8b0, type: 2}
    - target: {fileID: 2028015338632609982, guid: d4b39001533440e418ff223c1c6f5e30,
        type: 3}
      propertyPath: m_Materials.Array.data[0]
      value: 
      objectReference: {fileID: 2100000, guid: 621b5d7fd5bc58a45afb8d2f2046b8b0, type: 2}
    - target: {fileID: 2440418388318581321, guid: d4b39001533440e418ff223c1c6f5e30,
        type: 3}
      propertyPath: m_Materials.Array.data[0]
      value: 
      objectReference: {fileID: 2100000, guid: 621b5d7fd5bc58a45afb8d2f2046b8b0, type: 2}
    - target: {fileID: 2469474200727334361, guid: d4b39001533440e418ff223c1c6f5e30,
        type: 3}
      propertyPath: m_Materials.Array.data[0]
      value: 
      objectReference: {fileID: 2100000, guid: 621b5d7fd5bc58a45afb8d2f2046b8b0, type: 2}
    - target: {fileID: 2686303950318930455, guid: d4b39001533440e418ff223c1c6f5e30,
        type: 3}
      propertyPath: m_Materials.Array.data[0]
      value: 
      objectReference: {fileID: 2100000, guid: 621b5d7fd5bc58a45afb8d2f2046b8b0, type: 2}
    - target: {fileID: 2894566912029267739, guid: d4b39001533440e418ff223c1c6f5e30,
        type: 3}
      propertyPath: m_Materials.Array.data[0]
      value: 
      objectReference: {fileID: 2100000, guid: 621b5d7fd5bc58a45afb8d2f2046b8b0, type: 2}
    - target: {fileID: 3006445552170513219, guid: d4b39001533440e418ff223c1c6f5e30,
        type: 3}
      propertyPath: m_Materials.Array.data[0]
      value: 
      objectReference: {fileID: 2100000, guid: 621b5d7fd5bc58a45afb8d2f2046b8b0, type: 2}
    - target: {fileID: 3235068362776167441, guid: d4b39001533440e418ff223c1c6f5e30,
        type: 3}
      propertyPath: m_Name
      value: EA_Ground_Dirt_Convex_Violet_01_Base_PRE
      objectReference: {fileID: 0}
    - target: {fileID: 3251936725212814608, guid: d4b39001533440e418ff223c1c6f5e30,
        type: 3}
      propertyPath: m_Materials.Array.data[0]
      value: 
      objectReference: {fileID: 2100000, guid: 621b5d7fd5bc58a45afb8d2f2046b8b0, type: 2}
    - target: {fileID: 3458567905782144406, guid: d4b39001533440e418ff223c1c6f5e30,
        type: 3}
      propertyPath: m_Materials.Array.data[0]
      value: 
      objectReference: {fileID: 2100000, guid: 621b5d7fd5bc58a45afb8d2f2046b8b0, type: 2}
    - target: {fileID: 3489312044951595466, guid: d4b39001533440e418ff223c1c6f5e30,
        type: 3}
      propertyPath: m_Materials.Array.data[0]
      value: 
      objectReference: {fileID: 2100000, guid: 621b5d7fd5bc58a45afb8d2f2046b8b0, type: 2}
    - target: {fileID: 3591080183965243635, guid: d4b39001533440e418ff223c1c6f5e30,
        type: 3}
      propertyPath: m_Materials.Array.data[0]
      value: 
      objectReference: {fileID: 2100000, guid: 621b5d7fd5bc58a45afb8d2f2046b8b0, type: 2}
    - target: {fileID: 3811583430034719106, guid: d4b39001533440e418ff223c1c6f5e30,
        type: 3}
      propertyPath: m_Materials.Array.data[0]
      value: 
      objectReference: {fileID: 2100000, guid: 621b5d7fd5bc58a45afb8d2f2046b8b0, type: 2}
    - target: {fileID: 4306518245400105244, guid: d4b39001533440e418ff223c1c6f5e30,
        type: 3}
      propertyPath: m_Materials.Array.data[0]
      value: 
      objectReference: {fileID: 2100000, guid: 621b5d7fd5bc58a45afb8d2f2046b8b0, type: 2}
    - target: {fileID: 4349581507391765453, guid: d4b39001533440e418ff223c1c6f5e30,
        type: 3}
      propertyPath: m_Materials.Array.data[0]
      value: 
      objectReference: {fileID: 2100000, guid: 621b5d7fd5bc58a45afb8d2f2046b8b0, type: 2}
    - target: {fileID: 4509040424811880524, guid: d4b39001533440e418ff223c1c6f5e30,
        type: 3}
      propertyPath: m_Materials.Array.data[0]
      value: 
      objectReference: {fileID: 2100000, guid: 621b5d7fd5bc58a45afb8d2f2046b8b0, type: 2}
    - target: {fileID: 4518245766192870384, guid: d4b39001533440e418ff223c1c6f5e30,
        type: 3}
      propertyPath: m_Materials.Array.data[0]
      value: 
      objectReference: {fileID: 2100000, guid: 621b5d7fd5bc58a45afb8d2f2046b8b0, type: 2}
    - target: {fileID: 6151209725202372896, guid: d4b39001533440e418ff223c1c6f5e30,
        type: 3}
      propertyPath: m_Materials.Array.data[0]
      value: 
      objectReference: {fileID: 2100000, guid: 621b5d7fd5bc58a45afb8d2f2046b8b0, type: 2}
    - target: {fileID: 6279262052578470824, guid: d4b39001533440e418ff223c1c6f5e30,
        type: 3}
      propertyPath: m_Materials.Array.data[0]
      value: 
      objectReference: {fileID: 2100000, guid: 621b5d7fd5bc58a45afb8d2f2046b8b0, type: 2}
    - target: {fileID: 6771868833788191157, guid: d4b39001533440e418ff223c1c6f5e30,
        type: 3}
      propertyPath: m_Materials.Array.data[0]
      value: 
      objectReference: {fileID: 2100000, guid: 621b5d7fd5bc58a45afb8d2f2046b8b0, type: 2}
    - target: {fileID: 6847407849336868553, guid: d4b39001533440e418ff223c1c6f5e30,
        type: 3}
      propertyPath: m_Materials.Array.data[0]
      value: 
      objectReference: {fileID: 2100000, guid: 621b5d7fd5bc58a45afb8d2f2046b8b0, type: 2}
    - target: {fileID: 7133219179619531604, guid: d4b39001533440e418ff223c1c6f5e30,
        type: 3}
      propertyPath: m_Materials.Array.data[0]
      value: 
      objectReference: {fileID: 2100000, guid: 621b5d7fd5bc58a45afb8d2f2046b8b0, type: 2}
    - target: {fileID: 7181309194395744281, guid: d4b39001533440e418ff223c1c6f5e30,
        type: 3}
      propertyPath: m_Materials.Array.data[0]
      value: 
      objectReference: {fileID: 2100000, guid: 621b5d7fd5bc58a45afb8d2f2046b8b0, type: 2}
    - target: {fileID: 7385664666555640693, guid: d4b39001533440e418ff223c1c6f5e30,
        type: 3}
      propertyPath: m_Materials.Array.data[0]
      value: 
      objectReference: {fileID: 2100000, guid: 621b5d7fd5bc58a45afb8d2f2046b8b0, type: 2}
    - target: {fileID: 7407388351708916797, guid: d4b39001533440e418ff223c1c6f5e30,
        type: 3}
      propertyPath: m_Materials.Array.data[0]
      value: 
      objectReference: {fileID: 2100000, guid: 621b5d7fd5bc58a45afb8d2f2046b8b0, type: 2}
    - target: {fileID: 7639732863775075456, guid: d4b39001533440e418ff223c1c6f5e30,
        type: 3}
      propertyPath: m_Materials.Array.data[0]
      value: 
      objectReference: {fileID: 2100000, guid: 621b5d7fd5bc58a45afb8d2f2046b8b0, type: 2}
    - target: {fileID: 7756112877476246943, guid: d4b39001533440e418ff223c1c6f5e30,
        type: 3}
      propertyPath: m_Materials.Array.data[0]
      value: 
      objectReference: {fileID: 2100000, guid: 621b5d7fd5bc58a45afb8d2f2046b8b0, type: 2}
    - target: {fileID: 7994457116066641159, guid: d4b39001533440e418ff223c1c6f5e30,
        type: 3}
      propertyPath: m_Materials.Array.data[0]
      value: 
      objectReference: {fileID: 2100000, guid: 621b5d7fd5bc58a45afb8d2f2046b8b0, type: 2}
    - target: {fileID: 8361297669689198822, guid: d4b39001533440e418ff223c1c6f5e30,
        type: 3}
      propertyPath: m_Materials.Array.data[0]
      value: 
      objectReference: {fileID: 2100000, guid: 621b5d7fd5bc58a45afb8d2f2046b8b0, type: 2}
    - target: {fileID: 8424046328140260100, guid: d4b39001533440e418ff223c1c6f5e30,
        type: 3}
      propertyPath: m_Materials.Array.data[0]
      value: 
      objectReference: {fileID: 2100000, guid: 621b5d7fd5bc58a45afb8d2f2046b8b0, type: 2}
    - target: {fileID: 8487296607781579778, guid: d4b39001533440e418ff223c1c6f5e30,
        type: 3}
      propertyPath: m_Materials.Array.data[0]
      value: 
      objectReference: {fileID: 2100000, guid: 621b5d7fd5bc58a45afb8d2f2046b8b0, type: 2}
    - target: {fileID: 8516579718695320494, guid: d4b39001533440e418ff223c1c6f5e30,
        type: 3}
      propertyPath: m_Materials.Array.data[0]
      value: 
      objectReference: {fileID: 2100000, guid: 621b5d7fd5bc58a45afb8d2f2046b8b0, type: 2}
    - target: {fileID: 8653078387783264090, guid: d4b39001533440e418ff223c1c6f5e30,
        type: 3}
      propertyPath: m_Materials.Array.data[0]
      value: 
      objectReference: {fileID: 2100000, guid: 621b5d7fd5bc58a45afb8d2f2046b8b0, type: 2}
    - target: {fileID: 8781671340219642342, guid: d4b39001533440e418ff223c1c6f5e30,
        type: 3}
      propertyPath: m_Materials.Array.data[0]
      value: 
      objectReference: {fileID: 2100000, guid: 621b5d7fd5bc58a45afb8d2f2046b8b0, type: 2}
    - target: {fileID: 8883658559032281580, guid: d4b39001533440e418ff223c1c6f5e30,
        type: 3}
      propertyPath: m_Materials.Array.data[0]
      value: 
      objectReference: {fileID: 2100000, guid: 621b5d7fd5bc58a45afb8d2f2046b8b0, type: 2}
    - target: {fileID: 9006295197228369782, guid: d4b39001533440e418ff223c1c6f5e30,
        type: 3}
      propertyPath: m_Materials.Array.data[0]
      value: 
      objectReference: {fileID: 2100000, guid: 621b5d7fd5bc58a45afb8d2f2046b8b0, type: 2}
    - target: {fileID: 9114526933161206899, guid: d4b39001533440e418ff223c1c6f5e30,
        type: 3}
      propertyPath: m_Materials.Array.data[0]
      value: 
      objectReference: {fileID: 2100000, guid: 621b5d7fd5bc58a45afb8d2f2046b8b0, type: 2}
    m_RemovedComponents: []
  m_SourcePrefab: {fileID: 100100000, guid: d4b39001533440e418ff223c1c6f5e30, type: 3}
--- !u!4 &2928752178575440895 stripped
Transform:
  m_CorrespondingSourceObject: {fileID: 1927008828083549698, guid: d4b39001533440e418ff223c1c6f5e30,
    type: 3}
  m_PrefabInstance: {fileID: 3610506769577922045}
  m_PrefabAsset: {fileID: 0}
--- !u!1001 &4868504211327741608
PrefabInstance:
  m_ObjectHideFlags: 0
  serializedVersion: 2
  m_Modification:
    m_TransformParent: {fileID: 6723606377074798197}
    m_Modifications:
    - target: {fileID: 258107666950120978, guid: abdee40434e8f2d4ea906b878a94138e,
        type: 3}
      propertyPath: m_LocalPosition.x
      value: 0
      objectReference: {fileID: 0}
    - target: {fileID: 258107666950120978, guid: abdee40434e8f2d4ea906b878a94138e,
        type: 3}
      propertyPath: m_LocalPosition.y
      value: 24
      objectReference: {fileID: 0}
    - target: {fileID: 258107666950120978, guid: abdee40434e8f2d4ea906b878a94138e,
        type: 3}
      propertyPath: m_LocalPosition.z
      value: 0
      objectReference: {fileID: 0}
    - target: {fileID: 258107666950120978, guid: abdee40434e8f2d4ea906b878a94138e,
        type: 3}
      propertyPath: m_LocalRotation.x
      value: -0
      objectReference: {fileID: 0}
    - target: {fileID: 258107666950120978, guid: abdee40434e8f2d4ea906b878a94138e,
        type: 3}
      propertyPath: m_LocalRotation.y
      value: -0
      objectReference: {fileID: 0}
    - target: {fileID: 258107666950120978, guid: abdee40434e8f2d4ea906b878a94138e,
        type: 3}
      propertyPath: m_LocalRotation.z
      value: -0
      objectReference: {fileID: 0}
    - target: {fileID: 258107666950120978, guid: abdee40434e8f2d4ea906b878a94138e,
        type: 3}
      propertyPath: m_LocalRotation.w
      value: 1
      objectReference: {fileID: 0}
    - target: {fileID: 258107666950120978, guid: abdee40434e8f2d4ea906b878a94138e,
        type: 3}
      propertyPath: m_RootOrder
      value: 2
      objectReference: {fileID: 0}
    - target: {fileID: 258107666950120978, guid: abdee40434e8f2d4ea906b878a94138e,
        type: 3}
      propertyPath: m_LocalEulerAnglesHint.x
      value: 0
      objectReference: {fileID: 0}
    - target: {fileID: 258107666950120978, guid: abdee40434e8f2d4ea906b878a94138e,
        type: 3}
      propertyPath: m_LocalEulerAnglesHint.y
      value: 0
      objectReference: {fileID: 0}
    - target: {fileID: 258107666950120978, guid: abdee40434e8f2d4ea906b878a94138e,
        type: 3}
      propertyPath: m_LocalEulerAnglesHint.z
      value: 0
      objectReference: {fileID: 0}
    - target: {fileID: 628902635131597505, guid: abdee40434e8f2d4ea906b878a94138e,
        type: 3}
      propertyPath: m_Materials.Array.data[0]
      value: 
      objectReference: {fileID: 2100000, guid: 621b5d7fd5bc58a45afb8d2f2046b8b0, type: 2}
    - target: {fileID: 650091869965422542, guid: abdee40434e8f2d4ea906b878a94138e,
        type: 3}
      propertyPath: m_Materials.Array.data[0]
      value: 
      objectReference: {fileID: 2100000, guid: 621b5d7fd5bc58a45afb8d2f2046b8b0, type: 2}
    - target: {fileID: 1254215543951655424, guid: abdee40434e8f2d4ea906b878a94138e,
        type: 3}
      propertyPath: m_Materials.Array.data[0]
      value: 
      objectReference: {fileID: 2100000, guid: 621b5d7fd5bc58a45afb8d2f2046b8b0, type: 2}
    - target: {fileID: 1337000107394450772, guid: abdee40434e8f2d4ea906b878a94138e,
        type: 3}
      propertyPath: m_Materials.Array.data[0]
      value: 
      objectReference: {fileID: 2100000, guid: 621b5d7fd5bc58a45afb8d2f2046b8b0, type: 2}
    - target: {fileID: 1429340163798690157, guid: abdee40434e8f2d4ea906b878a94138e,
        type: 3}
      propertyPath: m_Materials.Array.data[0]
      value: 
      objectReference: {fileID: 2100000, guid: 621b5d7fd5bc58a45afb8d2f2046b8b0, type: 2}
    - target: {fileID: 3051650664307765624, guid: abdee40434e8f2d4ea906b878a94138e,
        type: 3}
      propertyPath: m_Materials.Array.data[0]
      value: 
      objectReference: {fileID: 2100000, guid: 621b5d7fd5bc58a45afb8d2f2046b8b0, type: 2}
    - target: {fileID: 3224479838673580937, guid: abdee40434e8f2d4ea906b878a94138e,
        type: 3}
      propertyPath: m_Materials.Array.data[0]
      value: 
      objectReference: {fileID: 2100000, guid: 621b5d7fd5bc58a45afb8d2f2046b8b0, type: 2}
    - target: {fileID: 3862352149355784358, guid: abdee40434e8f2d4ea906b878a94138e,
        type: 3}
      propertyPath: m_Materials.Array.data[0]
      value: 
      objectReference: {fileID: 2100000, guid: 621b5d7fd5bc58a45afb8d2f2046b8b0, type: 2}
    - target: {fileID: 3877496298027029505, guid: abdee40434e8f2d4ea906b878a94138e,
        type: 3}
      propertyPath: m_Name
      value: EA_Roof_Wide_Brick_06_PRE (1)
      objectReference: {fileID: 0}
    - target: {fileID: 3903132908268454074, guid: abdee40434e8f2d4ea906b878a94138e,
        type: 3}
      propertyPath: m_Materials.Array.data[0]
      value: 
      objectReference: {fileID: 2100000, guid: 621b5d7fd5bc58a45afb8d2f2046b8b0, type: 2}
    - target: {fileID: 4701345349698550306, guid: abdee40434e8f2d4ea906b878a94138e,
        type: 3}
      propertyPath: m_Materials.Array.data[0]
      value: 
      objectReference: {fileID: 2100000, guid: 621b5d7fd5bc58a45afb8d2f2046b8b0, type: 2}
    - target: {fileID: 4882448217507101190, guid: abdee40434e8f2d4ea906b878a94138e,
        type: 3}
      propertyPath: m_Materials.Array.data[0]
      value: 
      objectReference: {fileID: 2100000, guid: 621b5d7fd5bc58a45afb8d2f2046b8b0, type: 2}
    - target: {fileID: 5107499960365765532, guid: abdee40434e8f2d4ea906b878a94138e,
        type: 3}
      propertyPath: m_Materials.Array.data[0]
      value: 
      objectReference: {fileID: 2100000, guid: 621b5d7fd5bc58a45afb8d2f2046b8b0, type: 2}
    - target: {fileID: 5439804618753816672, guid: abdee40434e8f2d4ea906b878a94138e,
        type: 3}
      propertyPath: m_Materials.Array.data[0]
      value: 
      objectReference: {fileID: 2100000, guid: 621b5d7fd5bc58a45afb8d2f2046b8b0, type: 2}
    - target: {fileID: 5479832596849281728, guid: abdee40434e8f2d4ea906b878a94138e,
        type: 3}
      propertyPath: m_Materials.Array.data[0]
      value: 
      objectReference: {fileID: 2100000, guid: 621b5d7fd5bc58a45afb8d2f2046b8b0, type: 2}
    - target: {fileID: 5656713835971605555, guid: abdee40434e8f2d4ea906b878a94138e,
        type: 3}
      propertyPath: m_Materials.Array.data[0]
      value: 
      objectReference: {fileID: 2100000, guid: 621b5d7fd5bc58a45afb8d2f2046b8b0, type: 2}
    - target: {fileID: 5683404734212210827, guid: abdee40434e8f2d4ea906b878a94138e,
        type: 3}
      propertyPath: m_Materials.Array.data[0]
      value: 
      objectReference: {fileID: 2100000, guid: 621b5d7fd5bc58a45afb8d2f2046b8b0, type: 2}
    - target: {fileID: 5746613146524712996, guid: abdee40434e8f2d4ea906b878a94138e,
        type: 3}
      propertyPath: m_Materials.Array.data[0]
      value: 
      objectReference: {fileID: 2100000, guid: 621b5d7fd5bc58a45afb8d2f2046b8b0, type: 2}
    - target: {fileID: 6959353461766125027, guid: abdee40434e8f2d4ea906b878a94138e,
        type: 3}
      propertyPath: m_Materials.Array.data[0]
      value: 
      objectReference: {fileID: 2100000, guid: 621b5d7fd5bc58a45afb8d2f2046b8b0, type: 2}
    - target: {fileID: 7114850264473414176, guid: abdee40434e8f2d4ea906b878a94138e,
        type: 3}
      propertyPath: m_Materials.Array.data[0]
      value: 
      objectReference: {fileID: 2100000, guid: 621b5d7fd5bc58a45afb8d2f2046b8b0, type: 2}
    - target: {fileID: 7295052778957952900, guid: abdee40434e8f2d4ea906b878a94138e,
        type: 3}
      propertyPath: m_Materials.Array.data[0]
      value: 
      objectReference: {fileID: 2100000, guid: 621b5d7fd5bc58a45afb8d2f2046b8b0, type: 2}
    - target: {fileID: 7606065257217033672, guid: abdee40434e8f2d4ea906b878a94138e,
        type: 3}
      propertyPath: m_Materials.Array.data[0]
      value: 
      objectReference: {fileID: 2100000, guid: 621b5d7fd5bc58a45afb8d2f2046b8b0, type: 2}
    - target: {fileID: 7763804268205289499, guid: abdee40434e8f2d4ea906b878a94138e,
        type: 3}
      propertyPath: m_Materials.Array.data[0]
      value: 
      objectReference: {fileID: 2100000, guid: 621b5d7fd5bc58a45afb8d2f2046b8b0, type: 2}
    - target: {fileID: 8087527265544636194, guid: abdee40434e8f2d4ea906b878a94138e,
        type: 3}
      propertyPath: m_Materials.Array.data[0]
      value: 
      objectReference: {fileID: 2100000, guid: 621b5d7fd5bc58a45afb8d2f2046b8b0, type: 2}
    - target: {fileID: 8328185249900397632, guid: abdee40434e8f2d4ea906b878a94138e,
        type: 3}
      propertyPath: m_Materials.Array.data[0]
      value: 
      objectReference: {fileID: 2100000, guid: 621b5d7fd5bc58a45afb8d2f2046b8b0, type: 2}
    - target: {fileID: 8460957238853128164, guid: abdee40434e8f2d4ea906b878a94138e,
        type: 3}
      propertyPath: m_Materials.Array.data[0]
      value: 
      objectReference: {fileID: 2100000, guid: 621b5d7fd5bc58a45afb8d2f2046b8b0, type: 2}
    - target: {fileID: 8706279652812907632, guid: abdee40434e8f2d4ea906b878a94138e,
        type: 3}
      propertyPath: m_Materials.Array.data[0]
      value: 
      objectReference: {fileID: 2100000, guid: 621b5d7fd5bc58a45afb8d2f2046b8b0, type: 2}
    - target: {fileID: 8723302207910037261, guid: abdee40434e8f2d4ea906b878a94138e,
        type: 3}
      propertyPath: m_Materials.Array.data[0]
      value: 
      objectReference: {fileID: 2100000, guid: 621b5d7fd5bc58a45afb8d2f2046b8b0, type: 2}
    m_RemovedComponents: []
  m_SourcePrefab: {fileID: 100100000, guid: abdee40434e8f2d4ea906b878a94138e, type: 3}
--- !u!4 &4612984847104936122 stripped
Transform:
  m_CorrespondingSourceObject: {fileID: 258107666950120978, guid: abdee40434e8f2d4ea906b878a94138e,
    type: 3}
  m_PrefabInstance: {fileID: 4868504211327741608}
  m_PrefabAsset: {fileID: 0}
--- !u!1001 &4868504212196697987
PrefabInstance:
  m_ObjectHideFlags: 0
  serializedVersion: 2
  m_Modification:
    m_TransformParent: {fileID: 6723606377074798197}
    m_Modifications:
    - target: {fileID: 145635119027801312, guid: 72fbb5b154c324744be0ef0e5e825fdd,
        type: 3}
      propertyPath: m_Materials.Array.data[0]
      value: 
      objectReference: {fileID: 2100000, guid: 621b5d7fd5bc58a45afb8d2f2046b8b0, type: 2}
    - target: {fileID: 383891208592886638, guid: 72fbb5b154c324744be0ef0e5e825fdd,
        type: 3}
      propertyPath: m_Materials.Array.data[0]
      value: 
      objectReference: {fileID: 2100000, guid: 621b5d7fd5bc58a45afb8d2f2046b8b0, type: 2}
    - target: {fileID: 405798198529264686, guid: 72fbb5b154c324744be0ef0e5e825fdd,
        type: 3}
      propertyPath: m_Materials.Array.data[0]
      value: 
      objectReference: {fileID: 2100000, guid: 621b5d7fd5bc58a45afb8d2f2046b8b0, type: 2}
    - target: {fileID: 591159412796263885, guid: 72fbb5b154c324744be0ef0e5e825fdd,
        type: 3}
      propertyPath: m_Materials.Array.data[0]
      value: 
      objectReference: {fileID: 2100000, guid: 621b5d7fd5bc58a45afb8d2f2046b8b0, type: 2}
    - target: {fileID: 974480650260119164, guid: 72fbb5b154c324744be0ef0e5e825fdd,
        type: 3}
      propertyPath: m_Materials.Array.data[0]
      value: 
      objectReference: {fileID: 2100000, guid: 621b5d7fd5bc58a45afb8d2f2046b8b0, type: 2}
    - target: {fileID: 1194160637044302664, guid: 72fbb5b154c324744be0ef0e5e825fdd,
        type: 3}
      propertyPath: m_Materials.Array.data[0]
      value: 
      objectReference: {fileID: 2100000, guid: 621b5d7fd5bc58a45afb8d2f2046b8b0, type: 2}
    - target: {fileID: 1786953314993879959, guid: 72fbb5b154c324744be0ef0e5e825fdd,
        type: 3}
      propertyPath: m_Materials.Array.data[0]
      value: 
      objectReference: {fileID: 2100000, guid: 621b5d7fd5bc58a45afb8d2f2046b8b0, type: 2}
    - target: {fileID: 1792601778692220394, guid: 72fbb5b154c324744be0ef0e5e825fdd,
        type: 3}
      propertyPath: m_Materials.Array.data[0]
      value: 
      objectReference: {fileID: 2100000, guid: 621b5d7fd5bc58a45afb8d2f2046b8b0, type: 2}
    - target: {fileID: 2159157481838995942, guid: 72fbb5b154c324744be0ef0e5e825fdd,
        type: 3}
      propertyPath: m_Name
      value: EA_Clean_Middle_Floor_Convex_Violet_01_PRE (4)
      objectReference: {fileID: 0}
    - target: {fileID: 2573297872793992289, guid: 72fbb5b154c324744be0ef0e5e825fdd,
        type: 3}
      propertyPath: m_Materials.Array.data[0]
      value: 
      objectReference: {fileID: 2100000, guid: 621b5d7fd5bc58a45afb8d2f2046b8b0, type: 2}
    - target: {fileID: 2607461653669291019, guid: 72fbb5b154c324744be0ef0e5e825fdd,
        type: 3}
      propertyPath: m_Materials.Array.data[0]
      value: 
      objectReference: {fileID: 2100000, guid: 621b5d7fd5bc58a45afb8d2f2046b8b0, type: 2}
    - target: {fileID: 2804857993852988876, guid: 72fbb5b154c324744be0ef0e5e825fdd,
        type: 3}
      propertyPath: m_Materials.Array.data[0]
      value: 
      objectReference: {fileID: 2100000, guid: 621b5d7fd5bc58a45afb8d2f2046b8b0, type: 2}
    - target: {fileID: 2854163318047389569, guid: 72fbb5b154c324744be0ef0e5e825fdd,
        type: 3}
      propertyPath: m_Materials.Array.data[0]
      value: 
      objectReference: {fileID: 2100000, guid: 621b5d7fd5bc58a45afb8d2f2046b8b0, type: 2}
    - target: {fileID: 3021444297207186697, guid: 72fbb5b154c324744be0ef0e5e825fdd,
        type: 3}
      propertyPath: m_Materials.Array.data[0]
      value: 
      objectReference: {fileID: 2100000, guid: 621b5d7fd5bc58a45afb8d2f2046b8b0, type: 2}
    - target: {fileID: 3109344182631525312, guid: 72fbb5b154c324744be0ef0e5e825fdd,
        type: 3}
      propertyPath: m_Materials.Array.data[0]
      value: 
      objectReference: {fileID: 2100000, guid: 621b5d7fd5bc58a45afb8d2f2046b8b0, type: 2}
    - target: {fileID: 3147320779238349813, guid: 72fbb5b154c324744be0ef0e5e825fdd,
        type: 3}
      propertyPath: m_LocalPosition.x
      value: 0
      objectReference: {fileID: 0}
    - target: {fileID: 3147320779238349813, guid: 72fbb5b154c324744be0ef0e5e825fdd,
        type: 3}
      propertyPath: m_LocalPosition.y
      value: 4
      objectReference: {fileID: 0}
    - target: {fileID: 3147320779238349813, guid: 72fbb5b154c324744be0ef0e5e825fdd,
        type: 3}
      propertyPath: m_LocalPosition.z
      value: 0
      objectReference: {fileID: 0}
    - target: {fileID: 3147320779238349813, guid: 72fbb5b154c324744be0ef0e5e825fdd,
        type: 3}
      propertyPath: m_LocalRotation.x
      value: 0
      objectReference: {fileID: 0}
    - target: {fileID: 3147320779238349813, guid: 72fbb5b154c324744be0ef0e5e825fdd,
        type: 3}
      propertyPath: m_LocalRotation.y
      value: 0
      objectReference: {fileID: 0}
    - target: {fileID: 3147320779238349813, guid: 72fbb5b154c324744be0ef0e5e825fdd,
        type: 3}
      propertyPath: m_LocalRotation.z
      value: 0
      objectReference: {fileID: 0}
    - target: {fileID: 3147320779238349813, guid: 72fbb5b154c324744be0ef0e5e825fdd,
        type: 3}
      propertyPath: m_LocalRotation.w
      value: 1
      objectReference: {fileID: 0}
    - target: {fileID: 3147320779238349813, guid: 72fbb5b154c324744be0ef0e5e825fdd,
        type: 3}
      propertyPath: m_RootOrder
      value: 1
      objectReference: {fileID: 0}
    - target: {fileID: 3147320779238349813, guid: 72fbb5b154c324744be0ef0e5e825fdd,
        type: 3}
      propertyPath: m_LocalEulerAnglesHint.x
      value: 0
      objectReference: {fileID: 0}
    - target: {fileID: 3147320779238349813, guid: 72fbb5b154c324744be0ef0e5e825fdd,
        type: 3}
      propertyPath: m_LocalEulerAnglesHint.y
      value: 0
      objectReference: {fileID: 0}
    - target: {fileID: 3147320779238349813, guid: 72fbb5b154c324744be0ef0e5e825fdd,
        type: 3}
      propertyPath: m_LocalEulerAnglesHint.z
      value: 0
      objectReference: {fileID: 0}
    - target: {fileID: 3221182483736770404, guid: 72fbb5b154c324744be0ef0e5e825fdd,
        type: 3}
      propertyPath: m_Materials.Array.data[0]
      value: 
      objectReference: {fileID: 2100000, guid: 621b5d7fd5bc58a45afb8d2f2046b8b0, type: 2}
    - target: {fileID: 4414259692301274313, guid: 72fbb5b154c324744be0ef0e5e825fdd,
        type: 3}
      propertyPath: m_Materials.Array.data[0]
      value: 
      objectReference: {fileID: 2100000, guid: 621b5d7fd5bc58a45afb8d2f2046b8b0, type: 2}
    - target: {fileID: 4463730943033184148, guid: 72fbb5b154c324744be0ef0e5e825fdd,
        type: 3}
      propertyPath: m_Materials.Array.data[0]
      value: 
      objectReference: {fileID: 2100000, guid: 621b5d7fd5bc58a45afb8d2f2046b8b0, type: 2}
    - target: {fileID: 4607716663778973994, guid: 72fbb5b154c324744be0ef0e5e825fdd,
        type: 3}
      propertyPath: m_Materials.Array.data[0]
      value: 
      objectReference: {fileID: 2100000, guid: 621b5d7fd5bc58a45afb8d2f2046b8b0, type: 2}
    - target: {fileID: 4630166510127174133, guid: 72fbb5b154c324744be0ef0e5e825fdd,
        type: 3}
      propertyPath: m_Materials.Array.data[0]
      value: 
      objectReference: {fileID: 2100000, guid: 621b5d7fd5bc58a45afb8d2f2046b8b0, type: 2}
    - target: {fileID: 4790799690242084684, guid: 72fbb5b154c324744be0ef0e5e825fdd,
        type: 3}
      propertyPath: m_Materials.Array.data[0]
      value: 
      objectReference: {fileID: 2100000, guid: 621b5d7fd5bc58a45afb8d2f2046b8b0, type: 2}
    - target: {fileID: 5384465309971990403, guid: 72fbb5b154c324744be0ef0e5e825fdd,
        type: 3}
      propertyPath: m_Materials.Array.data[0]
      value: 
      objectReference: {fileID: 2100000, guid: 621b5d7fd5bc58a45afb8d2f2046b8b0, type: 2}
    - target: {fileID: 5435358546486924446, guid: 72fbb5b154c324744be0ef0e5e825fdd,
        type: 3}
      propertyPath: m_Materials.Array.data[0]
      value: 
      objectReference: {fileID: 2100000, guid: 621b5d7fd5bc58a45afb8d2f2046b8b0, type: 2}
    - target: {fileID: 5526601175111834035, guid: 72fbb5b154c324744be0ef0e5e825fdd,
        type: 3}
      propertyPath: m_Materials.Array.data[0]
      value: 
      objectReference: {fileID: 2100000, guid: 621b5d7fd5bc58a45afb8d2f2046b8b0, type: 2}
    - target: {fileID: 5770354661038106368, guid: 72fbb5b154c324744be0ef0e5e825fdd,
        type: 3}
      propertyPath: m_Materials.Array.data[0]
      value: 
      objectReference: {fileID: 2100000, guid: 621b5d7fd5bc58a45afb8d2f2046b8b0, type: 2}
    - target: {fileID: 6178182720723647251, guid: 72fbb5b154c324744be0ef0e5e825fdd,
        type: 3}
      propertyPath: m_Materials.Array.data[0]
      value: 
      objectReference: {fileID: 2100000, guid: 621b5d7fd5bc58a45afb8d2f2046b8b0, type: 2}
    - target: {fileID: 6329254974417959411, guid: 72fbb5b154c324744be0ef0e5e825fdd,
        type: 3}
      propertyPath: m_Materials.Array.data[0]
      value: 
      objectReference: {fileID: 2100000, guid: 621b5d7fd5bc58a45afb8d2f2046b8b0, type: 2}
    - target: {fileID: 7337582359545225717, guid: 72fbb5b154c324744be0ef0e5e825fdd,
        type: 3}
      propertyPath: m_Materials.Array.data[0]
      value: 
      objectReference: {fileID: 2100000, guid: 621b5d7fd5bc58a45afb8d2f2046b8b0, type: 2}
    - target: {fileID: 7379681734094458233, guid: 72fbb5b154c324744be0ef0e5e825fdd,
        type: 3}
      propertyPath: m_Materials.Array.data[0]
      value: 
      objectReference: {fileID: 2100000, guid: 621b5d7fd5bc58a45afb8d2f2046b8b0, type: 2}
    - target: {fileID: 7428438325734919548, guid: 72fbb5b154c324744be0ef0e5e825fdd,
        type: 3}
      propertyPath: m_Materials.Array.data[0]
      value: 
      objectReference: {fileID: 2100000, guid: 621b5d7fd5bc58a45afb8d2f2046b8b0, type: 2}
    - target: {fileID: 7435342625220585223, guid: 72fbb5b154c324744be0ef0e5e825fdd,
        type: 3}
      propertyPath: m_Materials.Array.data[0]
      value: 
      objectReference: {fileID: 2100000, guid: 621b5d7fd5bc58a45afb8d2f2046b8b0, type: 2}
    - target: {fileID: 7636804208196336000, guid: 72fbb5b154c324744be0ef0e5e825fdd,
        type: 3}
      propertyPath: m_Materials.Array.data[0]
      value: 
      objectReference: {fileID: 2100000, guid: 621b5d7fd5bc58a45afb8d2f2046b8b0, type: 2}
    - target: {fileID: 7792497602741112528, guid: 72fbb5b154c324744be0ef0e5e825fdd,
        type: 3}
      propertyPath: m_Materials.Array.data[0]
      value: 
      objectReference: {fileID: 2100000, guid: 621b5d7fd5bc58a45afb8d2f2046b8b0, type: 2}
    - target: {fileID: 8279575458568787610, guid: 72fbb5b154c324744be0ef0e5e825fdd,
        type: 3}
      propertyPath: m_Materials.Array.data[0]
      value: 
      objectReference: {fileID: 2100000, guid: 621b5d7fd5bc58a45afb8d2f2046b8b0, type: 2}
    - target: {fileID: 8397626615613097687, guid: 72fbb5b154c324744be0ef0e5e825fdd,
        type: 3}
      propertyPath: m_Materials.Array.data[0]
      value: 
      objectReference: {fileID: 2100000, guid: 621b5d7fd5bc58a45afb8d2f2046b8b0, type: 2}
    - target: {fileID: 8775617640833197049, guid: 72fbb5b154c324744be0ef0e5e825fdd,
        type: 3}
      propertyPath: m_Materials.Array.data[0]
      value: 
      objectReference: {fileID: 2100000, guid: 621b5d7fd5bc58a45afb8d2f2046b8b0, type: 2}
    - target: {fileID: 8992303576934920417, guid: 72fbb5b154c324744be0ef0e5e825fdd,
        type: 3}
      propertyPath: m_Materials.Array.data[0]
      value: 
      objectReference: {fileID: 2100000, guid: 621b5d7fd5bc58a45afb8d2f2046b8b0, type: 2}
    - target: {fileID: 9085787394026103742, guid: 72fbb5b154c324744be0ef0e5e825fdd,
        type: 3}
      propertyPath: m_Materials.Array.data[0]
      value: 
      objectReference: {fileID: 2100000, guid: 621b5d7fd5bc58a45afb8d2f2046b8b0, type: 2}
    - target: {fileID: 9187010737249194869, guid: 72fbb5b154c324744be0ef0e5e825fdd,
        type: 3}
      propertyPath: m_Materials.Array.data[0]
      value: 
      objectReference: {fileID: 2100000, guid: 621b5d7fd5bc58a45afb8d2f2046b8b0, type: 2}
    - target: {fileID: 9197088227113693672, guid: 72fbb5b154c324744be0ef0e5e825fdd,
        type: 3}
      propertyPath: m_Materials.Array.data[0]
      value: 
      objectReference: {fileID: 2100000, guid: 621b5d7fd5bc58a45afb8d2f2046b8b0, type: 2}
    m_RemovedComponents: []
  m_SourcePrefab: {fileID: 100100000, guid: 72fbb5b154c324744be0ef0e5e825fdd, type: 3}
--- !u!4 &7511407536827743350 stripped
Transform:
  m_CorrespondingSourceObject: {fileID: 3147320779238349813, guid: 72fbb5b154c324744be0ef0e5e825fdd,
    type: 3}
  m_PrefabInstance: {fileID: 4868504212196697987}
  m_PrefabAsset: {fileID: 0}
--- !u!1001 &4868504212574319545
PrefabInstance:
  m_ObjectHideFlags: 0
  serializedVersion: 2
  m_Modification:
    m_TransformParent: {fileID: 6723606377074798197}
    m_Modifications:
    - target: {fileID: 145635119027801312, guid: 72fbb5b154c324744be0ef0e5e825fdd,
        type: 3}
      propertyPath: m_Materials.Array.data[0]
      value: 
      objectReference: {fileID: 2100000, guid: 621b5d7fd5bc58a45afb8d2f2046b8b0, type: 2}
    - target: {fileID: 383891208592886638, guid: 72fbb5b154c324744be0ef0e5e825fdd,
        type: 3}
      propertyPath: m_Materials.Array.data[0]
      value: 
      objectReference: {fileID: 2100000, guid: 621b5d7fd5bc58a45afb8d2f2046b8b0, type: 2}
    - target: {fileID: 405798198529264686, guid: 72fbb5b154c324744be0ef0e5e825fdd,
        type: 3}
      propertyPath: m_Materials.Array.data[0]
      value: 
      objectReference: {fileID: 2100000, guid: 621b5d7fd5bc58a45afb8d2f2046b8b0, type: 2}
    - target: {fileID: 591159412796263885, guid: 72fbb5b154c324744be0ef0e5e825fdd,
        type: 3}
      propertyPath: m_Materials.Array.data[0]
      value: 
      objectReference: {fileID: 2100000, guid: 621b5d7fd5bc58a45afb8d2f2046b8b0, type: 2}
    - target: {fileID: 974480650260119164, guid: 72fbb5b154c324744be0ef0e5e825fdd,
        type: 3}
      propertyPath: m_Materials.Array.data[0]
      value: 
      objectReference: {fileID: 2100000, guid: 621b5d7fd5bc58a45afb8d2f2046b8b0, type: 2}
    - target: {fileID: 1194160637044302664, guid: 72fbb5b154c324744be0ef0e5e825fdd,
        type: 3}
      propertyPath: m_Materials.Array.data[0]
      value: 
      objectReference: {fileID: 2100000, guid: 621b5d7fd5bc58a45afb8d2f2046b8b0, type: 2}
    - target: {fileID: 1786953314993879959, guid: 72fbb5b154c324744be0ef0e5e825fdd,
        type: 3}
      propertyPath: m_Materials.Array.data[0]
      value: 
      objectReference: {fileID: 2100000, guid: 621b5d7fd5bc58a45afb8d2f2046b8b0, type: 2}
    - target: {fileID: 1792601778692220394, guid: 72fbb5b154c324744be0ef0e5e825fdd,
        type: 3}
      propertyPath: m_Materials.Array.data[0]
      value: 
      objectReference: {fileID: 2100000, guid: 621b5d7fd5bc58a45afb8d2f2046b8b0, type: 2}
    - target: {fileID: 2159157481838995942, guid: 72fbb5b154c324744be0ef0e5e825fdd,
        type: 3}
      propertyPath: m_Name
      value: EA_Clean_Middle_Floor_Convex_Violet_01_PRE (5)
      objectReference: {fileID: 0}
    - target: {fileID: 2573297872793992289, guid: 72fbb5b154c324744be0ef0e5e825fdd,
        type: 3}
      propertyPath: m_Materials.Array.data[0]
      value: 
      objectReference: {fileID: 2100000, guid: 621b5d7fd5bc58a45afb8d2f2046b8b0, type: 2}
    - target: {fileID: 2607461653669291019, guid: 72fbb5b154c324744be0ef0e5e825fdd,
        type: 3}
      propertyPath: m_Materials.Array.data[0]
      value: 
      objectReference: {fileID: 2100000, guid: 621b5d7fd5bc58a45afb8d2f2046b8b0, type: 2}
    - target: {fileID: 2804857993852988876, guid: 72fbb5b154c324744be0ef0e5e825fdd,
        type: 3}
      propertyPath: m_Materials.Array.data[0]
      value: 
      objectReference: {fileID: 2100000, guid: 621b5d7fd5bc58a45afb8d2f2046b8b0, type: 2}
    - target: {fileID: 2854163318047389569, guid: 72fbb5b154c324744be0ef0e5e825fdd,
        type: 3}
      propertyPath: m_Materials.Array.data[0]
      value: 
      objectReference: {fileID: 2100000, guid: 621b5d7fd5bc58a45afb8d2f2046b8b0, type: 2}
    - target: {fileID: 3021444297207186697, guid: 72fbb5b154c324744be0ef0e5e825fdd,
        type: 3}
      propertyPath: m_Materials.Array.data[0]
      value: 
      objectReference: {fileID: 2100000, guid: 621b5d7fd5bc58a45afb8d2f2046b8b0, type: 2}
    - target: {fileID: 3109344182631525312, guid: 72fbb5b154c324744be0ef0e5e825fdd,
        type: 3}
      propertyPath: m_Materials.Array.data[0]
      value: 
      objectReference: {fileID: 2100000, guid: 621b5d7fd5bc58a45afb8d2f2046b8b0, type: 2}
    - target: {fileID: 3147320779238349813, guid: 72fbb5b154c324744be0ef0e5e825fdd,
        type: 3}
      propertyPath: m_LocalPosition.x
      value: 0
      objectReference: {fileID: 0}
    - target: {fileID: 3147320779238349813, guid: 72fbb5b154c324744be0ef0e5e825fdd,
        type: 3}
      propertyPath: m_LocalPosition.y
      value: 20
      objectReference: {fileID: 0}
    - target: {fileID: 3147320779238349813, guid: 72fbb5b154c324744be0ef0e5e825fdd,
        type: 3}
      propertyPath: m_LocalPosition.z
      value: 0
      objectReference: {fileID: 0}
    - target: {fileID: 3147320779238349813, guid: 72fbb5b154c324744be0ef0e5e825fdd,
        type: 3}
      propertyPath: m_LocalRotation.x
      value: 0
      objectReference: {fileID: 0}
    - target: {fileID: 3147320779238349813, guid: 72fbb5b154c324744be0ef0e5e825fdd,
        type: 3}
      propertyPath: m_LocalRotation.y
      value: 0
      objectReference: {fileID: 0}
    - target: {fileID: 3147320779238349813, guid: 72fbb5b154c324744be0ef0e5e825fdd,
        type: 3}
      propertyPath: m_LocalRotation.z
      value: 0
      objectReference: {fileID: 0}
    - target: {fileID: 3147320779238349813, guid: 72fbb5b154c324744be0ef0e5e825fdd,
        type: 3}
      propertyPath: m_LocalRotation.w
      value: 1
      objectReference: {fileID: 0}
    - target: {fileID: 3147320779238349813, guid: 72fbb5b154c324744be0ef0e5e825fdd,
        type: 3}
      propertyPath: m_RootOrder
      value: 0
      objectReference: {fileID: 0}
    - target: {fileID: 3147320779238349813, guid: 72fbb5b154c324744be0ef0e5e825fdd,
        type: 3}
      propertyPath: m_LocalEulerAnglesHint.x
      value: 0
      objectReference: {fileID: 0}
    - target: {fileID: 3147320779238349813, guid: 72fbb5b154c324744be0ef0e5e825fdd,
        type: 3}
      propertyPath: m_LocalEulerAnglesHint.y
      value: 0
      objectReference: {fileID: 0}
    - target: {fileID: 3147320779238349813, guid: 72fbb5b154c324744be0ef0e5e825fdd,
        type: 3}
      propertyPath: m_LocalEulerAnglesHint.z
      value: 0
      objectReference: {fileID: 0}
    - target: {fileID: 3221182483736770404, guid: 72fbb5b154c324744be0ef0e5e825fdd,
        type: 3}
      propertyPath: m_Materials.Array.data[0]
      value: 
      objectReference: {fileID: 2100000, guid: 621b5d7fd5bc58a45afb8d2f2046b8b0, type: 2}
    - target: {fileID: 4414259692301274313, guid: 72fbb5b154c324744be0ef0e5e825fdd,
        type: 3}
      propertyPath: m_Materials.Array.data[0]
      value: 
      objectReference: {fileID: 2100000, guid: 621b5d7fd5bc58a45afb8d2f2046b8b0, type: 2}
    - target: {fileID: 4463730943033184148, guid: 72fbb5b154c324744be0ef0e5e825fdd,
        type: 3}
      propertyPath: m_Materials.Array.data[0]
      value: 
      objectReference: {fileID: 2100000, guid: 621b5d7fd5bc58a45afb8d2f2046b8b0, type: 2}
    - target: {fileID: 4607716663778973994, guid: 72fbb5b154c324744be0ef0e5e825fdd,
        type: 3}
      propertyPath: m_Materials.Array.data[0]
      value: 
      objectReference: {fileID: 2100000, guid: 621b5d7fd5bc58a45afb8d2f2046b8b0, type: 2}
    - target: {fileID: 4630166510127174133, guid: 72fbb5b154c324744be0ef0e5e825fdd,
        type: 3}
      propertyPath: m_Materials.Array.data[0]
      value: 
      objectReference: {fileID: 2100000, guid: 621b5d7fd5bc58a45afb8d2f2046b8b0, type: 2}
    - target: {fileID: 4790799690242084684, guid: 72fbb5b154c324744be0ef0e5e825fdd,
        type: 3}
      propertyPath: m_Materials.Array.data[0]
      value: 
      objectReference: {fileID: 2100000, guid: 621b5d7fd5bc58a45afb8d2f2046b8b0, type: 2}
    - target: {fileID: 5384465309971990403, guid: 72fbb5b154c324744be0ef0e5e825fdd,
        type: 3}
      propertyPath: m_Materials.Array.data[0]
      value: 
      objectReference: {fileID: 2100000, guid: 621b5d7fd5bc58a45afb8d2f2046b8b0, type: 2}
    - target: {fileID: 5435358546486924446, guid: 72fbb5b154c324744be0ef0e5e825fdd,
        type: 3}
      propertyPath: m_Materials.Array.data[0]
      value: 
      objectReference: {fileID: 2100000, guid: 621b5d7fd5bc58a45afb8d2f2046b8b0, type: 2}
    - target: {fileID: 5526601175111834035, guid: 72fbb5b154c324744be0ef0e5e825fdd,
        type: 3}
      propertyPath: m_Materials.Array.data[0]
      value: 
      objectReference: {fileID: 2100000, guid: 621b5d7fd5bc58a45afb8d2f2046b8b0, type: 2}
    - target: {fileID: 5770354661038106368, guid: 72fbb5b154c324744be0ef0e5e825fdd,
        type: 3}
      propertyPath: m_Materials.Array.data[0]
      value: 
      objectReference: {fileID: 2100000, guid: 621b5d7fd5bc58a45afb8d2f2046b8b0, type: 2}
    - target: {fileID: 6178182720723647251, guid: 72fbb5b154c324744be0ef0e5e825fdd,
        type: 3}
      propertyPath: m_Materials.Array.data[0]
      value: 
      objectReference: {fileID: 2100000, guid: 621b5d7fd5bc58a45afb8d2f2046b8b0, type: 2}
    - target: {fileID: 6329254974417959411, guid: 72fbb5b154c324744be0ef0e5e825fdd,
        type: 3}
      propertyPath: m_Materials.Array.data[0]
      value: 
      objectReference: {fileID: 2100000, guid: 621b5d7fd5bc58a45afb8d2f2046b8b0, type: 2}
    - target: {fileID: 7337582359545225717, guid: 72fbb5b154c324744be0ef0e5e825fdd,
        type: 3}
      propertyPath: m_Materials.Array.data[0]
      value: 
      objectReference: {fileID: 2100000, guid: 621b5d7fd5bc58a45afb8d2f2046b8b0, type: 2}
    - target: {fileID: 7379681734094458233, guid: 72fbb5b154c324744be0ef0e5e825fdd,
        type: 3}
      propertyPath: m_Materials.Array.data[0]
      value: 
      objectReference: {fileID: 2100000, guid: 621b5d7fd5bc58a45afb8d2f2046b8b0, type: 2}
    - target: {fileID: 7428438325734919548, guid: 72fbb5b154c324744be0ef0e5e825fdd,
        type: 3}
      propertyPath: m_Materials.Array.data[0]
      value: 
      objectReference: {fileID: 2100000, guid: 621b5d7fd5bc58a45afb8d2f2046b8b0, type: 2}
    - target: {fileID: 7435342625220585223, guid: 72fbb5b154c324744be0ef0e5e825fdd,
        type: 3}
      propertyPath: m_Materials.Array.data[0]
      value: 
      objectReference: {fileID: 2100000, guid: 621b5d7fd5bc58a45afb8d2f2046b8b0, type: 2}
    - target: {fileID: 7636804208196336000, guid: 72fbb5b154c324744be0ef0e5e825fdd,
        type: 3}
      propertyPath: m_Materials.Array.data[0]
      value: 
      objectReference: {fileID: 2100000, guid: 621b5d7fd5bc58a45afb8d2f2046b8b0, type: 2}
    - target: {fileID: 7792497602741112528, guid: 72fbb5b154c324744be0ef0e5e825fdd,
        type: 3}
      propertyPath: m_Materials.Array.data[0]
      value: 
      objectReference: {fileID: 2100000, guid: 621b5d7fd5bc58a45afb8d2f2046b8b0, type: 2}
    - target: {fileID: 8279575458568787610, guid: 72fbb5b154c324744be0ef0e5e825fdd,
        type: 3}
      propertyPath: m_Materials.Array.data[0]
      value: 
      objectReference: {fileID: 2100000, guid: 621b5d7fd5bc58a45afb8d2f2046b8b0, type: 2}
    - target: {fileID: 8397626615613097687, guid: 72fbb5b154c324744be0ef0e5e825fdd,
        type: 3}
      propertyPath: m_Materials.Array.data[0]
      value: 
      objectReference: {fileID: 2100000, guid: 621b5d7fd5bc58a45afb8d2f2046b8b0, type: 2}
    - target: {fileID: 8775617640833197049, guid: 72fbb5b154c324744be0ef0e5e825fdd,
        type: 3}
      propertyPath: m_Materials.Array.data[0]
      value: 
      objectReference: {fileID: 2100000, guid: 621b5d7fd5bc58a45afb8d2f2046b8b0, type: 2}
    - target: {fileID: 8992303576934920417, guid: 72fbb5b154c324744be0ef0e5e825fdd,
        type: 3}
      propertyPath: m_Materials.Array.data[0]
      value: 
      objectReference: {fileID: 2100000, guid: 621b5d7fd5bc58a45afb8d2f2046b8b0, type: 2}
    - target: {fileID: 9085787394026103742, guid: 72fbb5b154c324744be0ef0e5e825fdd,
        type: 3}
      propertyPath: m_Materials.Array.data[0]
      value: 
      objectReference: {fileID: 2100000, guid: 621b5d7fd5bc58a45afb8d2f2046b8b0, type: 2}
    - target: {fileID: 9187010737249194869, guid: 72fbb5b154c324744be0ef0e5e825fdd,
        type: 3}
      propertyPath: m_Materials.Array.data[0]
      value: 
      objectReference: {fileID: 2100000, guid: 621b5d7fd5bc58a45afb8d2f2046b8b0, type: 2}
    - target: {fileID: 9197088227113693672, guid: 72fbb5b154c324744be0ef0e5e825fdd,
        type: 3}
      propertyPath: m_Materials.Array.data[0]
      value: 
      objectReference: {fileID: 2100000, guid: 621b5d7fd5bc58a45afb8d2f2046b8b0, type: 2}
    m_RemovedComponents: []
  m_SourcePrefab: {fileID: 100100000, guid: 72fbb5b154c324744be0ef0e5e825fdd, type: 3}
--- !u!4 &7511407537188055116 stripped
Transform:
  m_CorrespondingSourceObject: {fileID: 3147320779238349813, guid: 72fbb5b154c324744be0ef0e5e825fdd,
    type: 3}
  m_PrefabInstance: {fileID: 4868504212574319545}
  m_PrefabAsset: {fileID: 0}
--- !u!1001 &8450863807813913526
PrefabInstance:
  m_ObjectHideFlags: 0
  serializedVersion: 2
  m_Modification:
    m_TransformParent: {fileID: 6723606377074798197}
    m_Modifications:
    - target: {fileID: 309749489370445828, guid: 48b0bbe51c66ada46896d7dd71b2ac99,
        type: 3}
      propertyPath: m_Materials.Array.data[0]
      value: 
      objectReference: {fileID: 2100000, guid: 621b5d7fd5bc58a45afb8d2f2046b8b0, type: 2}
    - target: {fileID: 610559028887996013, guid: 48b0bbe51c66ada46896d7dd71b2ac99,
        type: 3}
      propertyPath: m_Materials.Array.data[0]
      value: 
      objectReference: {fileID: 2100000, guid: 621b5d7fd5bc58a45afb8d2f2046b8b0, type: 2}
    - target: {fileID: 640195542763165623, guid: 48b0bbe51c66ada46896d7dd71b2ac99,
        type: 3}
      propertyPath: m_Materials.Array.data[0]
      value: 
      objectReference: {fileID: 2100000, guid: 621b5d7fd5bc58a45afb8d2f2046b8b0, type: 2}
    - target: {fileID: 795530819406546751, guid: 48b0bbe51c66ada46896d7dd71b2ac99,
        type: 3}
      propertyPath: m_Materials.Array.data[0]
      value: 
      objectReference: {fileID: 2100000, guid: 621b5d7fd5bc58a45afb8d2f2046b8b0, type: 2}
    - target: {fileID: 1090652499387603661, guid: 48b0bbe51c66ada46896d7dd71b2ac99,
        type: 3}
      propertyPath: m_Materials.Array.data[0]
      value: 
      objectReference: {fileID: 2100000, guid: 621b5d7fd5bc58a45afb8d2f2046b8b0, type: 2}
    - target: {fileID: 1402245367916460433, guid: 48b0bbe51c66ada46896d7dd71b2ac99,
        type: 3}
      propertyPath: m_Materials.Array.data[0]
      value: 
      objectReference: {fileID: 2100000, guid: 621b5d7fd5bc58a45afb8d2f2046b8b0, type: 2}
    - target: {fileID: 1561772282806063920, guid: 48b0bbe51c66ada46896d7dd71b2ac99,
        type: 3}
      propertyPath: m_Materials.Array.data[0]
      value: 
      objectReference: {fileID: 2100000, guid: 621b5d7fd5bc58a45afb8d2f2046b8b0, type: 2}
    - target: {fileID: 1790483394417160733, guid: 48b0bbe51c66ada46896d7dd71b2ac99,
        type: 3}
      propertyPath: m_Materials.Array.data[0]
      value: 
      objectReference: {fileID: 2100000, guid: 621b5d7fd5bc58a45afb8d2f2046b8b0, type: 2}
    - target: {fileID: 2609751273784972626, guid: 48b0bbe51c66ada46896d7dd71b2ac99,
        type: 3}
      propertyPath: m_Materials.Array.data[0]
      value: 
      objectReference: {fileID: 2100000, guid: 621b5d7fd5bc58a45afb8d2f2046b8b0, type: 2}
    - target: {fileID: 2792565872048012889, guid: 48b0bbe51c66ada46896d7dd71b2ac99,
        type: 3}
      propertyPath: m_Materials.Array.data[0]
      value: 
      objectReference: {fileID: 2100000, guid: 621b5d7fd5bc58a45afb8d2f2046b8b0, type: 2}
    - target: {fileID: 3162733294702787361, guid: 48b0bbe51c66ada46896d7dd71b2ac99,
        type: 3}
      propertyPath: m_Materials.Array.data[0]
      value: 
      objectReference: {fileID: 2100000, guid: 621b5d7fd5bc58a45afb8d2f2046b8b0, type: 2}
    - target: {fileID: 3918986475471382553, guid: 48b0bbe51c66ada46896d7dd71b2ac99,
        type: 3}
      propertyPath: m_Materials.Array.data[0]
      value: 
      objectReference: {fileID: 2100000, guid: 621b5d7fd5bc58a45afb8d2f2046b8b0, type: 2}
    - target: {fileID: 4214913644418140408, guid: 48b0bbe51c66ada46896d7dd71b2ac99,
        type: 3}
      propertyPath: m_Materials.Array.data[0]
      value: 
      objectReference: {fileID: 2100000, guid: 621b5d7fd5bc58a45afb8d2f2046b8b0, type: 2}
    - target: {fileID: 4331122686046747758, guid: 48b0bbe51c66ada46896d7dd71b2ac99,
        type: 3}
      propertyPath: m_Materials.Array.data[0]
      value: 
      objectReference: {fileID: 2100000, guid: 621b5d7fd5bc58a45afb8d2f2046b8b0, type: 2}
    - target: {fileID: 4450860150593664331, guid: 48b0bbe51c66ada46896d7dd71b2ac99,
        type: 3}
      propertyPath: m_Materials.Array.data[0]
      value: 
      objectReference: {fileID: 2100000, guid: 621b5d7fd5bc58a45afb8d2f2046b8b0, type: 2}
    - target: {fileID: 4515622165386482345, guid: 48b0bbe51c66ada46896d7dd71b2ac99,
        type: 3}
      propertyPath: m_Materials.Array.data[0]
      value: 
      objectReference: {fileID: 2100000, guid: 621b5d7fd5bc58a45afb8d2f2046b8b0, type: 2}
    - target: {fileID: 5082422256635174919, guid: 48b0bbe51c66ada46896d7dd71b2ac99,
        type: 3}
      propertyPath: m_Materials.Array.data[0]
      value: 
      objectReference: {fileID: 2100000, guid: 621b5d7fd5bc58a45afb8d2f2046b8b0, type: 2}
    - target: {fileID: 5177625690659456973, guid: 48b0bbe51c66ada46896d7dd71b2ac99,
        type: 3}
      propertyPath: m_Materials.Array.data[0]
      value: 
      objectReference: {fileID: 2100000, guid: 621b5d7fd5bc58a45afb8d2f2046b8b0, type: 2}
    - target: {fileID: 5300565834797337388, guid: 48b0bbe51c66ada46896d7dd71b2ac99,
        type: 3}
      propertyPath: m_Materials.Array.data[0]
      value: 
      objectReference: {fileID: 2100000, guid: 621b5d7fd5bc58a45afb8d2f2046b8b0, type: 2}
    - target: {fileID: 5343323769937092253, guid: 48b0bbe51c66ada46896d7dd71b2ac99,
        type: 3}
      propertyPath: m_Materials.Array.data[0]
      value: 
      objectReference: {fileID: 2100000, guid: 621b5d7fd5bc58a45afb8d2f2046b8b0, type: 2}
    - target: {fileID: 5669754969908043810, guid: 48b0bbe51c66ada46896d7dd71b2ac99,
        type: 3}
      propertyPath: m_Materials.Array.data[0]
      value: 
      objectReference: {fileID: 2100000, guid: 621b5d7fd5bc58a45afb8d2f2046b8b0, type: 2}
    - target: {fileID: 5855339886065013236, guid: 48b0bbe51c66ada46896d7dd71b2ac99,
        type: 3}
      propertyPath: m_Materials.Array.data[0]
      value: 
      objectReference: {fileID: 2100000, guid: 621b5d7fd5bc58a45afb8d2f2046b8b0, type: 2}
    - target: {fileID: 5929233493275191838, guid: 48b0bbe51c66ada46896d7dd71b2ac99,
        type: 3}
      propertyPath: m_Materials.Array.data[0]
      value: 
      objectReference: {fileID: 2100000, guid: 621b5d7fd5bc58a45afb8d2f2046b8b0, type: 2}
    - target: {fileID: 5935399365888184272, guid: 48b0bbe51c66ada46896d7dd71b2ac99,
        type: 3}
      propertyPath: m_Materials.Array.data[0]
      value: 
      objectReference: {fileID: 2100000, guid: 621b5d7fd5bc58a45afb8d2f2046b8b0, type: 2}
    - target: {fileID: 6409087736991002130, guid: 48b0bbe51c66ada46896d7dd71b2ac99,
        type: 3}
      propertyPath: m_Materials.Array.data[0]
      value: 
      objectReference: {fileID: 2100000, guid: 621b5d7fd5bc58a45afb8d2f2046b8b0, type: 2}
    - target: {fileID: 6545673046215755815, guid: 48b0bbe51c66ada46896d7dd71b2ac99,
        type: 3}
      propertyPath: m_Materials.Array.data[0]
      value: 
      objectReference: {fileID: 2100000, guid: 621b5d7fd5bc58a45afb8d2f2046b8b0, type: 2}
    - target: {fileID: 6599790906360066472, guid: 48b0bbe51c66ada46896d7dd71b2ac99,
        type: 3}
      propertyPath: m_Materials.Array.data[0]
      value: 
      objectReference: {fileID: 2100000, guid: 621b5d7fd5bc58a45afb8d2f2046b8b0, type: 2}
    - target: {fileID: 6673434801703294034, guid: 48b0bbe51c66ada46896d7dd71b2ac99,
        type: 3}
      propertyPath: m_Materials.Array.data[0]
      value: 
      objectReference: {fileID: 2100000, guid: 621b5d7fd5bc58a45afb8d2f2046b8b0, type: 2}
    - target: {fileID: 6744076889445733277, guid: 48b0bbe51c66ada46896d7dd71b2ac99,
        type: 3}
      propertyPath: m_LocalPosition.x
      value: 0
      objectReference: {fileID: 0}
    - target: {fileID: 6744076889445733277, guid: 48b0bbe51c66ada46896d7dd71b2ac99,
        type: 3}
      propertyPath: m_LocalPosition.y
      value: 8
      objectReference: {fileID: 0}
    - target: {fileID: 6744076889445733277, guid: 48b0bbe51c66ada46896d7dd71b2ac99,
        type: 3}
      propertyPath: m_LocalPosition.z
      value: 0
      objectReference: {fileID: 0}
    - target: {fileID: 6744076889445733277, guid: 48b0bbe51c66ada46896d7dd71b2ac99,
        type: 3}
      propertyPath: m_LocalRotation.x
      value: 0
      objectReference: {fileID: 0}
    - target: {fileID: 6744076889445733277, guid: 48b0bbe51c66ada46896d7dd71b2ac99,
        type: 3}
      propertyPath: m_LocalRotation.y
      value: 0
      objectReference: {fileID: 0}
    - target: {fileID: 6744076889445733277, guid: 48b0bbe51c66ada46896d7dd71b2ac99,
        type: 3}
      propertyPath: m_LocalRotation.z
      value: 0
      objectReference: {fileID: 0}
    - target: {fileID: 6744076889445733277, guid: 48b0bbe51c66ada46896d7dd71b2ac99,
        type: 3}
      propertyPath: m_LocalRotation.w
      value: 1
      objectReference: {fileID: 0}
    - target: {fileID: 6744076889445733277, guid: 48b0bbe51c66ada46896d7dd71b2ac99,
        type: 3}
      propertyPath: m_RootOrder
      value: 4
      objectReference: {fileID: 0}
    - target: {fileID: 6744076889445733277, guid: 48b0bbe51c66ada46896d7dd71b2ac99,
        type: 3}
      propertyPath: m_LocalEulerAnglesHint.x
      value: 0
      objectReference: {fileID: 0}
    - target: {fileID: 6744076889445733277, guid: 48b0bbe51c66ada46896d7dd71b2ac99,
        type: 3}
      propertyPath: m_LocalEulerAnglesHint.y
      value: 0
      objectReference: {fileID: 0}
    - target: {fileID: 6744076889445733277, guid: 48b0bbe51c66ada46896d7dd71b2ac99,
        type: 3}
      propertyPath: m_LocalEulerAnglesHint.z
      value: 0
      objectReference: {fileID: 0}
    - target: {fileID: 6760745886826262854, guid: 48b0bbe51c66ada46896d7dd71b2ac99,
        type: 3}
      propertyPath: m_Materials.Array.data[0]
      value: 
      objectReference: {fileID: 2100000, guid: 621b5d7fd5bc58a45afb8d2f2046b8b0, type: 2}
    - target: {fileID: 7035556749990648395, guid: 48b0bbe51c66ada46896d7dd71b2ac99,
        type: 3}
      propertyPath: m_Materials.Array.data[0]
      value: 
      objectReference: {fileID: 2100000, guid: 621b5d7fd5bc58a45afb8d2f2046b8b0, type: 2}
    - target: {fileID: 7480792549081256136, guid: 48b0bbe51c66ada46896d7dd71b2ac99,
        type: 3}
      propertyPath: m_Materials.Array.data[0]
      value: 
      objectReference: {fileID: 2100000, guid: 621b5d7fd5bc58a45afb8d2f2046b8b0, type: 2}
    - target: {fileID: 7562861936868286751, guid: 48b0bbe51c66ada46896d7dd71b2ac99,
        type: 3}
      propertyPath: m_Materials.Array.data[0]
      value: 
      objectReference: {fileID: 2100000, guid: 621b5d7fd5bc58a45afb8d2f2046b8b0, type: 2}
    - target: {fileID: 7597225502338950099, guid: 48b0bbe51c66ada46896d7dd71b2ac99,
        type: 3}
      propertyPath: m_Materials.Array.data[0]
      value: 
      objectReference: {fileID: 2100000, guid: 621b5d7fd5bc58a45afb8d2f2046b8b0, type: 2}
    - target: {fileID: 7767759292912066958, guid: 48b0bbe51c66ada46896d7dd71b2ac99,
        type: 3}
      propertyPath: m_Name
      value: EA_Middle_Floor_Clean_Hollow_Violet_08_PRE
      objectReference: {fileID: 0}
    - target: {fileID: 7813550626263964199, guid: 48b0bbe51c66ada46896d7dd71b2ac99,
        type: 3}
      propertyPath: m_Materials.Array.data[0]
      value: 
      objectReference: {fileID: 2100000, guid: 621b5d7fd5bc58a45afb8d2f2046b8b0, type: 2}
    - target: {fileID: 7864452786501497642, guid: 48b0bbe51c66ada46896d7dd71b2ac99,
        type: 3}
      propertyPath: m_Materials.Array.data[0]
      value: 
      objectReference: {fileID: 2100000, guid: 621b5d7fd5bc58a45afb8d2f2046b8b0, type: 2}
    - target: {fileID: 8258054921063297086, guid: 48b0bbe51c66ada46896d7dd71b2ac99,
        type: 3}
      propertyPath: m_Materials.Array.data[0]
      value: 
      objectReference: {fileID: 2100000, guid: 621b5d7fd5bc58a45afb8d2f2046b8b0, type: 2}
    - target: {fileID: 8386297693490349942, guid: 48b0bbe51c66ada46896d7dd71b2ac99,
        type: 3}
      propertyPath: m_Materials.Array.data[0]
      value: 
      objectReference: {fileID: 2100000, guid: 621b5d7fd5bc58a45afb8d2f2046b8b0, type: 2}
    - target: {fileID: 8516127538827023162, guid: 48b0bbe51c66ada46896d7dd71b2ac99,
        type: 3}
      propertyPath: m_Materials.Array.data[0]
      value: 
      objectReference: {fileID: 2100000, guid: 621b5d7fd5bc58a45afb8d2f2046b8b0, type: 2}
    - target: {fileID: 9001213867453463614, guid: 48b0bbe51c66ada46896d7dd71b2ac99,
        type: 3}
      propertyPath: m_Materials.Array.data[0]
      value: 
      objectReference: {fileID: 2100000, guid: 621b5d7fd5bc58a45afb8d2f2046b8b0, type: 2}
    m_RemovedComponents: []
  m_SourcePrefab: {fileID: 100100000, guid: 48b0bbe51c66ada46896d7dd71b2ac99, type: 3}
--- !u!4 &2941054966122518571 stripped
Transform:
  m_CorrespondingSourceObject: {fileID: 6744076889445733277, guid: 48b0bbe51c66ada46896d7dd71b2ac99,
    type: 3}
  m_PrefabInstance: {fileID: 8450863807813913526}
  m_PrefabAsset: {fileID: 0}
