%YAML 1.1
%TAG !u! tag:unity3d.com,2011:
--- !u!1 &6829566003927913077
GameObject:
  m_ObjectHideFlags: 0
  m_CorrespondingSourceObject: {fileID: 0}
  m_PrefabInstance: {fileID: 0}
  m_PrefabAsset: {fileID: 0}
  serializedVersion: 6
  m_Component:
  - component: {fileID: 2237010147972601746}
  m_Layer: 0
  m_Name: Orange_House_Tower_Comp_Convex_02d_PRE
  m_TagString: Untagged
  m_Icon: {fileID: 0}
  m_NavMeshLayer: 0
  m_StaticEditorFlags: 0
  m_IsActive: 1
--- !u!4 &2237010147972601746
Transform:
  m_ObjectHideFlags: 0
  m_CorrespondingSourceObject: {fileID: 0}
  m_PrefabInstance: {fileID: 0}
  m_PrefabAsset: {fileID: 0}
  m_GameObject: {fileID: 6829566003927913077}
  m_LocalRotation: {x: 0, y: 0, z: 0, w: 1}
  m_LocalPosition: {x: 0, y: 0, z: 0}
  m_LocalScale: {x: 1, y: 1, z: 1}
  m_Children:
  - {fileID: 1357170626126442465}
  - {fileID: 3060646588969439659}
  - {fileID: 3060646589330539921}
  - {fileID: 162382233510015325}
  - {fileID: 5168046556037604347}
  - {fileID: 6827938479152146916}
  - {fileID: 2501904394464019869}
  m_Father: {fileID: 0}
  m_RootOrder: 0
  m_LocalEulerAnglesHint: {x: 0, y: 0, z: 0}
--- !u!1001 &131763590500296910
PrefabInstance:
  m_ObjectHideFlags: 0
  serializedVersion: 2
  m_Modification:
    m_TransformParent: {fileID: 2237010147972601746}
    m_Modifications:
    - target: {fileID: 1369583809842235183, guid: 87728e97eae32ca4da135cb04ac5e9f7,
        type: 3}
      propertyPath: m_LocalPosition.x
      value: -0.032814026
      objectReference: {fileID: 0}
    - target: {fileID: 1369583809842235183, guid: 87728e97eae32ca4da135cb04ac5e9f7,
        type: 3}
      propertyPath: m_LocalPosition.y
      value: 0.012336731
      objectReference: {fileID: 0}
    - target: {fileID: 1369583809842235183, guid: 87728e97eae32ca4da135cb04ac5e9f7,
        type: 3}
      propertyPath: m_LocalPosition.z
      value: 0
      objectReference: {fileID: 0}
    - target: {fileID: 1369583809842235183, guid: 87728e97eae32ca4da135cb04ac5e9f7,
        type: 3}
      propertyPath: m_LocalRotation.x
      value: -0
      objectReference: {fileID: 0}
    - target: {fileID: 1369583809842235183, guid: 87728e97eae32ca4da135cb04ac5e9f7,
        type: 3}
      propertyPath: m_LocalRotation.y
      value: -0
      objectReference: {fileID: 0}
    - target: {fileID: 1369583809842235183, guid: 87728e97eae32ca4da135cb04ac5e9f7,
        type: 3}
      propertyPath: m_LocalRotation.z
      value: -0
      objectReference: {fileID: 0}
    - target: {fileID: 1369583809842235183, guid: 87728e97eae32ca4da135cb04ac5e9f7,
        type: 3}
      propertyPath: m_LocalRotation.w
      value: 1
      objectReference: {fileID: 0}
    - target: {fileID: 1369583809842235183, guid: 87728e97eae32ca4da135cb04ac5e9f7,
        type: 3}
      propertyPath: m_RootOrder
      value: 0
      objectReference: {fileID: 0}
    - target: {fileID: 1369583809842235183, guid: 87728e97eae32ca4da135cb04ac5e9f7,
        type: 3}
      propertyPath: m_LocalEulerAnglesHint.x
      value: 0
      objectReference: {fileID: 0}
    - target: {fileID: 1369583809842235183, guid: 87728e97eae32ca4da135cb04ac5e9f7,
        type: 3}
      propertyPath: m_LocalEulerAnglesHint.y
      value: 0
      objectReference: {fileID: 0}
    - target: {fileID: 1369583809842235183, guid: 87728e97eae32ca4da135cb04ac5e9f7,
        type: 3}
      propertyPath: m_LocalEulerAnglesHint.z
      value: 0
      objectReference: {fileID: 0}
    - target: {fileID: 2691715442796606780, guid: 87728e97eae32ca4da135cb04ac5e9f7,
        type: 3}
      propertyPath: m_Name
      value: EA_Ground_Floor_Dirt_Convex_Orange_01b_PRE
      objectReference: {fileID: 0}
    m_RemovedComponents: []
  m_SourcePrefab: {fileID: 100100000, guid: 87728e97eae32ca4da135cb04ac5e9f7, type: 3}
--- !u!4 &1357170626126442465 stripped
Transform:
  m_CorrespondingSourceObject: {fileID: 1369583809842235183, guid: 87728e97eae32ca4da135cb04ac5e9f7,
    type: 3}
  m_PrefabInstance: {fileID: 131763590500296910}
  m_PrefabAsset: {fileID: 0}
--- !u!1001 &131763590636882526
PrefabInstance:
  m_ObjectHideFlags: 0
  serializedVersion: 2
  m_Modification:
    m_TransformParent: {fileID: 2237010147972601746}
    m_Modifications:
    - target: {fileID: 2159157481838995942, guid: 72fbb5b154c324744be0ef0e5e825fdd,
        type: 3}
      propertyPath: m_Name
      value: EA_Clean_Middle_Floor_Convex_Orange_01_PRE (5)
      objectReference: {fileID: 0}
    - target: {fileID: 3147320779238349813, guid: 72fbb5b154c324744be0ef0e5e825fdd,
        type: 3}
      propertyPath: m_LocalPosition.x
      value: -0.032814026
      objectReference: {fileID: 0}
    - target: {fileID: 3147320779238349813, guid: 72fbb5b154c324744be0ef0e5e825fdd,
        type: 3}
      propertyPath: m_LocalPosition.y
      value: 20.02
      objectReference: {fileID: 0}
    - target: {fileID: 3147320779238349813, guid: 72fbb5b154c324744be0ef0e5e825fdd,
        type: 3}
      propertyPath: m_LocalPosition.z
      value: 0
      objectReference: {fileID: 0}
    - target: {fileID: 3147320779238349813, guid: 72fbb5b154c324744be0ef0e5e825fdd,
        type: 3}
      propertyPath: m_LocalRotation.x
      value: -0
      objectReference: {fileID: 0}
    - target: {fileID: 3147320779238349813, guid: 72fbb5b154c324744be0ef0e5e825fdd,
        type: 3}
      propertyPath: m_LocalRotation.y
      value: -0
      objectReference: {fileID: 0}
    - target: {fileID: 3147320779238349813, guid: 72fbb5b154c324744be0ef0e5e825fdd,
        type: 3}
      propertyPath: m_LocalRotation.z
      value: -0
      objectReference: {fileID: 0}
    - target: {fileID: 3147320779238349813, guid: 72fbb5b154c324744be0ef0e5e825fdd,
        type: 3}
      propertyPath: m_LocalRotation.w
      value: 1
      objectReference: {fileID: 0}
    - target: {fileID: 3147320779238349813, guid: 72fbb5b154c324744be0ef0e5e825fdd,
        type: 3}
      propertyPath: m_RootOrder
      value: 1
      objectReference: {fileID: 0}
    - target: {fileID: 3147320779238349813, guid: 72fbb5b154c324744be0ef0e5e825fdd,
        type: 3}
      propertyPath: m_LocalEulerAnglesHint.x
      value: 0
      objectReference: {fileID: 0}
    - target: {fileID: 3147320779238349813, guid: 72fbb5b154c324744be0ef0e5e825fdd,
        type: 3}
      propertyPath: m_LocalEulerAnglesHint.y
      value: 0
      objectReference: {fileID: 0}
    - target: {fileID: 3147320779238349813, guid: 72fbb5b154c324744be0ef0e5e825fdd,
        type: 3}
      propertyPath: m_LocalEulerAnglesHint.z
      value: 0
      objectReference: {fileID: 0}
    m_RemovedComponents: []
  m_SourcePrefab: {fileID: 100100000, guid: 72fbb5b154c324744be0ef0e5e825fdd, type: 3}
--- !u!4 &3060646588969439659 stripped
Transform:
  m_CorrespondingSourceObject: {fileID: 3147320779238349813, guid: 72fbb5b154c324744be0ef0e5e825fdd,
    type: 3}
  m_PrefabInstance: {fileID: 131763590636882526}
  m_PrefabAsset: {fileID: 0}
--- !u!1001 &131763591014243940
PrefabInstance:
  m_ObjectHideFlags: 0
  serializedVersion: 2
  m_Modification:
    m_TransformParent: {fileID: 2237010147972601746}
    m_Modifications:
    - target: {fileID: 2159157481838995942, guid: 72fbb5b154c324744be0ef0e5e825fdd,
        type: 3}
      propertyPath: m_Name
      value: EA_Clean_Middle_Floor_Convex_Orange_01_PRE (4)
      objectReference: {fileID: 0}
    - target: {fileID: 3147320779238349813, guid: 72fbb5b154c324744be0ef0e5e825fdd,
        type: 3}
      propertyPath: m_LocalPosition.x
      value: -0.032814026
      objectReference: {fileID: 0}
    - target: {fileID: 3147320779238349813, guid: 72fbb5b154c324744be0ef0e5e825fdd,
        type: 3}
      propertyPath: m_LocalPosition.y
      value: 4.016548
      objectReference: {fileID: 0}
    - target: {fileID: 3147320779238349813, guid: 72fbb5b154c324744be0ef0e5e825fdd,
        type: 3}
      propertyPath: m_LocalPosition.z
      value: 0
      objectReference: {fileID: 0}
    - target: {fileID: 3147320779238349813, guid: 72fbb5b154c324744be0ef0e5e825fdd,
        type: 3}
      propertyPath: m_LocalRotation.x
      value: -0
      objectReference: {fileID: 0}
    - target: {fileID: 3147320779238349813, guid: 72fbb5b154c324744be0ef0e5e825fdd,
        type: 3}
      propertyPath: m_LocalRotation.y
      value: -0
      objectReference: {fileID: 0}
    - target: {fileID: 3147320779238349813, guid: 72fbb5b154c324744be0ef0e5e825fdd,
        type: 3}
      propertyPath: m_LocalRotation.z
      value: -0
      objectReference: {fileID: 0}
    - target: {fileID: 3147320779238349813, guid: 72fbb5b154c324744be0ef0e5e825fdd,
        type: 3}
      propertyPath: m_LocalRotation.w
      value: 1
      objectReference: {fileID: 0}
    - target: {fileID: 3147320779238349813, guid: 72fbb5b154c324744be0ef0e5e825fdd,
        type: 3}
      propertyPath: m_RootOrder
      value: 2
      objectReference: {fileID: 0}
    - target: {fileID: 3147320779238349813, guid: 72fbb5b154c324744be0ef0e5e825fdd,
        type: 3}
      propertyPath: m_LocalEulerAnglesHint.x
      value: 0
      objectReference: {fileID: 0}
    - target: {fileID: 3147320779238349813, guid: 72fbb5b154c324744be0ef0e5e825fdd,
        type: 3}
      propertyPath: m_LocalEulerAnglesHint.y
      value: 0
      objectReference: {fileID: 0}
    - target: {fileID: 3147320779238349813, guid: 72fbb5b154c324744be0ef0e5e825fdd,
        type: 3}
      propertyPath: m_LocalEulerAnglesHint.z
      value: 0
      objectReference: {fileID: 0}
    m_RemovedComponents: []
  m_SourcePrefab: {fileID: 100100000, guid: 72fbb5b154c324744be0ef0e5e825fdd, type: 3}
--- !u!4 &3060646589330539921 stripped
Transform:
  m_CorrespondingSourceObject: {fileID: 3147320779238349813, guid: 72fbb5b154c324744be0ef0e5e825fdd,
    type: 3}
  m_PrefabInstance: {fileID: 131763591014243940}
  m_PrefabAsset: {fileID: 0}
--- !u!1001 &131763591344756559
PrefabInstance:
  m_ObjectHideFlags: 0
  serializedVersion: 2
  m_Modification:
    m_TransformParent: {fileID: 2237010147972601746}
    m_Modifications:
    - target: {fileID: 258107666950120978, guid: abdee40434e8f2d4ea906b878a94138e,
        type: 3}
      propertyPath: m_LocalPosition.x
      value: -0.032814026
      objectReference: {fileID: 0}
    - target: {fileID: 258107666950120978, guid: abdee40434e8f2d4ea906b878a94138e,
        type: 3}
      propertyPath: m_LocalPosition.y
      value: 24.02
      objectReference: {fileID: 0}
    - target: {fileID: 258107666950120978, guid: abdee40434e8f2d4ea906b878a94138e,
        type: 3}
      propertyPath: m_LocalPosition.z
      value: 0
      objectReference: {fileID: 0}
    - target: {fileID: 258107666950120978, guid: abdee40434e8f2d4ea906b878a94138e,
        type: 3}
      propertyPath: m_LocalRotation.x
      value: -0
      objectReference: {fileID: 0}
    - target: {fileID: 258107666950120978, guid: abdee40434e8f2d4ea906b878a94138e,
        type: 3}
      propertyPath: m_LocalRotation.y
      value: -0
      objectReference: {fileID: 0}
    - target: {fileID: 258107666950120978, guid: abdee40434e8f2d4ea906b878a94138e,
        type: 3}
      propertyPath: m_LocalRotation.z
      value: -0
      objectReference: {fileID: 0}
    - target: {fileID: 258107666950120978, guid: abdee40434e8f2d4ea906b878a94138e,
        type: 3}
      propertyPath: m_LocalRotation.w
      value: 1
      objectReference: {fileID: 0}
    - target: {fileID: 258107666950120978, guid: abdee40434e8f2d4ea906b878a94138e,
        type: 3}
      propertyPath: m_RootOrder
      value: 3
      objectReference: {fileID: 0}
    - target: {fileID: 258107666950120978, guid: abdee40434e8f2d4ea906b878a94138e,
        type: 3}
      propertyPath: m_LocalEulerAnglesHint.x
      value: 0
      objectReference: {fileID: 0}
    - target: {fileID: 258107666950120978, guid: abdee40434e8f2d4ea906b878a94138e,
        type: 3}
      propertyPath: m_LocalEulerAnglesHint.y
      value: 0
      objectReference: {fileID: 0}
    - target: {fileID: 258107666950120978, guid: abdee40434e8f2d4ea906b878a94138e,
        type: 3}
      propertyPath: m_LocalEulerAnglesHint.z
      value: 0
      objectReference: {fileID: 0}
    - target: {fileID: 628902635131597505, guid: abdee40434e8f2d4ea906b878a94138e,
        type: 3}
      propertyPath: m_Materials.Array.data[0]
      value: 
      objectReference: {fileID: 2100000, guid: cb869fa31a738f149aae46a442042453, type: 2}
    - target: {fileID: 650091869965422542, guid: abdee40434e8f2d4ea906b878a94138e,
        type: 3}
      propertyPath: m_Materials.Array.data[0]
      value: 
      objectReference: {fileID: 2100000, guid: cb869fa31a738f149aae46a442042453, type: 2}
    - target: {fileID: 1254215543951655424, guid: abdee40434e8f2d4ea906b878a94138e,
        type: 3}
      propertyPath: m_Materials.Array.data[0]
      value: 
      objectReference: {fileID: 2100000, guid: cb869fa31a738f149aae46a442042453, type: 2}
    - target: {fileID: 1337000107394450772, guid: abdee40434e8f2d4ea906b878a94138e,
        type: 3}
      propertyPath: m_Materials.Array.data[0]
      value: 
      objectReference: {fileID: 2100000, guid: cb869fa31a738f149aae46a442042453, type: 2}
    - target: {fileID: 1429340163798690157, guid: abdee40434e8f2d4ea906b878a94138e,
        type: 3}
      propertyPath: m_Materials.Array.data[0]
      value: 
      objectReference: {fileID: 2100000, guid: cb869fa31a738f149aae46a442042453, type: 2}
    - target: {fileID: 3051650664307765624, guid: abdee40434e8f2d4ea906b878a94138e,
        type: 3}
      propertyPath: m_Materials.Array.data[0]
      value: 
      objectReference: {fileID: 2100000, guid: cb869fa31a738f149aae46a442042453, type: 2}
    - target: {fileID: 3224479838673580937, guid: abdee40434e8f2d4ea906b878a94138e,
        type: 3}
      propertyPath: m_Materials.Array.data[0]
      value: 
      objectReference: {fileID: 2100000, guid: cb869fa31a738f149aae46a442042453, type: 2}
    - target: {fileID: 3862352149355784358, guid: abdee40434e8f2d4ea906b878a94138e,
        type: 3}
      propertyPath: m_Materials.Array.data[0]
      value: 
      objectReference: {fileID: 2100000, guid: cb869fa31a738f149aae46a442042453, type: 2}
    - target: {fileID: 3877496298027029505, guid: abdee40434e8f2d4ea906b878a94138e,
        type: 3}
      propertyPath: m_Name
      value: EA_Roof_Wide_Brick_06_PRE (1)
      objectReference: {fileID: 0}
    - target: {fileID: 3903132908268454074, guid: abdee40434e8f2d4ea906b878a94138e,
        type: 3}
      propertyPath: m_Materials.Array.data[0]
      value: 
      objectReference: {fileID: 2100000, guid: cb869fa31a738f149aae46a442042453, type: 2}
    - target: {fileID: 4701345349698550306, guid: abdee40434e8f2d4ea906b878a94138e,
        type: 3}
      propertyPath: m_Materials.Array.data[0]
      value: 
      objectReference: {fileID: 2100000, guid: cb869fa31a738f149aae46a442042453, type: 2}
    - target: {fileID: 4882448217507101190, guid: abdee40434e8f2d4ea906b878a94138e,
        type: 3}
      propertyPath: m_Materials.Array.data[0]
      value: 
      objectReference: {fileID: 2100000, guid: cb869fa31a738f149aae46a442042453, type: 2}
    - target: {fileID: 5107499960365765532, guid: abdee40434e8f2d4ea906b878a94138e,
        type: 3}
      propertyPath: m_Materials.Array.data[0]
      value: 
      objectReference: {fileID: 2100000, guid: cb869fa31a738f149aae46a442042453, type: 2}
    - target: {fileID: 5439804618753816672, guid: abdee40434e8f2d4ea906b878a94138e,
        type: 3}
      propertyPath: m_Materials.Array.data[0]
      value: 
      objectReference: {fileID: 2100000, guid: cb869fa31a738f149aae46a442042453, type: 2}
    - target: {fileID: 5479832596849281728, guid: abdee40434e8f2d4ea906b878a94138e,
        type: 3}
      propertyPath: m_Materials.Array.data[0]
      value: 
      objectReference: {fileID: 2100000, guid: cb869fa31a738f149aae46a442042453, type: 2}
    - target: {fileID: 5656713835971605555, guid: abdee40434e8f2d4ea906b878a94138e,
        type: 3}
      propertyPath: m_Materials.Array.data[0]
      value: 
      objectReference: {fileID: 2100000, guid: cb869fa31a738f149aae46a442042453, type: 2}
    - target: {fileID: 5683404734212210827, guid: abdee40434e8f2d4ea906b878a94138e,
        type: 3}
      propertyPath: m_Materials.Array.data[0]
      value: 
      objectReference: {fileID: 2100000, guid: cb869fa31a738f149aae46a442042453, type: 2}
    - target: {fileID: 5746613146524712996, guid: abdee40434e8f2d4ea906b878a94138e,
        type: 3}
      propertyPath: m_Materials.Array.data[0]
      value: 
      objectReference: {fileID: 2100000, guid: cb869fa31a738f149aae46a442042453, type: 2}
    - target: {fileID: 6959353461766125027, guid: abdee40434e8f2d4ea906b878a94138e,
        type: 3}
      propertyPath: m_Materials.Array.data[0]
      value: 
      objectReference: {fileID: 2100000, guid: cb869fa31a738f149aae46a442042453, type: 2}
    - target: {fileID: 7114850264473414176, guid: abdee40434e8f2d4ea906b878a94138e,
        type: 3}
      propertyPath: m_Materials.Array.data[0]
      value: 
      objectReference: {fileID: 2100000, guid: cb869fa31a738f149aae46a442042453, type: 2}
    - target: {fileID: 7295052778957952900, guid: abdee40434e8f2d4ea906b878a94138e,
        type: 3}
      propertyPath: m_Materials.Array.data[0]
      value: 
      objectReference: {fileID: 2100000, guid: cb869fa31a738f149aae46a442042453, type: 2}
    - target: {fileID: 7606065257217033672, guid: abdee40434e8f2d4ea906b878a94138e,
        type: 3}
      propertyPath: m_Materials.Array.data[0]
      value: 
      objectReference: {fileID: 2100000, guid: cb869fa31a738f149aae46a442042453, type: 2}
    - target: {fileID: 7763804268205289499, guid: abdee40434e8f2d4ea906b878a94138e,
        type: 3}
      propertyPath: m_Materials.Array.data[0]
      value: 
      objectReference: {fileID: 2100000, guid: cb869fa31a738f149aae46a442042453, type: 2}
    - target: {fileID: 8087527265544636194, guid: abdee40434e8f2d4ea906b878a94138e,
        type: 3}
      propertyPath: m_Materials.Array.data[0]
      value: 
      objectReference: {fileID: 2100000, guid: cb869fa31a738f149aae46a442042453, type: 2}
    - target: {fileID: 8328185249900397632, guid: abdee40434e8f2d4ea906b878a94138e,
        type: 3}
      propertyPath: m_Materials.Array.data[0]
      value: 
      objectReference: {fileID: 2100000, guid: cb869fa31a738f149aae46a442042453, type: 2}
    - target: {fileID: 8460957238853128164, guid: abdee40434e8f2d4ea906b878a94138e,
        type: 3}
      propertyPath: m_Materials.Array.data[0]
      value: 
      objectReference: {fileID: 2100000, guid: cb869fa31a738f149aae46a442042453, type: 2}
    - target: {fileID: 8706279652812907632, guid: abdee40434e8f2d4ea906b878a94138e,
        type: 3}
      propertyPath: m_Materials.Array.data[0]
      value: 
      objectReference: {fileID: 2100000, guid: cb869fa31a738f149aae46a442042453, type: 2}
    - target: {fileID: 8723302207910037261, guid: abdee40434e8f2d4ea906b878a94138e,
        type: 3}
      propertyPath: m_Materials.Array.data[0]
      value: 
      objectReference: {fileID: 2100000, guid: cb869fa31a738f149aae46a442042453, type: 2}
    m_RemovedComponents: []
  m_SourcePrefab: {fileID: 100100000, guid: abdee40434e8f2d4ea906b878a94138e, type: 3}
--- !u!4 &162382233510015325 stripped
Transform:
  m_CorrespondingSourceObject: {fileID: 258107666950120978, guid: abdee40434e8f2d4ea906b878a94138e,
    type: 3}
  m_PrefabInstance: {fileID: 131763591344756559}
  m_PrefabAsset: {fileID: 0}
--- !u!1001 &1468762296248708805
PrefabInstance:
  m_ObjectHideFlags: 0
  serializedVersion: 2
  m_Modification:
    m_TransformParent: {fileID: 2237010147972601746}
    m_Modifications:
    - target: {fileID: 5378320879412414241, guid: 3435f0fc518622d4bb4233b8bd422c44,
        type: 3}
      propertyPath: m_LocalPosition.x
      value: -0.032814026
      objectReference: {fileID: 0}
    - target: {fileID: 5378320879412414241, guid: 3435f0fc518622d4bb4233b8bd422c44,
        type: 3}
      propertyPath: m_LocalPosition.y
      value: 16.02
      objectReference: {fileID: 0}
    - target: {fileID: 5378320879412414241, guid: 3435f0fc518622d4bb4233b8bd422c44,
        type: 3}
      propertyPath: m_LocalPosition.z
      value: 0
      objectReference: {fileID: 0}
    - target: {fileID: 5378320879412414241, guid: 3435f0fc518622d4bb4233b8bd422c44,
        type: 3}
      propertyPath: m_LocalRotation.x
      value: -0
      objectReference: {fileID: 0}
    - target: {fileID: 5378320879412414241, guid: 3435f0fc518622d4bb4233b8bd422c44,
        type: 3}
      propertyPath: m_LocalRotation.y
      value: -0
      objectReference: {fileID: 0}
    - target: {fileID: 5378320879412414241, guid: 3435f0fc518622d4bb4233b8bd422c44,
        type: 3}
      propertyPath: m_LocalRotation.z
      value: -0
      objectReference: {fileID: 0}
    - target: {fileID: 5378320879412414241, guid: 3435f0fc518622d4bb4233b8bd422c44,
        type: 3}
      propertyPath: m_LocalRotation.w
      value: 1
      objectReference: {fileID: 0}
    - target: {fileID: 5378320879412414241, guid: 3435f0fc518622d4bb4233b8bd422c44,
        type: 3}
      propertyPath: m_RootOrder
      value: 5
      objectReference: {fileID: 0}
    - target: {fileID: 5378320879412414241, guid: 3435f0fc518622d4bb4233b8bd422c44,
        type: 3}
      propertyPath: m_LocalEulerAnglesHint.x
      value: 0
      objectReference: {fileID: 0}
    - target: {fileID: 5378320879412414241, guid: 3435f0fc518622d4bb4233b8bd422c44,
        type: 3}
      propertyPath: m_LocalEulerAnglesHint.y
      value: 0
      objectReference: {fileID: 0}
    - target: {fileID: 5378320879412414241, guid: 3435f0fc518622d4bb4233b8bd422c44,
        type: 3}
      propertyPath: m_LocalEulerAnglesHint.z
      value: 0
      objectReference: {fileID: 0}
    - target: {fileID: 9005223985572967730, guid: 3435f0fc518622d4bb4233b8bd422c44,
        type: 3}
      propertyPath: m_Name
      value: EA_Middle_Floor_Clean_Hollow_Orange_05_PRE
      objectReference: {fileID: 0}
    m_RemovedComponents: []
  m_SourcePrefab: {fileID: 100100000, guid: 3435f0fc518622d4bb4233b8bd422c44, type: 3}
--- !u!4 &6827938479152146916 stripped
Transform:
  m_CorrespondingSourceObject: {fileID: 5378320879412414241, guid: 3435f0fc518622d4bb4233b8bd422c44,
    type: 3}
  m_PrefabInstance: {fileID: 1468762296248708805}
  m_PrefabAsset: {fileID: 0}
--- !u!1001 &7501640811725308604
PrefabInstance:
  m_ObjectHideFlags: 0
  serializedVersion: 2
  m_Modification:
    m_TransformParent: {fileID: 2237010147972601746}
    m_Modifications:
    - target: {fileID: 5378320879412414241, guid: 3435f0fc518622d4bb4233b8bd422c44,
        type: 3}
      propertyPath: m_LocalPosition.x
      value: -0.032814026
      objectReference: {fileID: 0}
    - target: {fileID: 5378320879412414241, guid: 3435f0fc518622d4bb4233b8bd422c44,
        type: 3}
      propertyPath: m_LocalPosition.y
      value: 8.02
      objectReference: {fileID: 0}
    - target: {fileID: 5378320879412414241, guid: 3435f0fc518622d4bb4233b8bd422c44,
        type: 3}
      propertyPath: m_LocalPosition.z
      value: 0
      objectReference: {fileID: 0}
    - target: {fileID: 5378320879412414241, guid: 3435f0fc518622d4bb4233b8bd422c44,
        type: 3}
      propertyPath: m_LocalRotation.x
      value: -0
      objectReference: {fileID: 0}
    - target: {fileID: 5378320879412414241, guid: 3435f0fc518622d4bb4233b8bd422c44,
        type: 3}
      propertyPath: m_LocalRotation.y
      value: -0
      objectReference: {fileID: 0}
    - target: {fileID: 5378320879412414241, guid: 3435f0fc518622d4bb4233b8bd422c44,
        type: 3}
      propertyPath: m_LocalRotation.z
      value: -0
      objectReference: {fileID: 0}
    - target: {fileID: 5378320879412414241, guid: 3435f0fc518622d4bb4233b8bd422c44,
        type: 3}
      propertyPath: m_LocalRotation.w
      value: 1
      objectReference: {fileID: 0}
    - target: {fileID: 5378320879412414241, guid: 3435f0fc518622d4bb4233b8bd422c44,
        type: 3}
      propertyPath: m_RootOrder
      value: 6
      objectReference: {fileID: 0}
    - target: {fileID: 5378320879412414241, guid: 3435f0fc518622d4bb4233b8bd422c44,
        type: 3}
      propertyPath: m_LocalEulerAnglesHint.x
      value: 0
      objectReference: {fileID: 0}
    - target: {fileID: 5378320879412414241, guid: 3435f0fc518622d4bb4233b8bd422c44,
        type: 3}
      propertyPath: m_LocalEulerAnglesHint.y
      value: 0
      objectReference: {fileID: 0}
    - target: {fileID: 5378320879412414241, guid: 3435f0fc518622d4bb4233b8bd422c44,
        type: 3}
      propertyPath: m_LocalEulerAnglesHint.z
      value: 0
      objectReference: {fileID: 0}
    - target: {fileID: 9005223985572967730, guid: 3435f0fc518622d4bb4233b8bd422c44,
        type: 3}
      propertyPath: m_Name
      value: EA_Middle_Floor_Clean_Hollow_Orange_05_PRE (1)
      objectReference: {fileID: 0}
    m_RemovedComponents: []
  m_SourcePrefab: {fileID: 100100000, guid: 3435f0fc518622d4bb4233b8bd422c44, type: 3}
--- !u!4 &2501904394464019869 stripped
Transform:
  m_CorrespondingSourceObject: {fileID: 5378320879412414241, guid: 3435f0fc518622d4bb4233b8bd422c44,
    type: 3}
  m_PrefabInstance: {fileID: 7501640811725308604}
  m_PrefabAsset: {fileID: 0}
--- !u!1001 &7788150255089383438
PrefabInstance:
  m_ObjectHideFlags: 0
  serializedVersion: 2
  m_Modification:
    m_TransformParent: {fileID: 2237010147972601746}
    m_Modifications:
    - target: {fileID: 2159157481838995942, guid: 72fbb5b154c324744be0ef0e5e825fdd,
        type: 3}
      propertyPath: m_Name
      value: EA_Clean_Middle_Floor_Convex_Orange_01_PRE (6)
      objectReference: {fileID: 0}
    - target: {fileID: 3147320779238349813, guid: 72fbb5b154c324744be0ef0e5e825fdd,
        type: 3}
      propertyPath: m_LocalPosition.x
      value: -0.032814026
      objectReference: {fileID: 0}
    - target: {fileID: 3147320779238349813, guid: 72fbb5b154c324744be0ef0e5e825fdd,
        type: 3}
      propertyPath: m_LocalPosition.y
      value: 12.02
      objectReference: {fileID: 0}
    - target: {fileID: 3147320779238349813, guid: 72fbb5b154c324744be0ef0e5e825fdd,
        type: 3}
      propertyPath: m_LocalPosition.z
      value: 0
      objectReference: {fileID: 0}
    - target: {fileID: 3147320779238349813, guid: 72fbb5b154c324744be0ef0e5e825fdd,
        type: 3}
      propertyPath: m_LocalRotation.x
      value: -0
      objectReference: {fileID: 0}
    - target: {fileID: 3147320779238349813, guid: 72fbb5b154c324744be0ef0e5e825fdd,
        type: 3}
      propertyPath: m_LocalRotation.y
      value: -0
      objectReference: {fileID: 0}
    - target: {fileID: 3147320779238349813, guid: 72fbb5b154c324744be0ef0e5e825fdd,
        type: 3}
      propertyPath: m_LocalRotation.z
      value: -0
      objectReference: {fileID: 0}
    - target: {fileID: 3147320779238349813, guid: 72fbb5b154c324744be0ef0e5e825fdd,
        type: 3}
      propertyPath: m_LocalRotation.w
      value: 1
      objectReference: {fileID: 0}
    - target: {fileID: 3147320779238349813, guid: 72fbb5b154c324744be0ef0e5e825fdd,
        type: 3}
      propertyPath: m_RootOrder
      value: 4
      objectReference: {fileID: 0}
    - target: {fileID: 3147320779238349813, guid: 72fbb5b154c324744be0ef0e5e825fdd,
        type: 3}
      propertyPath: m_LocalEulerAnglesHint.x
      value: 0
      objectReference: {fileID: 0}
    - target: {fileID: 3147320779238349813, guid: 72fbb5b154c324744be0ef0e5e825fdd,
        type: 3}
      propertyPath: m_LocalEulerAnglesHint.y
      value: 0
      objectReference: {fileID: 0}
    - target: {fileID: 3147320779238349813, guid: 72fbb5b154c324744be0ef0e5e825fdd,
        type: 3}
      propertyPath: m_LocalEulerAnglesHint.z
      value: 0
      objectReference: {fileID: 0}
    m_RemovedComponents: []
  m_SourcePrefab: {fileID: 100100000, guid: 72fbb5b154c324744be0ef0e5e825fdd, type: 3}
--- !u!4 &5168046556037604347 stripped
Transform:
  m_CorrespondingSourceObject: {fileID: 3147320779238349813, guid: 72fbb5b154c324744be0ef0e5e825fdd,
    type: 3}
  m_PrefabInstance: {fileID: 7788150255089383438}
  m_PrefabAsset: {fileID: 0}
