%YAML 1.1
%TAG !u! tag:unity3d.com,2011:
--- !u!64 &6940629688222351212
MeshCollider:
  m_ObjectHideFlags: 0
  m_CorrespondingSourceObject: {fileID: 0}
  m_PrefabInstance: {fileID: 0}
  m_PrefabAsset: {fileID: 0}
  m_GameObject: {fileID: 1321556853963276706}
  m_Material: {fileID: 0}
  m_IsTrigger: 0
  m_Enabled: 1
  serializedVersion: 4
  m_Convex: 0
  m_CookingOptions: 30
  m_Mesh: {fileID: 4300000, guid: cb962c21b2eec1342be618030f59eb10, type: 3}
--- !u!1 &6437276358829753329
GameObject:
  m_ObjectHideFlags: 0
  m_CorrespondingSourceObject: {fileID: 0}
  m_PrefabInstance: {fileID: 0}
  m_PrefabAsset: {fileID: 0}
  serializedVersion: 6
  m_Component:
  - component: {fileID: 4981902171163546468}
  m_Layer: 0
  m_Name: EA_Stall_Assortment_02e_PRE
  m_TagString: Untagged
  m_Icon: {fileID: 0}
  m_NavMeshLayer: 0
  m_StaticEditorFlags: 0
  m_IsActive: 1
--- !u!4 &4981902171163546468
Transform:
  m_ObjectHideFlags: 0
  m_CorrespondingSourceObject: {fileID: 0}
  m_PrefabInstance: {fileID: 0}
  m_PrefabAsset: {fileID: 0}
  m_GameObject: {fileID: 6437276358829753329}
  m_LocalRotation: {x: 0, y: 0, z: 0, w: 1}
  m_LocalPosition: {x: 0, y: 0, z: 0}
  m_LocalScale: {x: 1, y: 1, z: 1}
  m_Children:
  - {fileID: 1321556853962923396}
  - {fileID: 1617810183729006273}
  - {fileID: 5315869167814159124}
  - {fileID: 7306167292928844089}
  - {fileID: 8529723509617433174}
  - {fileID: 1796777998627842106}
  - {fileID: 6082612915391969423}
  m_Father: {fileID: 0}
  m_RootOrder: 0
  m_LocalEulerAnglesHint: {x: 0, y: 0, z: 0}
--- !u!1001 &6940629688222351202
PrefabInstance:
  m_ObjectHideFlags: 0
  serializedVersion: 2
  m_Modification:
    m_TransformParent: {fileID: 4981902171163546468}
    m_Modifications:
    - target: {fileID: 8215987497355919046, guid: 5c9ced38599e09e4ca2e6f6b7697b0f4,
        type: 3}
      propertyPath: m_Name
      value: EA_ModernMarket_01e_PRE
      objectReference: {fileID: 0}
    - target: {fileID: 8215987497356010214, guid: 5c9ced38599e09e4ca2e6f6b7697b0f4,
        type: 3}
      propertyPath: m_LocalPosition.x
      value: 0.03179741
      objectReference: {fileID: 0}
    - target: {fileID: 8215987497356010214, guid: 5c9ced38599e09e4ca2e6f6b7697b0f4,
        type: 3}
      propertyPath: m_LocalPosition.y
      value: 0.00035095215
      objectReference: {fileID: 0}
    - target: {fileID: 8215987497356010214, guid: 5c9ced38599e09e4ca2e6f6b7697b0f4,
        type: 3}
      propertyPath: m_LocalPosition.z
      value: -0.0980854
      objectReference: {fileID: 0}
    - target: {fileID: 8215987497356010214, guid: 5c9ced38599e09e4ca2e6f6b7697b0f4,
        type: 3}
      propertyPath: m_LocalRotation.x
      value: 0
      objectReference: {fileID: 0}
    - target: {fileID: 8215987497356010214, guid: 5c9ced38599e09e4ca2e6f6b7697b0f4,
        type: 3}
      propertyPath: m_LocalRotation.y
      value: 0
      objectReference: {fileID: 0}
    - target: {fileID: 8215987497356010214, guid: 5c9ced38599e09e4ca2e6f6b7697b0f4,
        type: 3}
      propertyPath: m_LocalRotation.z
      value: 0
      objectReference: {fileID: 0}
    - target: {fileID: 8215987497356010214, guid: 5c9ced38599e09e4ca2e6f6b7697b0f4,
        type: 3}
      propertyPath: m_LocalRotation.w
      value: 1
      objectReference: {fileID: 0}
    - target: {fileID: 8215987497356010214, guid: 5c9ced38599e09e4ca2e6f6b7697b0f4,
        type: 3}
      propertyPath: m_RootOrder
      value: 0
      objectReference: {fileID: 0}
    - target: {fileID: 8215987497356010214, guid: 5c9ced38599e09e4ca2e6f6b7697b0f4,
        type: 3}
      propertyPath: m_LocalEulerAnglesHint.x
      value: 0.002
      objectReference: {fileID: 0}
    - target: {fileID: 8215987497356010214, guid: 5c9ced38599e09e4ca2e6f6b7697b0f4,
        type: 3}
      propertyPath: m_LocalEulerAnglesHint.y
      value: -28.429
      objectReference: {fileID: 0}
    - target: {fileID: 8215987497356010214, guid: 5c9ced38599e09e4ca2e6f6b7697b0f4,
        type: 3}
      propertyPath: m_LocalEulerAnglesHint.z
      value: 0.008
      objectReference: {fileID: 0}
    m_RemovedComponents: []
  m_SourcePrefab: {fileID: 100100000, guid: 5c9ced38599e09e4ca2e6f6b7697b0f4, type: 3}
--- !u!4 &1321556853962923396 stripped
Transform:
  m_CorrespondingSourceObject: {fileID: 8215987497356010214, guid: 5c9ced38599e09e4ca2e6f6b7697b0f4,
    type: 3}
  m_PrefabInstance: {fileID: 6940629688222351202}
  m_PrefabAsset: {fileID: 0}
--- !u!1 &1321556853963276706 stripped
GameObject:
  m_CorrespondingSourceObject: {fileID: 8215987497355919040, guid: 5c9ced38599e09e4ca2e6f6b7697b0f4,
    type: 3}
  m_PrefabInstance: {fileID: 6940629688222351202}
  m_PrefabAsset: {fileID: 0}
--- !u!1001 &6940629688435444487
PrefabInstance:
  m_ObjectHideFlags: 0
  serializedVersion: 2
  m_Modification:
    m_TransformParent: {fileID: 4981902171163546468}
    m_Modifications:
    - target: {fileID: 1589132656836219217, guid: 49bcf89b56dd97f43a2f44344ca3157b,
        type: 3}
      propertyPath: m_LocalPosition.x
      value: 0.18
      objectReference: {fileID: 0}
    - target: {fileID: 1589132656836219217, guid: 49bcf89b56dd97f43a2f44344ca3157b,
        type: 3}
      propertyPath: m_LocalPosition.y
      value: 0.9753494
      objectReference: {fileID: 0}
    - target: {fileID: 1589132656836219217, guid: 49bcf89b56dd97f43a2f44344ca3157b,
        type: 3}
      propertyPath: m_LocalPosition.z
      value: 0.186
      objectReference: {fileID: 0}
    - target: {fileID: 1589132656836219217, guid: 49bcf89b56dd97f43a2f44344ca3157b,
        type: 3}
      propertyPath: m_LocalRotation.x
      value: 0
      objectReference: {fileID: 0}
    - target: {fileID: 1589132656836219217, guid: 49bcf89b56dd97f43a2f44344ca3157b,
        type: 3}
      propertyPath: m_LocalRotation.y
      value: 0
      objectReference: {fileID: 0}
    - target: {fileID: 1589132656836219217, guid: 49bcf89b56dd97f43a2f44344ca3157b,
        type: 3}
      propertyPath: m_LocalRotation.z
      value: 0
      objectReference: {fileID: 0}
    - target: {fileID: 1589132656836219217, guid: 49bcf89b56dd97f43a2f44344ca3157b,
        type: 3}
      propertyPath: m_LocalRotation.w
      value: 1
      objectReference: {fileID: 0}
    - target: {fileID: 1589132656836219217, guid: 49bcf89b56dd97f43a2f44344ca3157b,
        type: 3}
      propertyPath: m_RootOrder
      value: 4
      objectReference: {fileID: 0}
    - target: {fileID: 1589132656836219217, guid: 49bcf89b56dd97f43a2f44344ca3157b,
        type: 3}
      propertyPath: m_LocalEulerAnglesHint.x
      value: 0
      objectReference: {fileID: 0}
    - target: {fileID: 1589132656836219217, guid: 49bcf89b56dd97f43a2f44344ca3157b,
        type: 3}
      propertyPath: m_LocalEulerAnglesHint.y
      value: 0
      objectReference: {fileID: 0}
    - target: {fileID: 1589132656836219217, guid: 49bcf89b56dd97f43a2f44344ca3157b,
        type: 3}
      propertyPath: m_LocalEulerAnglesHint.z
      value: 0
      objectReference: {fileID: 0}
    - target: {fileID: 2330298775129875266, guid: 49bcf89b56dd97f43a2f44344ca3157b,
        type: 3}
      propertyPath: m_Name
      value: EA_Assortment_Stripe_01a
      objectReference: {fileID: 0}
    m_RemovedComponents: []
  m_SourcePrefab: {fileID: 100100000, guid: 49bcf89b56dd97f43a2f44344ca3157b, type: 3}
--- !u!4 &8529723509617433174 stripped
Transform:
  m_CorrespondingSourceObject: {fileID: 1589132656836219217, guid: 49bcf89b56dd97f43a2f44344ca3157b,
    type: 3}
  m_PrefabInstance: {fileID: 6940629688435444487}
  m_PrefabAsset: {fileID: 0}
--- !u!1001 &6940629688817839532
PrefabInstance:
  m_ObjectHideFlags: 0
  serializedVersion: 2
  m_Modification:
    m_TransformParent: {fileID: 4981902171163546468}
    m_Modifications:
    - target: {fileID: 5685293310300764037, guid: ce57387d762add14494bd2f76d7bee2c,
        type: 3}
      propertyPath: m_Name
      value: EA_Assortment_Box_02a_PRE
      objectReference: {fileID: 0}
    - target: {fileID: 8700217790712726934, guid: ce57387d762add14494bd2f76d7bee2c,
        type: 3}
      propertyPath: m_LocalPosition.x
      value: -0.6635666
      objectReference: {fileID: 0}
    - target: {fileID: 8700217790712726934, guid: ce57387d762add14494bd2f76d7bee2c,
        type: 3}
      propertyPath: m_LocalPosition.y
      value: 0.97026825
      objectReference: {fileID: 0}
    - target: {fileID: 8700217790712726934, guid: ce57387d762add14494bd2f76d7bee2c,
        type: 3}
      propertyPath: m_LocalPosition.z
      value: 0.068
      objectReference: {fileID: 0}
    - target: {fileID: 8700217790712726934, guid: ce57387d762add14494bd2f76d7bee2c,
        type: 3}
      propertyPath: m_LocalRotation.x
      value: 0
      objectReference: {fileID: 0}
    - target: {fileID: 8700217790712726934, guid: ce57387d762add14494bd2f76d7bee2c,
        type: 3}
      propertyPath: m_LocalRotation.y
      value: 0
      objectReference: {fileID: 0}
    - target: {fileID: 8700217790712726934, guid: ce57387d762add14494bd2f76d7bee2c,
        type: 3}
      propertyPath: m_LocalRotation.z
      value: 0
      objectReference: {fileID: 0}
    - target: {fileID: 8700217790712726934, guid: ce57387d762add14494bd2f76d7bee2c,
        type: 3}
      propertyPath: m_LocalRotation.w
      value: 1
      objectReference: {fileID: 0}
    - target: {fileID: 8700217790712726934, guid: ce57387d762add14494bd2f76d7bee2c,
        type: 3}
      propertyPath: m_RootOrder
      value: 5
      objectReference: {fileID: 0}
    - target: {fileID: 8700217790712726934, guid: ce57387d762add14494bd2f76d7bee2c,
        type: 3}
      propertyPath: m_LocalEulerAnglesHint.x
      value: -0.71500003
      objectReference: {fileID: 0}
    - target: {fileID: 8700217790712726934, guid: ce57387d762add14494bd2f76d7bee2c,
        type: 3}
      propertyPath: m_LocalEulerAnglesHint.y
      value: -28.632002
      objectReference: {fileID: 0}
    - target: {fileID: 8700217790712726934, guid: ce57387d762add14494bd2f76d7bee2c,
        type: 3}
      propertyPath: m_LocalEulerAnglesHint.z
      value: 0.44200003
      objectReference: {fileID: 0}
    - target: {fileID: 8700217790712726934, guid: ce57387d762add14494bd2f76d7bee2c,
        type: 3}
      propertyPath: m_LocalScale.x
      value: 0.79171574
      objectReference: {fileID: 0}
    - target: {fileID: 8700217790712726934, guid: ce57387d762add14494bd2f76d7bee2c,
        type: 3}
      propertyPath: m_LocalScale.y
      value: 0.79171574
      objectReference: {fileID: 0}
    - target: {fileID: 8700217790712726934, guid: ce57387d762add14494bd2f76d7bee2c,
        type: 3}
      propertyPath: m_LocalScale.z
      value: 0.79171586
      objectReference: {fileID: 0}
    m_RemovedComponents: []
  m_SourcePrefab: {fileID: 100100000, guid: ce57387d762add14494bd2f76d7bee2c, type: 3}
--- !u!4 &1796777998627842106 stripped
Transform:
  m_CorrespondingSourceObject: {fileID: 8700217790712726934, guid: ce57387d762add14494bd2f76d7bee2c,
    type: 3}
  m_PrefabInstance: {fileID: 6940629688817839532}
  m_PrefabAsset: {fileID: 0}
--- !u!1001 &6940629689181733379
PrefabInstance:
  m_ObjectHideFlags: 0
  serializedVersion: 2
  m_Modification:
    m_TransformParent: {fileID: 4981902171163546468}
    m_Modifications:
    - target: {fileID: 375674108856034106, guid: b370162b307c21c4b94eb7476d13b4b5,
        type: 3}
      propertyPath: m_LocalPosition.x
      value: 0.57704544
      objectReference: {fileID: 0}
    - target: {fileID: 375674108856034106, guid: b370162b307c21c4b94eb7476d13b4b5,
        type: 3}
      propertyPath: m_LocalPosition.y
      value: 0.9507141
      objectReference: {fileID: 0}
    - target: {fileID: 375674108856034106, guid: b370162b307c21c4b94eb7476d13b4b5,
        type: 3}
      propertyPath: m_LocalPosition.z
      value: 0.14624023
      objectReference: {fileID: 0}
    - target: {fileID: 375674108856034106, guid: b370162b307c21c4b94eb7476d13b4b5,
        type: 3}
      propertyPath: m_LocalRotation.x
      value: 0
      objectReference: {fileID: 0}
    - target: {fileID: 375674108856034106, guid: b370162b307c21c4b94eb7476d13b4b5,
        type: 3}
      propertyPath: m_LocalRotation.y
      value: 0
      objectReference: {fileID: 0}
    - target: {fileID: 375674108856034106, guid: b370162b307c21c4b94eb7476d13b4b5,
        type: 3}
      propertyPath: m_LocalRotation.z
      value: 0
      objectReference: {fileID: 0}
    - target: {fileID: 375674108856034106, guid: b370162b307c21c4b94eb7476d13b4b5,
        type: 3}
      propertyPath: m_LocalRotation.w
      value: 1
      objectReference: {fileID: 0}
    - target: {fileID: 375674108856034106, guid: b370162b307c21c4b94eb7476d13b4b5,
        type: 3}
      propertyPath: m_RootOrder
      value: 3
      objectReference: {fileID: 0}
    - target: {fileID: 375674108856034106, guid: b370162b307c21c4b94eb7476d13b4b5,
        type: 3}
      propertyPath: m_LocalEulerAnglesHint.x
      value: 0
      objectReference: {fileID: 0}
    - target: {fileID: 375674108856034106, guid: b370162b307c21c4b94eb7476d13b4b5,
        type: 3}
      propertyPath: m_LocalEulerAnglesHint.y
      value: 0
      objectReference: {fileID: 0}
    - target: {fileID: 375674108856034106, guid: b370162b307c21c4b94eb7476d13b4b5,
        type: 3}
      propertyPath: m_LocalEulerAnglesHint.z
      value: 0
      objectReference: {fileID: 0}
    - target: {fileID: 375674108856034106, guid: b370162b307c21c4b94eb7476d13b4b5,
        type: 3}
      propertyPath: m_LocalScale.x
      value: 0.9999999
      objectReference: {fileID: 0}
    - target: {fileID: 375674108856034106, guid: b370162b307c21c4b94eb7476d13b4b5,
        type: 3}
      propertyPath: m_LocalScale.y
      value: 0.99999994
      objectReference: {fileID: 0}
    - target: {fileID: 3705882245361963305, guid: b370162b307c21c4b94eb7476d13b4b5,
        type: 3}
      propertyPath: m_Name
      value: EA_Assortment_Bottle_01b_PRE
      objectReference: {fileID: 0}
    m_RemovedComponents: []
  m_SourcePrefab: {fileID: 100100000, guid: b370162b307c21c4b94eb7476d13b4b5, type: 3}
--- !u!4 &7306167292928844089 stripped
Transform:
  m_CorrespondingSourceObject: {fileID: 375674108856034106, guid: b370162b307c21c4b94eb7476d13b4b5,
    type: 3}
  m_PrefabInstance: {fileID: 6940629689181733379}
  m_PrefabAsset: {fileID: 0}
--- !u!1001 &6940629689448802209
PrefabInstance:
  m_ObjectHideFlags: 0
  serializedVersion: 2
  m_Modification:
    m_TransformParent: {fileID: 4981902171163546468}
    m_Modifications:
    - target: {fileID: 2291359017831071398, guid: f14a53d441cb3c94cb4729814224b3ac,
        type: 3}
      propertyPath: m_Name
      value: EA_Assortment_Bottle_01a_PRE
      objectReference: {fileID: 0}
    - target: {fileID: 2997096323521678517, guid: f14a53d441cb3c94cb4729814224b3ac,
        type: 3}
      propertyPath: m_LocalPosition.x
      value: 0.7736664
      objectReference: {fileID: 0}
    - target: {fileID: 2997096323521678517, guid: f14a53d441cb3c94cb4729814224b3ac,
        type: 3}
      propertyPath: m_LocalPosition.y
      value: 0.9583435
      objectReference: {fileID: 0}
    - target: {fileID: 2997096323521678517, guid: f14a53d441cb3c94cb4729814224b3ac,
        type: 3}
      propertyPath: m_LocalPosition.z
      value: 0.22166061
      objectReference: {fileID: 0}
    - target: {fileID: 2997096323521678517, guid: f14a53d441cb3c94cb4729814224b3ac,
        type: 3}
      propertyPath: m_LocalRotation.x
      value: 0
      objectReference: {fileID: 0}
    - target: {fileID: 2997096323521678517, guid: f14a53d441cb3c94cb4729814224b3ac,
        type: 3}
      propertyPath: m_LocalRotation.y
      value: 0
      objectReference: {fileID: 0}
    - target: {fileID: 2997096323521678517, guid: f14a53d441cb3c94cb4729814224b3ac,
        type: 3}
      propertyPath: m_LocalRotation.z
      value: 0
      objectReference: {fileID: 0}
    - target: {fileID: 2997096323521678517, guid: f14a53d441cb3c94cb4729814224b3ac,
        type: 3}
      propertyPath: m_LocalRotation.w
      value: 1
      objectReference: {fileID: 0}
    - target: {fileID: 2997096323521678517, guid: f14a53d441cb3c94cb4729814224b3ac,
        type: 3}
      propertyPath: m_RootOrder
      value: 2
      objectReference: {fileID: 0}
    - target: {fileID: 2997096323521678517, guid: f14a53d441cb3c94cb4729814224b3ac,
        type: 3}
      propertyPath: m_LocalEulerAnglesHint.x
      value: 0
      objectReference: {fileID: 0}
    - target: {fileID: 2997096323521678517, guid: f14a53d441cb3c94cb4729814224b3ac,
        type: 3}
      propertyPath: m_LocalEulerAnglesHint.y
      value: 0
      objectReference: {fileID: 0}
    - target: {fileID: 2997096323521678517, guid: f14a53d441cb3c94cb4729814224b3ac,
        type: 3}
      propertyPath: m_LocalEulerAnglesHint.z
      value: 0
      objectReference: {fileID: 0}
    m_RemovedComponents: []
  m_SourcePrefab: {fileID: 100100000, guid: f14a53d441cb3c94cb4729814224b3ac, type: 3}
--- !u!4 &5315869167814159124 stripped
Transform:
  m_CorrespondingSourceObject: {fileID: 2997096323521678517, guid: f14a53d441cb3c94cb4729814224b3ac,
    type: 3}
  m_PrefabInstance: {fileID: 6940629689448802209}
  m_PrefabAsset: {fileID: 0}
--- !u!1001 &6940629689605859252
PrefabInstance:
  m_ObjectHideFlags: 0
  serializedVersion: 2
  m_Modification:
    m_TransformParent: {fileID: 4981902171163546468}
    m_Modifications:
    - target: {fileID: 171277579730185512, guid: 4e825d20fd19f5944b9563634ec15a4c,
        type: 3}
      propertyPath: m_Name
      value: EA_Assortment_Bottle_01d_PRE (7)
      objectReference: {fileID: 0}
    - target: {fileID: 3763841425911357243, guid: 4e825d20fd19f5944b9563634ec15a4c,
        type: 3}
      propertyPath: m_LocalPosition.x
      value: 0.7066612
      objectReference: {fileID: 0}
    - target: {fileID: 3763841425911357243, guid: 4e825d20fd19f5944b9563634ec15a4c,
        type: 3}
      propertyPath: m_LocalPosition.y
      value: 0.94618225
      objectReference: {fileID: 0}
    - target: {fileID: 3763841425911357243, guid: 4e825d20fd19f5944b9563634ec15a4c,
        type: 3}
      propertyPath: m_LocalPosition.z
      value: -0.06320763
      objectReference: {fileID: 0}
    - target: {fileID: 3763841425911357243, guid: 4e825d20fd19f5944b9563634ec15a4c,
        type: 3}
      propertyPath: m_LocalRotation.x
      value: 0
      objectReference: {fileID: 0}
    - target: {fileID: 3763841425911357243, guid: 4e825d20fd19f5944b9563634ec15a4c,
        type: 3}
      propertyPath: m_LocalRotation.y
      value: 0
      objectReference: {fileID: 0}
    - target: {fileID: 3763841425911357243, guid: 4e825d20fd19f5944b9563634ec15a4c,
        type: 3}
      propertyPath: m_LocalRotation.z
      value: 0
      objectReference: {fileID: 0}
    - target: {fileID: 3763841425911357243, guid: 4e825d20fd19f5944b9563634ec15a4c,
        type: 3}
      propertyPath: m_LocalRotation.w
      value: 1
      objectReference: {fileID: 0}
    - target: {fileID: 3763841425911357243, guid: 4e825d20fd19f5944b9563634ec15a4c,
        type: 3}
      propertyPath: m_RootOrder
      value: 6
      objectReference: {fileID: 0}
    - target: {fileID: 3763841425911357243, guid: 4e825d20fd19f5944b9563634ec15a4c,
        type: 3}
      propertyPath: m_LocalEulerAnglesHint.x
      value: 0
      objectReference: {fileID: 0}
    - target: {fileID: 3763841425911357243, guid: 4e825d20fd19f5944b9563634ec15a4c,
        type: 3}
      propertyPath: m_LocalEulerAnglesHint.y
      value: 0
      objectReference: {fileID: 0}
    - target: {fileID: 3763841425911357243, guid: 4e825d20fd19f5944b9563634ec15a4c,
        type: 3}
      propertyPath: m_LocalEulerAnglesHint.z
      value: 0
      objectReference: {fileID: 0}
    - target: {fileID: 3763841425911357243, guid: 4e825d20fd19f5944b9563634ec15a4c,
        type: 3}
      propertyPath: m_LocalScale.x
      value: 0.9999999
      objectReference: {fileID: 0}
    - target: {fileID: 3763841425911357243, guid: 4e825d20fd19f5944b9563634ec15a4c,
        type: 3}
      propertyPath: m_LocalScale.y
      value: 0.99999994
      objectReference: {fileID: 0}
    m_RemovedComponents: []
  m_SourcePrefab: {fileID: 100100000, guid: 4e825d20fd19f5944b9563634ec15a4c, type: 3}
--- !u!4 &6082612915391969423 stripped
Transform:
  m_CorrespondingSourceObject: {fileID: 3763841425911357243, guid: 4e825d20fd19f5944b9563634ec15a4c,
    type: 3}
  m_PrefabInstance: {fileID: 6940629689605859252}
  m_PrefabAsset: {fileID: 0}
--- !u!1001 &6940629689612437551
PrefabInstance:
  m_ObjectHideFlags: 0
  serializedVersion: 2
  m_Modification:
    m_TransformParent: {fileID: 4981902171163546468}
    m_Modifications:
    - target: {fileID: 4646261258698013949, guid: d6e47c852763f54478d3b29130f4e425,
        type: 3}
      propertyPath: m_Name
      value: EA_Assortment_Bottle_02b_PRE
      objectReference: {fileID: 0}
    - target: {fileID: 8512238872485973742, guid: d6e47c852763f54478d3b29130f4e425,
        type: 3}
      propertyPath: m_LocalPosition.x
      value: 0.963
      objectReference: {fileID: 0}
    - target: {fileID: 8512238872485973742, guid: d6e47c852763f54478d3b29130f4e425,
        type: 3}
      propertyPath: m_LocalPosition.y
      value: 0.9449234
      objectReference: {fileID: 0}
    - target: {fileID: 8512238872485973742, guid: d6e47c852763f54478d3b29130f4e425,
        type: 3}
      propertyPath: m_LocalPosition.z
      value: -0.025
      objectReference: {fileID: 0}
    - target: {fileID: 8512238872485973742, guid: d6e47c852763f54478d3b29130f4e425,
        type: 3}
      propertyPath: m_LocalRotation.x
      value: 0
      objectReference: {fileID: 0}
    - target: {fileID: 8512238872485973742, guid: d6e47c852763f54478d3b29130f4e425,
        type: 3}
      propertyPath: m_LocalRotation.y
      value: 0
      objectReference: {fileID: 0}
    - target: {fileID: 8512238872485973742, guid: d6e47c852763f54478d3b29130f4e425,
        type: 3}
      propertyPath: m_LocalRotation.z
      value: 0
      objectReference: {fileID: 0}
    - target: {fileID: 8512238872485973742, guid: d6e47c852763f54478d3b29130f4e425,
        type: 3}
      propertyPath: m_LocalRotation.w
      value: 1
      objectReference: {fileID: 0}
    - target: {fileID: 8512238872485973742, guid: d6e47c852763f54478d3b29130f4e425,
        type: 3}
      propertyPath: m_RootOrder
      value: 1
      objectReference: {fileID: 0}
    - target: {fileID: 8512238872485973742, guid: d6e47c852763f54478d3b29130f4e425,
        type: 3}
      propertyPath: m_LocalEulerAnglesHint.x
      value: 0
      objectReference: {fileID: 0}
    - target: {fileID: 8512238872485973742, guid: d6e47c852763f54478d3b29130f4e425,
        type: 3}
      propertyPath: m_LocalEulerAnglesHint.y
      value: 0
      objectReference: {fileID: 0}
    - target: {fileID: 8512238872485973742, guid: d6e47c852763f54478d3b29130f4e425,
        type: 3}
      propertyPath: m_LocalEulerAnglesHint.z
      value: 0
      objectReference: {fileID: 0}
    - target: {fileID: 8512238872485973742, guid: d6e47c852763f54478d3b29130f4e425,
        type: 3}
      propertyPath: m_LocalScale.x
      value: 0.9999999
      objectReference: {fileID: 0}
    - target: {fileID: 8512238872485973742, guid: d6e47c852763f54478d3b29130f4e425,
        type: 3}
      propertyPath: m_LocalScale.y
      value: 0.99999994
      objectReference: {fileID: 0}
    m_RemovedComponents: []
  m_SourcePrefab: {fileID: 100100000, guid: d6e47c852763f54478d3b29130f4e425, type: 3}
--- !u!4 &1617810183729006273 stripped
Transform:
  m_CorrespondingSourceObject: {fileID: 8512238872485973742, guid: d6e47c852763f54478d3b29130f4e425,
    type: 3}
  m_PrefabInstance: {fileID: 6940629689612437551}
  m_PrefabAsset: {fileID: 0}
