Personnage,Contexte,Identifiant ,Préconditions,Silent,End,NextLine,Texte
Chaloup,Idle,D_C_IDLE,,FALSE,FALSE,D_LC_EVT_1,Mais puisque je vous dis de me laisser entrer !
Lemmy Caution,Event,D_LC_EVT_1,,FALSE,FALSE,D_C_EVT_1,Mais vous nous pouvez pas juste venir vous servir dans l'usine !
Chaloup,Event,D_C_EVT_1,,FALSE,TRUE,D_C_IDLE_PI,Mais y en a qui ont soif !!
,,,,,,,
Chaloup,,D_C_IDLE_PI,,FALSE,FALSE,D_DR_C_END;D_DR_C_QTC_1,Qu'est ce que vous me vouler vous encore ??!
Dick Reckard,Ending,D_DR_C_END,,FALSE,FALSE,D_C_IDLE_END,Au revoir...
Chaloup,,D_C_IDLE_END,,FALSE,TRUE,D_C_IDLE_PI,Ouais ouais c'est ça...
,,,,,,,
Dick Reckard,Quête : Trouver Challoup',D_DR_C_QTC_1,LC-D_C_QTC_6-FALSE,FALSE,FALSE,D_C_QTC_1,Avez vous vu quoi que ce soit de louche hier soir ?
Chaloup,Quête :,D_C_QTC_1,,FALSE,FALSE,D_DR_C_QTC_2,Ah ça oui mais je vous dis tout contre une bière si vous voulez
Dick Reckard,Quête : Trouver Challoup',D_DR_C_QTC_2,,FALSE,FALSE,D_C_QTC_2;D_DR_C_QTC_22,Je pourrais vous embarquer juste pour avoir dit ça
Dick Reckard,,D_DR_C_QTC_22,CC-Tissu de Chaloup-TRUE,FALSE,FALSE,D_C_QTC_22,D'ailleurs; c'est ce que je vais peut être faire vu que j'ai trouvé ce bout de manteau près de la scène d'enquête
Chaloup,Quête :,D_C_QTC_2,CC-Tissu de Chaloup-FALSE,FALSE,FALSE,D_DR_C_END,Pas de bibine; pas d'information
Chaloup,,D_C_QTC_22,,FALSE,FALSE,D_DR_C_QTC_4,Eh! Mais moi j'ai rien avoir avec ce qui c'est passé !
,,,,,,,
Dick Reckard,Quête : Trouver Challoup',D_DR_C_QTC_4,,FALSE,FALSE,D_C_QTC_4,Dites moi tout maintenant...
Chaloup,Quête :,D_C_QTC_4,,FALSE,FALSE,D_C_QTC_5,Des hommes masqués sont sortis du bar et se sont dirigés vers la place centrale
Chaloup,Quête :,D_C_QTC_5,,FALSE,FALSE,D_DR_C_QTC_5,Il avait les vêtements tachés de peinture et ils parlaient d'une révolution ou quelque chose comme ça
Dick Reckard,Quête : Trouver Challoup',D_DR_C_QTC_5,,FALSE,FALSE,D_C_QTC_6,Donc le patron du bar pourrait être impliqué ?
Chaloup,Quête :,D_C_QTC_6,,FALSE,FALSE,D_DR_C_END,C'est vous l'enquêteur; allez lui demander !