Personnage,Contexte,Identifiant ,Préconditions,Silent,End,NextLine,Texte
Robert Nash,Idle,D_RN_IDLE,,FALSE,FALSE,D_DR_RN_END;D_DR_RN_QTC_1,Journal du matin ! Journal du matin pour 5 pièces seulement !
Dick Reckard,Ending,D_DR_RN_END,,FALSE,FALSE,D_RN_IDLE_END,Bonne journée...
Robert Nash,,D_RN_IDLE_END,,FALSE,TRUE,D_RN_IDLE,Au revoir revenez demain !
,,,,,,,
Dick Reckard,,D_DR_RN_QTC_1,,FALSE,FALSE,D_RN_QTC_1,Avez vous vu quoi que ce soit de louche hier soir ?
Robert Nash,,D_RN_QTC_1,,FALSE,FALSE,D_DR_RN_QTC_2,Non rien du tout; enfin y a bien eu cette histoire de message sur les murs.
Dick Reckard,,D_DR_RN_QTC_2,,FALSE,FALSE,D_RN_QTC_2,Ah ! Vous pouvez m'en dire plus ?
Robert Nash,,D_RN_QTC_2,,FALSE,FALSE,D_DR_RN_QTC_3,Mais tout est dans le journal monsieur !
Dick Reckard,,D_DR_RN_QTC_3,,FALSE,FALSE,D_DR_RN_END,Très bien je regarderai ça.