Personnage,Contexte,Identifiant ,Préconditions,Silent,End,NextLine,Texte
Leonnard Karpowicks,Idle,D_LK_IDLE,,FALSE,FALSE,D_DR_LK_END;D_DR_LK_QD_1,Avec mon copain Danny on se quitte jamais
Dick Reckard,Ending,D_DR_LK_END,,FALSE,FALSE,D_LK_IDLE_END,Bonne journée...
Leonnard Karpowicks,,D_LK_IDLE_END,,FALSE,TRUE,D_LK_IDLE,Au r'voir.. Eh Danny attends moi !
,,,,,,,
Dick Reckard,,D_DR_LK_QTC_1,,FALSE,FALSE,D_LK_QTC_IDLE,Bonjour. Avez vous remarquez quoi que ce soit d'inhabituel hier soir ?
Leonnard Karpowicks,,D_LK_QTC_IDLE,,FALSE,FALSE,D_DR_LK_END ,Non rien du tout
Leonnard Karpowicks,Quête :,D_LK_QTC_1,,FALSE,FALSE,D_DR_LK_END ,Maintenant que vous le dites en effet c'est possible. Mais toute info n'est pas gratuite
Dick Reckard,,D_DR_LK_QD_1,,FALSE,FALSE,D_LK_DR_QD_1,Qu'est ce que vous manigancez tout les deux ?
Leonnard Karpowicks,Quête :,D_LK_DR_QD_1,,FALSE,FALSE,D_LK_DR_QD_2,On essaie de voir si on peut rentrez par la fenêtre cassée derrière la Distillerie.
Leonnard Karpowicks,Quête :,D_LK_DR_QD_2,,FALSE,FALSE,D_DR_LK_END ,Enfin on va pas le faire monsieur c'est juré...