Personnage,Contexte,Identifiant ,Préconditions,Silent,End,NextLine,Texte
Pablo Francisco,Idle,D_PF_IDLE,,FALSE,FALSE,D_DR_PF_END;D_DR_PF_QTC_1,Huummm.. ce jaune ? ou peut être celui là ?
Dick Reckard,Ending,D_DR_PF_END,,FALSE,FALSE,D_PF_IDLE_END,Bonne journée...
Pablo Francisco,,D_PF_IDLE_END,,FALSE,TRUE,D_PF_IDLE,Ah ! et voilà que je ne sais plus quelle teinte de jaune je dois utiliser...
,,,,,,,
Dick Reckard,,D_DR_PF_QTC_1,,FALSE,FALSE,D_PF_QTC_IDLE,Bonjour. Avez vous remarquez quoi que ce soit d'inhabituel hier soir ?
Pablo Francisco,,D_PF_QTC_IDLE,,FALSE,FALSE,D_DR_PF_END ,Non rien du tout
Pablo Francisco,Quête :,D_PF_QTC_1,,FALSE,FALSE,D_DR_PF_END ,Maintenant que vous le dites en effet c'est possible. Mais toute info n'est pas gratuite