Personnage,Contexte,Identifiant ,Préconditions,Silent,End,NextLine,Texte
Jonathan Osterman,Idle,D_JO_IDLE,,FALSE,FALSE,D_DR_JO_END;D_DR_JO_QTC_1,Si j'accorde ainsi je devrais pouvoir... hein quoi oui ?
Dick Reckard,Ending,D_DR_JO_END,,FALSE,FALSE,D_JO_IDLE_END,Bonne journée...
Jonathan Osterman,,D_JO_IDLE_END,,FALSE,TRUE,D_JO_IDLE,Oui oui au revoir. Alors si je mets ça ainsi peut-être que...
,,,,,,,
Dick Reckard,,D_DR_JO_QTC_1,,FALSE,FALSE,D_JO_QTC_IDLE,Bonjour. Avez vous remarquez quoi que ce soit d'inhabituel hier soir ?
Jonathan Osterman,,D_JO_QTC_IDLE,,FALSE,FALSE,D_DR_JO_END ,Non rien du tout
Jonathan Osterman,Quête :,D_JO_QTC_1,,FALSE,FALSE,D_DR_JO_END ,Maintenant que vous le dites en effet c'est possible. Mais toute info n'est pas gratuite