Personnage,Contexte,Identifiant ,Préconditions,Silent,End,NextLine,Texte,
Fagin,Idle,D_FA_IDLE,,FALSE,FALSE,D_DR_FA_END;D_DR_FA_QTC_1,Bonjour inspecteur. Du nouveau sur l'enquête,(les ragots vont vites à ce que je vois. OU IL EN SAIT BIEN TROP !)
Dick Reckard,Ending,D_DR_FA_END,,FALSE,FALSE,D_FA_IDLE_END,Bonne journée...,
Fagin,,D_FA_IDLE_END,,FALSE,TRUE,D_FA_IDLE,Très bien; j'ai du travail,
,,,,,,,,
Dick Reckard,,D_DR_FA_QTC_1,,FALSE,FALSE,D_FA_QTC_IDLE,Bonjour. Avez vous remarquez quoi que ce soit d'inhabituel hier soir ?,
Fagin,,D_FA_QTC_IDLE,,FALSE,FALSE,D_DR_FA_END ,Non rien du tout,
Fagin,Quête :,D_FA_QTC_1,,FALSE,FALSE,D_DR_FA_END ,Maintenant que vous le dites en effet c'est possible. Mais toute info n'est pas gratuite,